%!PS-Adobe-3.0 EPSF-3.0
%%Creator: (MATLAB, The Mathworks, Inc. Version 8.5.0.197613 \(R2015a\). Operating System: Linux)
%%Title: plots/ProtoProfiles.eps
%%CreationDate: 2017-04-30T22:26:27
%%Pages: (atend)
%%BoundingBox: (atend)
%%LanguageLevel: 3
%%EndComments
%%BeginProlog
%%BeginResource: procset (Apache XML Graphics Std ProcSet) 1.2 0
%%Version: 1.2 0
%%Copyright: (Copyright 2001-2003,2010 The Apache Software Foundation. License terms: http://www.apache.org/licenses/LICENSE-2.0)
/bd{bind def}bind def
/ld{load def}bd
/GR/grestore ld
/M/moveto ld
/LJ/setlinejoin ld
/C/curveto ld
/f/fill ld
/LW/setlinewidth ld
/GC/setgray ld
/t/show ld
/N/newpath ld
/CT/concat ld
/cp/closepath ld
/S/stroke ld
/L/lineto ld
/CC/setcmykcolor ld
/A/ashow ld
/GS/gsave ld
/RC/setrgbcolor ld
/RM/rmoveto ld
/ML/setmiterlimit ld
/re {4 2 roll M
1 index 0 rlineto
0 exch rlineto
neg 0 rlineto
cp } bd
/_ctm matrix def
/_tm matrix def
/BT { _ctm currentmatrix pop matrix _tm copy pop 0 0 moveto } bd
/ET { _ctm setmatrix } bd
/iTm { _ctm setmatrix _tm concat } bd
/Tm { _tm astore pop iTm 0 0 moveto } bd
/ux 0.0 def
/uy 0.0 def
/F {
  /Tp exch def
  /Tf exch def
  Tf findfont Tp scalefont setfont
  /cf Tf def  /cs Tp def
} bd
/ULS {currentpoint /uy exch def /ux exch def} bd
/ULE {
  /Tcx currentpoint pop def
  gsave
  newpath
  cf findfont cs scalefont dup
  /FontMatrix get 0 get /Ts exch def /FontInfo get dup
  /UnderlinePosition get Ts mul /To exch def
  /UnderlineThickness get Ts mul /Tt exch def
  ux uy To add moveto  Tcx uy To add lineto
  Tt setlinewidth stroke
  grestore
} bd
/OLE {
  /Tcx currentpoint pop def
  gsave
  newpath
  cf findfont cs scalefont dup
  /FontMatrix get 0 get /Ts exch def /FontInfo get dup
  /UnderlinePosition get Ts mul /To exch def
  /UnderlineThickness get Ts mul /Tt exch def
  ux uy To add cs add moveto Tcx uy To add cs add lineto
  Tt setlinewidth stroke
  grestore
} bd
/SOE {
  /Tcx currentpoint pop def
  gsave
  newpath
  cf findfont cs scalefont dup
  /FontMatrix get 0 get /Ts exch def /FontInfo get dup
  /UnderlinePosition get Ts mul /To exch def
  /UnderlineThickness get Ts mul /Tt exch def
  ux uy To add cs 10 mul 26 idiv add moveto Tcx uy To add cs 10 mul 26 idiv add lineto
  Tt setlinewidth stroke
  grestore
} bd
/QT {
/Y22 exch store
/X22 exch store
/Y21 exch store
/X21 exch store
currentpoint
/Y21 load 2 mul add 3 div exch
/X21 load 2 mul add 3 div exch
/X21 load 2 mul /X22 load add 3 div
/Y21 load 2 mul /Y22 load add 3 div
/X22 load /Y22 load curveto
} bd
/SSPD {
dup length /d exch dict def
{
/v exch def
/k exch def
currentpagedevice k known {
/cpdv currentpagedevice k get def
v cpdv ne {
/upd false def
/nullv v type /nulltype eq def
/nullcpdv cpdv type /nulltype eq def
nullv nullcpdv or
{
/upd true def
} {
/sametype v type cpdv type eq def
sametype {
v type /arraytype eq {
/vlen v length def
/cpdvlen cpdv length def
vlen cpdvlen eq {
0 1 vlen 1 sub {
/i exch def
/obj v i get def
/cpdobj cpdv i get def
obj cpdobj ne {
/upd true def
exit
} if
} for
} {
/upd true def
} ifelse
} {
v type /dicttype eq {
v {
/dv exch def
/dk exch def
/cpddv cpdv dk get def
dv cpddv ne {
/upd true def
exit
} if
} forall
} {
/upd true def
} ifelse
} ifelse
} if
} ifelse
upd true eq {
d k v put
} if
} if
} if
} forall
d length 0 gt {
d setpagedevice
} if
} bd
%%EndResource
%%BeginResource: procset (Apache XML Graphics EPS ProcSet) 1.0 0
%%Version: 1.0 0
%%Copyright: (Copyright 2002-2003 The Apache Software Foundation. License terms: http://www.apache.org/licenses/LICENSE-2.0)
/BeginEPSF { %def
/b4_Inc_state save def         % Save state for cleanup
/dict_count countdictstack def % Count objects on dict stack
/op_count count 1 sub def      % Count objects on operand stack
userdict begin                 % Push userdict on dict stack
/showpage { } def              % Redefine showpage, { } = null proc
0 setgray 0 setlinecap         % Prepare graphics state
1 setlinewidth 0 setlinejoin
10 setmiterlimit [ ] 0 setdash newpath
/languagelevel where           % If level not equal to 1 then
{pop languagelevel             % set strokeadjust and
1 ne                           % overprint to their defaults.
{false setstrokeadjust false setoverprint
} if
} if
} bd
/EndEPSF { %def
count op_count sub {pop} repeat            % Clean up stacks
countdictstack dict_count sub {end} repeat
b4_Inc_state restore
} bd
%%EndResource
%FOPBeginFontDict
%%IncludeResource: font Courier-Bold
%%IncludeResource: font Helvetica
%%IncludeResource: font Courier-BoldOblique
%%IncludeResource: font Courier-Oblique
%%IncludeResource: font Times-Roman
%%IncludeResource: font Helvetica-BoldOblique
%%IncludeResource: font Helvetica-Bold
%%IncludeResource: font Helvetica-Oblique
%%IncludeResource: font Times-BoldItalic
%%IncludeResource: font Courier
%%IncludeResource: font Times-Italic
%%IncludeResource: font Times-Bold
%%IncludeResource: font Symbol
%%IncludeResource: font ZapfDingbats
%FOPEndFontDict
%%BeginResource: encoding WinAnsiEncoding
/WinAnsiEncoding [
/.notdef /.notdef /.notdef /.notdef /.notdef
/.notdef /.notdef /.notdef /.notdef /.notdef
/.notdef /.notdef /.notdef /.notdef /.notdef
/.notdef /.notdef /.notdef /.notdef /.notdef
/.notdef /.notdef /.notdef /.notdef /.notdef
/.notdef /.notdef /.notdef /.notdef /.notdef
/.notdef /.notdef /space /exclam /quotedbl
/numbersign /dollar /percent /ampersand /quotesingle
/parenleft /parenright /asterisk /plus /comma
/hyphen /period /slash /zero /one
/two /three /four /five /six
/seven /eight /nine /colon /semicolon
/less /equal /greater /question /at
/A /B /C /D /E
/F /G /H /I /J
/K /L /M /N /O
/P /Q /R /S /T
/U /V /W /X /Y
/Z /bracketleft /backslash /bracketright /asciicircum
/underscore /quoteleft /a /b /c
/d /e /f /g /h
/i /j /k /l /m
/n /o /p /q /r
/s /t /u /v /w
/x /y /z /braceleft /bar
/braceright /asciitilde /bullet /Euro /bullet
/quotesinglbase /florin /quotedblbase /ellipsis /dagger
/daggerdbl /circumflex /perthousand /Scaron /guilsinglleft
/OE /bullet /Zcaron /bullet /bullet
/quoteleft /quoteright /quotedblleft /quotedblright /bullet
/endash /emdash /asciitilde /trademark /scaron
/guilsinglright /oe /bullet /zcaron /Ydieresis
/space /exclamdown /cent /sterling /currency
/yen /brokenbar /section /dieresis /copyright
/ordfeminine /guillemotleft /logicalnot /sfthyphen /registered
/macron /degree /plusminus /twosuperior /threesuperior
/acute /mu /paragraph /middot /cedilla
/onesuperior /ordmasculine /guillemotright /onequarter /onehalf
/threequarters /questiondown /Agrave /Aacute /Acircumflex
/Atilde /Adieresis /Aring /AE /Ccedilla
/Egrave /Eacute /Ecircumflex /Edieresis /Igrave
/Iacute /Icircumflex /Idieresis /Eth /Ntilde
/Ograve /Oacute /Ocircumflex /Otilde /Odieresis
/multiply /Oslash /Ugrave /Uacute /Ucircumflex
/Udieresis /Yacute /Thorn /germandbls /agrave
/aacute /acircumflex /atilde /adieresis /aring
/ae /ccedilla /egrave /eacute /ecircumflex
/edieresis /igrave /iacute /icircumflex /idieresis
/eth /ntilde /ograve /oacute /ocircumflex
/otilde /odieresis /divide /oslash /ugrave
/uacute /ucircumflex /udieresis /yacute /thorn
/ydieresis
] def
%%EndResource
%FOPBeginFontReencode
/Courier-Bold findfont
dup length dict begin
  {1 index /FID ne {def} {pop pop} ifelse} forall
  /Encoding WinAnsiEncoding def
  currentdict
end
/Courier-Bold exch definefont pop
/Helvetica findfont
dup length dict begin
  {1 index /FID ne {def} {pop pop} ifelse} forall
  /Encoding WinAnsiEncoding def
  currentdict
end
/Helvetica exch definefont pop
/Courier-BoldOblique findfont
dup length dict begin
  {1 index /FID ne {def} {pop pop} ifelse} forall
  /Encoding WinAnsiEncoding def
  currentdict
end
/Courier-BoldOblique exch definefont pop
/Courier-Oblique findfont
dup length dict begin
  {1 index /FID ne {def} {pop pop} ifelse} forall
  /Encoding WinAnsiEncoding def
  currentdict
end
/Courier-Oblique exch definefont pop
/Times-Roman findfont
dup length dict begin
  {1 index /FID ne {def} {pop pop} ifelse} forall
  /Encoding WinAnsiEncoding def
  currentdict
end
/Times-Roman exch definefont pop
/Helvetica-BoldOblique findfont
dup length dict begin
  {1 index /FID ne {def} {pop pop} ifelse} forall
  /Encoding WinAnsiEncoding def
  currentdict
end
/Helvetica-BoldOblique exch definefont pop
/Helvetica-Bold findfont
dup length dict begin
  {1 index /FID ne {def} {pop pop} ifelse} forall
  /Encoding WinAnsiEncoding def
  currentdict
end
/Helvetica-Bold exch definefont pop
/Helvetica-Oblique findfont
dup length dict begin
  {1 index /FID ne {def} {pop pop} ifelse} forall
  /Encoding WinAnsiEncoding def
  currentdict
end
/Helvetica-Oblique exch definefont pop
/Times-BoldItalic findfont
dup length dict begin
  {1 index /FID ne {def} {pop pop} ifelse} forall
  /Encoding WinAnsiEncoding def
  currentdict
end
/Times-BoldItalic exch definefont pop
/Courier findfont
dup length dict begin
  {1 index /FID ne {def} {pop pop} ifelse} forall
  /Encoding WinAnsiEncoding def
  currentdict
end
/Courier exch definefont pop
/Times-Italic findfont
dup length dict begin
  {1 index /FID ne {def} {pop pop} ifelse} forall
  /Encoding WinAnsiEncoding def
  currentdict
end
/Times-Italic exch definefont pop
/Times-Bold findfont
dup length dict begin
  {1 index /FID ne {def} {pop pop} ifelse} forall
  /Encoding WinAnsiEncoding def
  currentdict
end
/Times-Bold exch definefont pop
%FOPEndFontReencode
%%EndProlog
%%Page: 1 1
%%PageBoundingBox: 0 0 1008 576
%%BeginPageSetup
[1 0 0 -1 0 576] CT
%%EndPageSetup
GS
[0.75 0 0 0.75 0 0] CT
1 GC
N
0 0 1344 768 re
f
GR
GS
[0.75 0 0 0.75 0 0] CT
1 GC
N
0 0 1344 768 re
f
GR
GS
[0.75 0 0 0.75 0 0] CT
1 GC
N
833 59 M
580 59 L
580 320 L
833 320 L
cp
f
GR
GS
[0.75 0 0 0.75 0 0] CT
0.149 GC
2 setlinecap
10.0 ML
N
656.161 320 M
656.161 318.695 L
S
GR
GS
[0.75 0 0 0.75 0 0] CT
0.149 GC
2 setlinecap
10.0 ML
N
700.712 320 M
700.712 318.695 L
S
GR
GS
[0.75 0 0 0.75 0 0] CT
0.149 GC
2 setlinecap
10.0 ML
N
732.321 320 M
732.321 318.695 L
S
GR
GS
[0.75 0 0 0.75 0 0] CT
0.149 GC
2 setlinecap
10.0 ML
N
756.839 320 M
756.839 318.695 L
S
GR
GS
[0.75 0 0 0.75 0 0] CT
0.149 GC
2 setlinecap
10.0 ML
N
776.872 320 M
776.872 318.695 L
S
GR
GS
[0.75 0 0 0.75 0 0] CT
0.149 GC
2 setlinecap
10.0 ML
N
793.81 320 M
793.81 318.695 L
S
GR
GS
[0.75 0 0 0.75 0 0] CT
0.149 GC
2 setlinecap
10.0 ML
N
808.482 320 M
808.482 318.695 L
S
GR
GS
[0.75 0 0 0.75 0 0] CT
0.149 GC
2 setlinecap
10.0 ML
N
821.423 320 M
821.423 318.695 L
S
GR
GS
[0.75 0 0 0.75 0 0] CT
0.149 GC
2 setlinecap
10.0 ML
N
580 320 M
833 320 L
S
GR
GS
[0.75 0 0 0.75 0 0] CT
0.149 GC
2 setlinecap
10.0 ML
N
580 320 M
580 317.39 L
S
GR
GS
[0.75 0 0 0.75 0 0] CT
0.149 GC
2 setlinecap
10.0 ML
N
833 320 M
833 317.39 L
S
GR
GS
[0.75 0 0 0.75 414 268.5] CT
0.149 GC
/Helvetica 24 F
GS
[1 0 0 1 0 0] CT
0 0 moveto 
1 -1 scale
(10) t 
GR
GR
GS
[0.75 0 0 0.75 437.25 259.5] CT
0.149 GC
/Helvetica 19 F
GS
[1 0 0 1 0 0] CT
0 0 moveto 
1 -1 scale
(-1) t 
GR
GR
GS
[0.75 0 0 0.75 608.25 268.5] CT
0.149 GC
/Helvetica 24 F
GS
[1 0 0 1 0 0] CT
0 0 moveto 
1 -1 scale
(10) t 
GR
GR
GS
[0.75 0 0 0.75 631.5 259.5] CT
0.149 GC
/Helvetica 19 F
GS
[1 0 0 1 0 0] CT
0 0 moveto 
1 -1 scale
(0) t 
GR
GR
GS
[0 -0.75 0.75 0 380.64999 142.12491] CT
0.149 GC
/Helvetica 26 F
GS
[1 0 0 1 0 0] CT
-38.5 -6 moveto 
1 -1 scale
(Depth) t 
GR
GR
GS
[0.75 0 0 0.75 0 0] CT
0.149 GC
2 setlinecap
10.0 ML
N
580 59 M
580 320 L
S
GR
GS
[0.75 0 0 0.75 0 0] CT
0.149 GC
2 setlinecap
10.0 ML
N
580 59 M
582.61 59 L
S
GR
GS
[0.75 0 0 0.75 0 0] CT
0.149 GC
2 setlinecap
10.0 ML
N
580 111.2 M
582.61 111.2 L
S
GR
GS
[0.75 0 0 0.75 0 0] CT
0.149 GC
2 setlinecap
10.0 ML
N
580 163.4 M
582.61 163.4 L
S
GR
GS
[0.75 0 0 0.75 0 0] CT
0.149 GC
2 setlinecap
10.0 ML
N
580 215.6 M
582.61 215.6 L
S
GR
GS
[0.75 0 0 0.75 0 0] CT
0.149 GC
2 setlinecap
10.0 ML
N
580 267.8 M
582.61 267.8 L
S
GR
GS
[0.75 0 0 0.75 0 0] CT
0.149 GC
2 setlinecap
10.0 ML
N
580 320 M
582.61 320 L
S
GR
GS
[0.75 0 0 0.75 429.39999 44.25] CT
0.149 GC
/Helvetica 24 F
GS
[1 0 0 1 0 0] CT
-16 8.5 moveto 
1 -1 scale
(0) t 
GR
GR
GS
[0.75 0 0 0.75 429.39999 83.4] CT
0.149 GC
/Helvetica 24 F
GS
[1 0 0 1 0 0] CT
-46 8.5 moveto 
1 -1 scale
(200) t 
GR
GR
GS
[0.75 0 0 0.75 429.39999 122.55] CT
0.149 GC
/Helvetica 24 F
GS
[1 0 0 1 0 0] CT
-46 8.5 moveto 
1 -1 scale
(400) t 
GR
GR
GS
[0.75 0 0 0.75 429.39999 161.69999] CT
0.149 GC
/Helvetica 24 F
GS
[1 0 0 1 0 0] CT
-46 8.5 moveto 
1 -1 scale
(600) t 
GR
GR
GS
[0.75 0 0 0.75 429.39999 200.84999] CT
0.149 GC
/Helvetica 24 F
GS
[1 0 0 1 0 0] CT
-46 8.5 moveto 
1 -1 scale
(800) t 
GR
GR
GS
[0.75 0 0 0.75 429.39999 240] CT
0.149 GC
/Helvetica 24 F
GS
[1 0 0 1 0 0] CT
-61 8.5 moveto 
1 -1 scale
(1000) t 
GR
GR
GS
[0.75 0 0 0.75 0 0] CT
0.8 GC
2 LJ
4 LW
N
833 59.261 M
830.127 61.871 L
828.192 64.481 L
826.492 67.091 L
824.931 69.701 L
823.467 72.311 L
822.075 74.921 L
820.742 77.531 L
819.457 80.141 L
818.212 82.751 L
817.002 85.361 L
815.822 87.971 L
814.67 90.581 L
813.541 93.191 L
812.434 95.801 L
811.346 98.411 L
810.277 101.021 L
809.224 103.631 L
808.186 106.241 L
807.163 108.851 L
806.152 111.461 L
805.154 114.071 L
804.167 116.681 L
803.191 119.291 L
802.225 121.901 L
801.268 124.511 L
800.321 127.121 L
799.382 129.731 L
798.451 132.341 L
797.527 134.951 L
796.611 137.561 L
795.702 140.171 L
794.8 142.781 L
793.904 145.391 L
793.014 148.001 L
792.13 150.611 L
791.251 153.221 L
790.378 155.831 L
789.509 158.441 L
788.646 161.051 L
787.787 163.661 L
786.933 166.271 L
786.083 168.881 L
785.238 171.491 L
784.396 174.101 L
783.559 176.711 L
782.725 179.321 L
781.895 181.931 L
781.068 184.541 L
780.245 187.151 L
S
GR
GS
[0.75 0 0 0.75 0 0] CT
0.8 GC
2 LJ
4 LW
N
780.245 187.151 M
779.425 189.761 L
778.609 192.371 L
777.795 194.981 L
776.984 197.591 L
776.177 200.201 L
775.372 202.811 L
774.57 205.421 L
773.77 208.031 L
772.973 210.641 L
772.179 213.251 L
771.386 215.861 L
770.597 218.471 L
769.809 221.081 L
769.024 223.691 L
768.241 226.301 L
767.46 228.911 L
766.68 231.521 L
765.903 234.131 L
765.128 236.741 L
764.355 239.351 L
763.583 241.961 L
762.813 244.571 L
762.045 247.181 L
761.279 249.791 L
760.514 252.401 L
759.75 255.011 L
758.989 257.621 L
758.228 260.231 L
757.469 262.841 L
756.712 265.451 L
755.956 268.061 L
755.201 270.671 L
754.448 273.281 L
753.695 275.891 L
752.944 278.501 L
752.194 281.111 L
751.446 283.721 L
750.698 286.331 L
749.952 288.941 L
749.206 291.551 L
748.462 294.161 L
747.718 296.771 L
746.976 299.381 L
746.234 301.991 L
745.494 304.601 L
744.754 307.211 L
744.015 309.821 L
743.277 312.431 L
742.54 315.041 L
S
GR
GS
[0.75 0 0 0.75 0 0] CT
0.8 GC
2 LJ
4 LW
N
742.54 315.041 M
741.804 317.651 L
741.134 320.026 L
S
GR
GS
[0.75 0 0 0.75 0 0] CT
2 LJ
N
833 59.261 M
829.66 61.871 L
827.415 64.481 L
825.44 67.091 L
823.621 69.701 L
821.91 72.311 L
820.281 74.921 L
818.717 77.531 L
817.209 80.141 L
815.748 82.751 L
814.331 85.361 L
812.952 87.971 L
811.608 90.581 L
810.297 93.191 L
809.014 95.801 L
807.758 98.411 L
806.526 101.021 L
805.317 103.631 L
804.127 106.241 L
802.956 108.851 L
801.802 111.461 L
800.663 114.071 L
799.538 116.681 L
798.426 119.291 L
797.327 121.901 L
796.239 124.511 L
795.161 127.121 L
794.093 129.731 L
793.034 132.341 L
791.984 134.951 L
790.942 137.561 L
789.908 140.171 L
788.882 142.781 L
787.862 145.391 L
786.85 148.001 L
785.844 150.611 L
784.844 153.221 L
783.85 155.831 L
782.861 158.441 L
781.878 161.051 L
780.899 163.661 L
779.926 166.271 L
778.957 168.881 L
777.993 171.491 L
777.033 174.101 L
776.077 176.711 L
775.125 179.321 L
774.177 181.931 L
773.232 184.541 L
772.291 187.151 L
S
GR
GS
[0.75 0 0 0.75 0 0] CT
2 LJ
N
772.291 187.151 M
771.353 189.761 L
770.419 192.371 L
769.487 194.981 L
768.559 197.591 L
767.634 200.201 L
766.711 202.811 L
765.792 205.421 L
764.875 208.031 L
763.96 210.641 L
763.048 213.251 L
762.138 215.861 L
761.231 218.471 L
760.326 221.081 L
759.423 223.691 L
758.522 226.301 L
757.623 228.911 L
756.726 231.521 L
755.83 234.131 L
754.937 236.741 L
754.045 239.351 L
753.155 241.961 L
752.266 244.571 L
751.379 247.181 L
750.494 249.791 L
749.61 252.401 L
748.727 255.011 L
747.845 257.621 L
746.965 260.231 L
746.086 262.841 L
745.208 265.451 L
744.331 268.061 L
743.455 270.671 L
742.58 273.281 L
741.706 275.891 L
740.833 278.501 L
739.961 281.111 L
739.09 283.721 L
738.219 286.331 L
737.35 288.941 L
736.481 291.551 L
735.612 294.161 L
734.745 296.771 L
733.878 299.381 L
733.011 301.991 L
732.145 304.601 L
731.28 307.211 L
730.415 309.821 L
729.551 312.431 L
728.687 315.041 L
S
GR
GS
[0.75 0 0 0.75 0 0] CT
2 LJ
N
728.687 315.041 M
727.823 317.651 L
727.038 320.026 L
S
GR
GS
[0.75 0 0 0.75 0 0] CT
[10 6] 0 setdash
2 LJ
N
833 59.261 M
831.002 61.871 L
829.633 64.481 L
828.42 67.091 L
827.297 69.701 L
826.233 72.311 L
825.212 74.921 L
824.224 77.531 L
823.261 80.141 L
822.318 82.751 L
821.392 85.361 L
820.479 87.971 L
819.578 90.581 L
818.685 93.191 L
817.8 95.801 L
816.92 98.411 L
816.045 101.021 L
815.173 103.631 L
814.303 106.241 L
813.436 108.851 L
812.569 111.461 L
811.704 114.071 L
810.84 116.681 L
809.977 119.291 L
809.115 121.901 L
808.254 124.511 L
807.395 127.121 L
806.536 129.731 L
805.679 132.341 L
804.822 134.951 L
803.966 137.561 L
803.111 140.171 L
802.256 142.781 L
801.401 145.391 L
800.547 148.001 L
799.693 150.611 L
798.839 153.221 L
797.986 155.831 L
797.133 158.441 L
796.28 161.051 L
795.429 163.661 L
794.577 166.271 L
793.727 168.881 L
792.877 171.491 L
792.027 174.101 L
791.179 176.711 L
790.331 179.321 L
789.485 181.931 L
788.639 184.541 L
787.794 187.151 L
786.95 189.761 L
786.107 192.371 L
785.265 194.981 L
784.424 197.591 L
783.585 200.201 L
782.746 202.811 L
781.908 205.421 L
781.071 208.031 L
780.235 210.641 L
779.401 213.251 L
778.567 215.861 L
777.734 218.471 L
776.902 221.081 L
776.071 223.691 L
775.242 226.301 L
774.413 228.911 L
773.585 231.521 L
772.757 234.131 L
771.931 236.741 L
771.106 239.351 L
770.281 241.961 L
769.457 244.571 L
768.634 247.181 L
767.811 249.791 L
766.99 252.401 L
766.168 255.011 L
765.348 257.621 L
764.528 260.231 L
763.709 262.841 L
762.89 265.451 L
762.072 268.061 L
761.254 270.671 L
760.437 273.281 L
759.62 275.891 L
758.804 278.501 L
757.988 281.111 L
757.173 283.721 L
756.357 286.331 L
755.542 288.941 L
754.728 291.551 L
753.913 294.161 L
753.099 296.771 L
752.285 299.381 L
751.471 301.991 L
750.658 304.601 L
749.844 307.211 L
749.031 309.821 L
748.218 312.431 L
747.405 315.041 L
746.592 317.651 L
745.852 320.026 L
S
GR
GS
[0.75 0 0 0.75 529.8755 40.53751] CT
/Helvetica-Bold 26 F
GS
[1 0 0 1 0 0] CT
-130.5 -6 moveto 
1 -1 scale
(Viscosity + Density) t 
GR
GR
GS
[0.75 0 0 0.75 0 0] CT
1 GC
N
594 156 M
594 71 L
700 71 L
700 156 L
cp
f
GR
GS
[0.75 0 0 0.75 484.5 65.04626] CT
/Helvetica 22 F
GS
[1 0 0 1 0 0] CT
0 8 moveto 
1 -1 scale
(base) t 
GR
GR
GS
[0.75 0 0 0.75 0 0] CT
0.8 GC
2 setlinecap
10.0 ML
4 LW
N
602 86.728 M
642 86.728 L
S
GR
GS
[0.75 0 0 0.75 484.5 85.125] CT
/Helvetica 22 F
GS
[1 0 0 1 0 0] CT
0 8 moveto 
1 -1 scale
(AA) t 
GR
GR
GS
[0.75 0 0 0.75 0 0] CT
2 setlinecap
10.0 ML
N
602 113.5 M
642 113.5 L
S
GR
GS
[0.75 0 0 0.75 484.5 105.20374] CT
/Helvetica 22 F
GS
[1 0 0 1 0 0] CT
0 8 moveto 
1 -1 scale
(STP) t 
GR
GR
GS
[0.75 0 0 0.75 0 0] CT
[10 6] 0 setdash
2 LJ
N
602 140.272 M
642 140.272 L
S
GR
GS
[0.75 0 0 0.75 0 0] CT
0.149 GC
2 setlinecap
10.0 ML
N
594 156 M
594 71 L
700 71 L
700 156 L
594 156 L
S
GR
GS
[0.75 0 0 0.75 0 0] CT
1 GC
N
1210 59 M
958 59 L
958 320 L
1210 320 L
cp
f
GR
GS
[0.75 0 0 0.75 0 0] CT
0.149 GC
2 setlinecap
10.0 ML
N
1033.86 320 M
1033.86 318.695 L
S
GR
GS
[0.75 0 0 0.75 0 0] CT
0.149 GC
2 setlinecap
10.0 ML
N
1078.235 320 M
1078.235 318.695 L
S
GR
GS
[0.75 0 0 0.75 0 0] CT
0.149 GC
2 setlinecap
10.0 ML
N
1109.719 320 M
1109.719 318.695 L
S
GR
GS
[0.75 0 0 0.75 0 0] CT
0.149 GC
2 setlinecap
10.0 ML
N
1134.141 320 M
1134.141 318.695 L
S
GR
GS
[0.75 0 0 0.75 0 0] CT
0.149 GC
2 setlinecap
10.0 ML
N
1154.094 320 M
1154.094 318.695 L
S
GR
GS
[0.75 0 0 0.75 0 0] CT
0.149 GC
2 setlinecap
10.0 ML
N
1170.965 320 M
1170.965 318.695 L
S
GR
GS
[0.75 0 0 0.75 0 0] CT
0.149 GC
2 setlinecap
10.0 ML
N
1185.579 320 M
1185.579 318.695 L
S
GR
GS
[0.75 0 0 0.75 0 0] CT
0.149 GC
2 setlinecap
10.0 ML
N
1198.469 320 M
1198.469 318.695 L
S
GR
GS
[0.75 0 0 0.75 0 0] CT
0.149 GC
2 setlinecap
10.0 ML
N
958 320 M
1210 320 L
S
GR
GS
[0.75 0 0 0.75 0 0] CT
0.149 GC
2 setlinecap
10.0 ML
N
958 320 M
958 317.39 L
S
GR
GS
[0.75 0 0 0.75 0 0] CT
0.149 GC
2 setlinecap
10.0 ML
N
1210 320 M
1210 317.39 L
S
GR
GS
[0.75 0 0 0.75 697.5 268.5] CT
0.149 GC
/Helvetica 24 F
GS
[1 0 0 1 0 0] CT
0 0 moveto 
1 -1 scale
(10) t 
GR
GR
GS
[0.75 0 0 0.75 720.75 259.5] CT
0.149 GC
/Helvetica 19 F
GS
[1 0 0 1 0 0] CT
0 0 moveto 
1 -1 scale
(-1) t 
GR
GR
GS
[0.75 0 0 0.75 891 268.5] CT
0.149 GC
/Helvetica 24 F
GS
[1 0 0 1 0 0] CT
0 0 moveto 
1 -1 scale
(10) t 
GR
GR
GS
[0.75 0 0 0.75 914.25 259.5] CT
0.149 GC
/Helvetica 19 F
GS
[1 0 0 1 0 0] CT
0 0 moveto 
1 -1 scale
(0) t 
GR
GR
GS
[0.75 0 0 0.75 0 0] CT
0.149 GC
2 setlinecap
10.0 ML
N
958 59 M
958 320 L
S
GR
GS
[0.75 0 0 0.75 0 0] CT
0.149 GC
2 setlinecap
10.0 ML
N
958 59 M
960.61 59 L
S
GR
GS
[0.75 0 0 0.75 0 0] CT
0.149 GC
2 setlinecap
10.0 ML
N
958 111.2 M
960.61 111.2 L
S
GR
GS
[0.75 0 0 0.75 0 0] CT
0.149 GC
2 setlinecap
10.0 ML
N
958 163.4 M
960.61 163.4 L
S
GR
GS
[0.75 0 0 0.75 0 0] CT
0.149 GC
2 setlinecap
10.0 ML
N
958 215.6 M
960.61 215.6 L
S
GR
GS
[0.75 0 0 0.75 0 0] CT
0.149 GC
2 setlinecap
10.0 ML
N
958 267.8 M
960.61 267.8 L
S
GR
GS
[0.75 0 0 0.75 0 0] CT
0.149 GC
2 setlinecap
10.0 ML
N
958 320 M
960.61 320 L
S
GR
GS
[0.75 0 0 0.75 712.89999 44.25] CT
0.149 GC
/Helvetica 24 F
GS
[1 0 0 1 0 0] CT
-16 8.5 moveto 
1 -1 scale
(0) t 
GR
GR
GS
[0.75 0 0 0.75 712.89999 83.4] CT
0.149 GC
/Helvetica 24 F
GS
[1 0 0 1 0 0] CT
-46 8.5 moveto 
1 -1 scale
(200) t 
GR
GR
GS
[0.75 0 0 0.75 712.89999 122.55] CT
0.149 GC
/Helvetica 24 F
GS
[1 0 0 1 0 0] CT
-46 8.5 moveto 
1 -1 scale
(400) t 
GR
GR
GS
[0.75 0 0 0.75 712.89999 161.69999] CT
0.149 GC
/Helvetica 24 F
GS
[1 0 0 1 0 0] CT
-46 8.5 moveto 
1 -1 scale
(600) t 
GR
GR
GS
[0.75 0 0 0.75 712.89999 200.84999] CT
0.149 GC
/Helvetica 24 F
GS
[1 0 0 1 0 0] CT
-46 8.5 moveto 
1 -1 scale
(800) t 
GR
GR
GS
[0.75 0 0 0.75 712.89999 240] CT
0.149 GC
/Helvetica 24 F
GS
[1 0 0 1 0 0] CT
-61 8.5 moveto 
1 -1 scale
(1000) t 
GR
GR
GS
[0.75 0 0 0.75 0 0] CT
0.8 GC
2 LJ
4 LW
N
1210 59.261 M
1207.139 61.871 L
1205.211 64.481 L
1203.518 67.091 L
1201.963 69.701 L
1200.504 72.311 L
1199.119 74.921 L
1197.791 77.531 L
1196.51 80.141 L
1195.271 82.751 L
1194.065 85.361 L
1192.89 87.971 L
1191.742 90.581 L
1190.618 93.191 L
1189.515 95.801 L
1188.432 98.411 L
1187.367 101.021 L
1186.318 103.631 L
1185.285 106.241 L
1184.265 108.851 L
1183.258 111.461 L
1182.264 114.071 L
1181.281 116.681 L
1180.309 119.291 L
1179.346 121.901 L
1178.394 124.511 L
1177.45 127.121 L
1176.515 129.731 L
1175.587 132.341 L
1174.668 134.951 L
1173.755 137.561 L
1172.85 140.171 L
1171.951 142.781 L
1171.058 145.391 L
1170.172 148.001 L
1169.291 150.611 L
1168.416 153.221 L
1167.546 155.831 L
1166.681 158.441 L
1165.821 161.051 L
1164.966 163.661 L
1164.115 166.271 L
1163.269 168.881 L
1162.427 171.491 L
1161.589 174.101 L
1160.754 176.711 L
1159.924 179.321 L
1159.097 181.931 L
1158.274 184.541 L
1157.454 187.151 L
S
GR
GS
[0.75 0 0 0.75 0 0] CT
0.8 GC
2 LJ
4 LW
N
1157.454 187.151 M
1156.637 189.761 L
1155.824 192.371 L
1155.013 194.981 L
1154.206 197.591 L
1153.401 200.201 L
1152.6 202.811 L
1151.801 205.421 L
1151.004 208.031 L
1150.21 210.641 L
1149.419 213.251 L
1148.63 215.861 L
1147.843 218.471 L
1147.059 221.081 L
1146.277 223.691 L
1145.497 226.301 L
1144.719 228.911 L
1143.943 231.521 L
1143.168 234.131 L
1142.396 236.741 L
1141.626 239.351 L
1140.857 241.961 L
1140.091 244.571 L
1139.326 247.181 L
1138.562 249.791 L
1137.8 252.401 L
1137.04 255.011 L
1136.281 257.621 L
1135.524 260.231 L
1134.768 262.841 L
1134.014 265.451 L
1133.26 268.061 L
1132.509 270.671 L
1131.758 273.281 L
1131.009 275.891 L
1130.261 278.501 L
1129.514 281.111 L
1128.768 283.721 L
1128.023 286.331 L
1127.28 288.941 L
1126.537 291.551 L
1125.796 294.161 L
1125.055 296.771 L
1124.316 299.381 L
1123.577 301.991 L
1122.84 304.601 L
1122.103 307.211 L
1121.367 309.821 L
1120.632 312.431 L
1119.898 315.041 L
S
GR
GS
[0.75 0 0 0.75 0 0] CT
0.8 GC
2 LJ
4 LW
N
1119.898 315.041 M
1119.164 317.651 L
1118.497 320.026 L
S
GR
GS
[0.75 0 0 0.75 0 0] CT
2 LJ
N
1210 59.261 M
1207.221 61.871 L
1205.353 64.481 L
1203.716 67.091 L
1202.218 69.701 L
1200.817 72.311 L
1199.49 74.921 L
1198.219 77.531 L
1196.996 80.141 L
1195.81 82.751 L
1194.654 85.361 L
1193.525 87.971 L
1192.417 90.581 L
1191.328 93.191 L
1190.255 95.801 L
1189.198 98.411 L
1188.155 101.021 L
1187.124 103.631 L
1186.105 106.241 L
1185.097 108.851 L
1184.1 111.461 L
1183.113 114.071 L
1182.135 116.681 L
1181.167 119.291 L
1180.208 121.901 L
1179.258 124.511 L
1178.316 127.121 L
1177.382 129.731 L
1176.456 132.341 L
1175.537 134.951 L
1174.625 137.561 L
1173.72 140.171 L
1172.821 142.781 L
1171.927 145.391 L
1171.04 148.001 L
1170.158 150.611 L
1169.282 153.221 L
1168.411 155.831 L
1167.545 158.441 L
1166.684 161.051 L
1165.827 163.661 L
1164.975 166.271 L
1164.127 168.881 L
1163.284 171.491 L
1162.444 174.101 L
1161.609 176.711 L
1160.778 179.321 L
1159.95 181.931 L
1159.126 184.541 L
1158.305 187.151 L
S
GR
GS
[0.75 0 0 0.75 0 0] CT
2 LJ
N
1158.305 187.151 M
1157.487 189.761 L
1156.673 192.371 L
1155.862 194.981 L
1155.054 197.591 L
1154.249 200.201 L
1153.447 202.811 L
1152.647 205.421 L
1151.85 208.031 L
1151.056 210.641 L
1150.265 213.251 L
1149.476 215.861 L
1148.689 218.471 L
1147.904 221.081 L
1147.122 223.691 L
1146.342 226.301 L
1145.564 228.911 L
1144.789 231.521 L
1144.015 234.131 L
1143.244 236.741 L
1142.474 239.351 L
1141.706 241.961 L
1140.94 244.571 L
1140.176 247.181 L
1139.414 249.791 L
1138.653 252.401 L
1137.894 255.011 L
1137.137 257.621 L
1136.382 260.231 L
1135.628 262.841 L
1134.875 265.451 L
1134.125 268.061 L
1133.375 270.671 L
1132.627 273.281 L
1131.881 275.891 L
1131.136 278.501 L
1130.392 281.111 L
1129.65 283.721 L
1128.909 286.331 L
1128.169 288.941 L
1127.43 291.551 L
1126.693 294.161 L
1125.957 296.771 L
1125.221 299.381 L
1124.487 301.991 L
1123.755 304.601 L
1123.023 307.211 L
1122.292 309.821 L
1121.562 312.431 L
1120.833 315.041 L
S
GR
GS
[0.75 0 0 0.75 0 0] CT
2 LJ
N
1120.833 315.041 M
1120.106 317.651 L
1119.444 320.026 L
S
GR
GS
[0.75 0 0 0.75 0 0] CT
[10 6] 0 setdash
2 LJ
N
1210 59.261 M
1204.132 61.871 L
1200.299 64.481 L
1196.979 67.091 L
1193.972 69.701 L
1191.194 72.311 L
1188.595 74.921 L
1186.146 77.531 L
1183.824 80.141 L
1181.612 82.751 L
1179.498 85.361 L
1177.472 87.971 L
1175.525 90.581 L
1173.653 93.191 L
1171.849 95.801 L
1170.11 98.411 L
1168.431 101.021 L
1166.808 103.631 L
1165.237 106.241 L
1163.715 108.851 L
1162.239 111.461 L
1160.804 114.071 L
1159.408 116.681 L
1158.047 119.291 L
1156.718 121.901 L
1155.418 124.511 L
1154.146 127.121 L
1152.9 129.731 L
1151.677 132.341 L
1150.476 134.951 L
1149.297 137.561 L
1148.139 140.171 L
1147 142.781 L
1145.879 145.391 L
1144.775 148.001 L
1143.688 150.611 L
1142.616 153.221 L
1141.559 155.831 L
1140.516 158.441 L
1139.485 161.051 L
1138.467 163.661 L
1137.459 166.271 L
1136.463 168.881 L
1135.477 171.491 L
1134.5 174.101 L
1133.532 176.711 L
1132.573 179.321 L
1131.622 181.931 L
1130.679 184.541 L
1129.743 187.151 L
1128.814 189.761 L
1127.891 192.371 L
1126.975 194.981 L
1126.064 197.591 L
1125.16 200.201 L
1124.26 202.811 L
1123.366 205.421 L
1122.477 208.031 L
1121.592 210.641 L
1120.712 213.251 L
1119.836 215.861 L
1118.964 218.471 L
1118.097 221.081 L
1117.233 223.691 L
1116.373 226.301 L
1115.516 228.911 L
1114.663 231.521 L
1113.813 234.131 L
1112.966 236.741 L
1112.122 239.351 L
1111.282 241.961 L
1110.444 244.571 L
1109.609 247.181 L
1108.776 249.791 L
1107.947 252.401 L
1107.119 255.011 L
1106.295 257.621 L
1105.472 260.231 L
1104.652 262.841 L
1103.834 265.451 L
1103.019 268.061 L
1102.205 270.671 L
1101.394 273.281 L
1100.584 275.891 L
1099.777 278.501 L
1098.972 281.111 L
1098.168 283.721 L
1097.366 286.331 L
1096.566 288.941 L
1095.768 291.551 L
1094.972 294.161 L
1094.177 296.771 L
1093.384 299.381 L
1092.592 301.991 L
1091.802 304.601 L
1091.013 307.211 L
1090.226 309.821 L
1089.44 312.431 L
1088.656 315.041 L
1087.873 317.651 L
1087.161 320.026 L
S
GR
GS
[0.75 0 0 0.75 0 0] CT
0 0 1 RC
2 LJ
N
1210 59.261 M
1207.5 61.871 L
1205.818 64.481 L
1204.349 67.091 L
1203.009 69.701 L
1201.76 72.311 L
1200.579 74.921 L
1199.452 77.531 L
1198.367 80.141 L
1197.314 82.751 L
1196.286 85.361 L
1195.278 87.971 L
1194.286 90.581 L
1193.307 93.191 L
1192.339 95.801 L
1191.38 98.411 L
1190.43 101.021 L
1189.489 103.631 L
1188.555 106.241 L
1187.629 108.851 L
1186.711 111.461 L
1185.8 114.071 L
1184.897 116.681 L
1184.002 119.291 L
1183.114 121.901 L
1182.234 124.511 L
1181.36 127.121 L
1180.494 129.731 L
1179.635 132.341 L
1178.782 134.951 L
1177.936 137.561 L
1177.095 140.171 L
1176.26 142.781 L
1175.431 145.391 L
1174.607 148.001 L
1173.787 150.611 L
1172.974 153.221 L
1172.164 155.831 L
1171.36 158.441 L
1170.56 161.051 L
1169.764 163.661 L
1168.973 166.271 L
1168.186 168.881 L
1167.404 171.491 L
1166.625 174.101 L
1165.85 176.711 L
1165.079 179.321 L
1164.311 181.931 L
1163.547 184.541 L
1162.787 187.151 L
S
GR
GS
[0.75 0 0 0.75 0 0] CT
0 0 1 RC
2 LJ
N
1162.787 187.151 M
1162.03 189.761 L
1161.275 192.371 L
1160.524 194.981 L
1159.776 197.591 L
1159.031 200.201 L
1158.289 202.811 L
1157.549 205.421 L
1156.813 208.031 L
1156.078 210.641 L
1155.346 213.251 L
1154.617 215.861 L
1153.89 218.471 L
1153.166 221.081 L
1152.444 223.691 L
1151.724 226.301 L
1151.006 228.911 L
1150.29 231.521 L
1149.577 234.131 L
1148.865 236.741 L
1148.156 239.351 L
1147.449 241.961 L
1146.743 244.571 L
1146.04 247.181 L
1145.338 249.791 L
1144.639 252.401 L
1143.941 255.011 L
1143.245 257.621 L
1142.551 260.231 L
1141.858 262.841 L
1141.168 265.451 L
1140.479 268.061 L
1139.791 270.671 L
1139.105 273.281 L
1138.421 275.891 L
1137.739 278.501 L
1137.058 281.111 L
1136.378 283.721 L
1135.7 286.331 L
1135.024 288.941 L
1134.349 291.551 L
1133.675 294.161 L
1133.003 296.771 L
1132.332 299.381 L
1131.662 301.991 L
1130.994 304.601 L
1130.326 307.211 L
1129.661 309.821 L
1128.996 312.431 L
1128.332 315.041 L
S
GR
GS
[0.75 0 0 0.75 0 0] CT
0 0 1 RC
2 LJ
N
1128.332 315.041 M
1127.67 317.651 L
1127.069 320.026 L
S
GR
GS
[0.75 0 0 0.75 0 0] CT
0 0 1 RC
[10 6] 0 setdash
2 LJ
N
1210 59.261 M
1199.057 61.871 L
1192.078 64.481 L
1186.086 67.091 L
1180.71 69.701 L
1175.793 72.311 L
1171.247 74.921 L
1167.015 77.531 L
1163.055 80.141 L
1159.332 82.751 L
1155.82 85.361 L
1152.5 87.971 L
1149.356 90.581 L
1146.376 93.191 L
1143.55 95.801 L
1140.868 98.411 L
1138.321 101.021 L
1135.9 103.631 L
1133.594 106.241 L
1131.397 108.851 L
1129.299 111.461 L
1127.292 114.071 L
1125.367 116.681 L
1123.516 119.291 L
1121.732 121.901 L
1120.009 124.511 L
1118.341 127.121 L
1116.724 129.731 L
1115.154 132.341 L
1113.629 134.951 L
1112.146 137.561 L
1110.703 140.171 L
1109.298 142.781 L
1107.928 145.391 L
1106.592 148.001 L
1105.286 150.611 L
1104.01 153.221 L
1102.762 155.831 L
1101.538 158.441 L
1100.338 161.051 L
1099.16 163.661 L
1098.003 166.271 L
1096.865 168.881 L
1095.745 171.491 L
1094.641 174.101 L
1093.554 176.711 L
1092.481 179.321 L
1091.422 181.931 L
1090.376 184.541 L
1089.342 187.151 L
1088.32 189.761 L
1087.308 192.371 L
1086.307 194.981 L
1085.316 197.591 L
1084.334 200.201 L
1083.36 202.811 L
1082.395 205.421 L
1081.437 208.031 L
1080.487 210.641 L
1079.545 213.251 L
1078.609 215.861 L
1077.679 218.471 L
1076.755 221.081 L
1075.838 223.691 L
1074.926 226.301 L
1074.019 228.911 L
1073.118 231.521 L
1072.222 234.131 L
1071.33 236.741 L
1070.443 239.351 L
1069.561 241.961 L
1068.683 244.571 L
1067.809 247.181 L
1066.939 249.791 L
1066.073 252.401 L
1065.211 255.011 L
1064.352 257.621 L
1063.497 260.231 L
1062.646 262.841 L
1061.798 265.451 L
1060.953 268.061 L
1060.112 270.671 L
1059.273 273.281 L
1058.438 275.891 L
1057.605 278.501 L
1056.776 281.111 L
1055.949 283.721 L
1055.125 286.331 L
1054.304 288.941 L
1053.486 291.551 L
1052.67 294.161 L
1051.857 296.771 L
1051.046 299.381 L
1050.237 301.991 L
1049.431 304.601 L
1048.627 307.211 L
1047.825 309.821 L
1047.026 312.431 L
1046.228 315.041 L
1045.433 317.651 L
1044.711 320.026 L
S
GR
GS
[0.75 0 0 0.75 813.00073 40.53751] CT
/Helvetica-Bold 26 F
GS
[1 0 0 1 0 0] CT
-177 -6 moveto 
1 -1 scale
(Viscosity + Density + Q10) t 
GR
GR
GS
[0.75 0 0 0.75 0 0] CT
1 GC
N
972 210 M
972 71 L
1171 71 L
1171 210 L
cp
f
GR
GS
[0.75 0 0 0.75 768 65.08515] CT
/Helvetica 22 F
GS
[1 0 0 1 0 0] CT
0 8 moveto 
1 -1 scale
(base) t 
GR
GR
GS
[0.75 0 0 0.75 0 0] CT
0.8 GC
2 setlinecap
10.0 ML
4 LW
N
980 86.78 M
1020 86.78 L
S
GR
GS
[0.75 0 0 0.75 768 85.23007] CT
/Helvetica 22 F
GS
[1 0 0 1 0 0] CT
0 8 moveto 
1 -1 scale
(AA; Q10 = 2) t 
GR
GR
GS
[0.75 0 0 0.75 0 0] CT
2 setlinecap
10.0 ML
N
980 113.64 M
1020 113.64 L
S
GR
GS
[0.75 0 0 0.75 768 105.375] CT
/Helvetica 22 F
GS
[1 0 0 1 0 0] CT
0 8 moveto 
1 -1 scale
(STP; Q10 = 2) t 
GR
GR
GS
[0.75 0 0 0.75 0 0] CT
[10 6] 0 setdash
2 LJ
N
980 140.5 M
1020 140.5 L
S
GR
GS
[0.75 0 0 0.75 768 125.51993] CT
/Helvetica 22 F
GS
[1 0 0 1 0 0] CT
0 8 moveto 
1 -1 scale
(AA; Q10 = 3) t 
GR
GR
GS
[0.75 0 0 0.75 0 0] CT
0 0 1 RC
2 setlinecap
10.0 ML
N
980 167.36 M
1020 167.36 L
S
GR
GS
[0.75 0 0 0.75 768 145.66485] CT
/Helvetica 22 F
GS
[1 0 0 1 0 0] CT
0 8 moveto 
1 -1 scale
(STP; Q10 = 3) t 
GR
GR
GS
[0.75 0 0 0.75 0 0] CT
0 0 1 RC
[10 6] 0 setdash
2 LJ
N
980 194.22 M
1020 194.22 L
S
GR
GS
[0.75 0 0 0.75 0 0] CT
0.149 GC
2 setlinecap
10.0 ML
N
972 210 M
972 71 L
1171 71 L
1171 210 L
972 210 L
S
GR
GS
[0.75 0 0 0.75 0 0] CT
1 GC
N
455 423 M
203 423 L
203 684 L
455 684 L
cp
f
GR
GS
[0.75 0 0 0.75 0 0] CT
0.149 GC
2 setlinecap
10.0 ML
N
278.86 684 M
278.86 682.695 L
S
GR
GS
[0.75 0 0 0.75 0 0] CT
0.149 GC
2 setlinecap
10.0 ML
N
323.235 684 M
323.235 682.695 L
S
GR
GS
[0.75 0 0 0.75 0 0] CT
0.149 GC
2 setlinecap
10.0 ML
N
354.719 684 M
354.719 682.695 L
S
GR
GS
[0.75 0 0 0.75 0 0] CT
0.149 GC
2 setlinecap
10.0 ML
N
379.14 684 M
379.14 682.695 L
S
GR
GS
[0.75 0 0 0.75 0 0] CT
0.149 GC
2 setlinecap
10.0 ML
N
399.094 684 M
399.094 682.695 L
S
GR
GS
[0.75 0 0 0.75 0 0] CT
0.149 GC
2 setlinecap
10.0 ML
N
415.965 684 M
415.965 682.695 L
S
GR
GS
[0.75 0 0 0.75 0 0] CT
0.149 GC
2 setlinecap
10.0 ML
N
430.579 684 M
430.579 682.695 L
S
GR
GS
[0.75 0 0 0.75 0 0] CT
0.149 GC
2 setlinecap
10.0 ML
N
443.469 684 M
443.469 682.695 L
S
GR
GS
[0.75 0 0 0.75 246.75009 547.34999] CT
0.149 GC
/Helvetica 26 F
GS
[1 0 0 1 0 0] CT
-103.5 25 moveto 
1 -1 scale
(Normalized Flux) t 
GR
GR
GS
[0.75 0 0 0.75 0 0] CT
0.149 GC
2 setlinecap
10.0 ML
N
203 684 M
455 684 L
S
GR
GS
[0.75 0 0 0.75 0 0] CT
0.149 GC
2 setlinecap
10.0 ML
N
203 684 M
203 681.39 L
S
GR
GS
[0.75 0 0 0.75 0 0] CT
0.149 GC
2 setlinecap
10.0 ML
N
455 684 M
455 681.39 L
S
GR
GS
[0.75 0 0 0.75 131.25 541.5] CT
0.149 GC
/Helvetica 24 F
GS
[1 0 0 1 0 0] CT
0 0 moveto 
1 -1 scale
(10) t 
GR
GR
GS
[0.75 0 0 0.75 154.5 532.5] CT
0.149 GC
/Helvetica 19 F
GS
[1 0 0 1 0 0] CT
0 0 moveto 
1 -1 scale
(-1) t 
GR
GR
GS
[0.75 0 0 0.75 324.75 541.5] CT
0.149 GC
/Helvetica 24 F
GS
[1 0 0 1 0 0] CT
0 0 moveto 
1 -1 scale
(10) t 
GR
GR
GS
[0.75 0 0 0.75 348 532.5] CT
0.149 GC
/Helvetica 19 F
GS
[1 0 0 1 0 0] CT
0 0 moveto 
1 -1 scale
(0) t 
GR
GR
GS
[0 -0.75 0.75 0 97.90001 415.12491] CT
0.149 GC
/Helvetica 26 F
GS
[1 0 0 1 0 0] CT
-38.5 -6 moveto 
1 -1 scale
(Depth) t 
GR
GR
GS
[0.75 0 0 0.75 0 0] CT
0.149 GC
2 setlinecap
10.0 ML
N
203 423 M
203 684 L
S
GR
GS
[0.75 0 0 0.75 0 0] CT
0.149 GC
2 setlinecap
10.0 ML
N
203 423 M
205.61 423 L
S
GR
GS
[0.75 0 0 0.75 0 0] CT
0.149 GC
2 setlinecap
10.0 ML
N
203 475.2 M
205.61 475.2 L
S
GR
GS
[0.75 0 0 0.75 0 0] CT
0.149 GC
2 setlinecap
10.0 ML
N
203 527.4 M
205.61 527.4 L
S
GR
GS
[0.75 0 0 0.75 0 0] CT
0.149 GC
2 setlinecap
10.0 ML
N
203 579.6 M
205.61 579.6 L
S
GR
GS
[0.75 0 0 0.75 0 0] CT
0.149 GC
2 setlinecap
10.0 ML
N
203 631.8 M
205.61 631.8 L
S
GR
GS
[0.75 0 0 0.75 0 0] CT
0.149 GC
2 setlinecap
10.0 ML
N
203 684 M
205.61 684 L
S
GR
GS
[0.75 0 0 0.75 146.65001 317.25] CT
0.149 GC
/Helvetica 24 F
GS
[1 0 0 1 0 0] CT
-16 8.5 moveto 
1 -1 scale
(0) t 
GR
GR
GS
[0.75 0 0 0.75 146.65001 356.39999] CT
0.149 GC
/Helvetica 24 F
GS
[1 0 0 1 0 0] CT
-46 8.5 moveto 
1 -1 scale
(200) t 
GR
GR
GS
[0.75 0 0 0.75 146.65001 395.54997] CT
0.149 GC
/Helvetica 24 F
GS
[1 0 0 1 0 0] CT
-46 8.5 moveto 
1 -1 scale
(400) t 
GR
GR
GS
[0.75 0 0 0.75 146.65001 434.69998] CT
0.149 GC
/Helvetica 24 F
GS
[1 0 0 1 0 0] CT
-46 8.5 moveto 
1 -1 scale
(600) t 
GR
GR
GS
[0.75 0 0 0.75 146.65001 473.84999] CT
0.149 GC
/Helvetica 24 F
GS
[1 0 0 1 0 0] CT
-46 8.5 moveto 
1 -1 scale
(800) t 
GR
GR
GS
[0.75 0 0 0.75 146.65001 513] CT
0.149 GC
/Helvetica 24 F
GS
[1 0 0 1 0 0] CT
-61 8.5 moveto 
1 -1 scale
(1000) t 
GR
GR
GS
[0.75 0 0 0.75 0 0] CT
0.8 GC
2 LJ
4 LW
N
455 423.261 M
452.139 425.871 L
450.211 428.481 L
448.518 431.091 L
446.963 433.701 L
445.504 436.311 L
444.119 438.921 L
442.791 441.531 L
441.51 444.141 L
440.271 446.751 L
439.065 449.361 L
437.89 451.971 L
436.742 454.581 L
435.618 457.191 L
434.515 459.801 L
433.432 462.411 L
432.367 465.021 L
431.318 467.631 L
430.284 470.241 L
429.265 472.851 L
428.258 475.461 L
427.264 478.071 L
426.281 480.681 L
425.309 483.291 L
424.346 485.901 L
423.394 488.511 L
422.45 491.121 L
421.515 493.731 L
420.587 496.341 L
419.668 498.951 L
418.755 501.561 L
417.85 504.171 L
416.951 506.781 L
416.058 509.391 L
415.172 512.001 L
414.291 514.611 L
413.416 517.221 L
412.546 519.831 L
411.681 522.441 L
410.821 525.051 L
409.966 527.661 L
409.115 530.271 L
408.269 532.881 L
407.427 535.491 L
406.589 538.101 L
405.754 540.711 L
404.924 543.321 L
404.097 545.931 L
403.274 548.541 L
402.454 551.151 L
S
GR
GS
[0.75 0 0 0.75 0 0] CT
0.8 GC
2 LJ
4 LW
N
402.454 551.151 M
401.637 553.761 L
400.824 556.371 L
400.013 558.981 L
399.206 561.591 L
398.401 564.201 L
397.6 566.811 L
396.801 569.421 L
396.004 572.031 L
395.21 574.641 L
394.419 577.251 L
393.63 579.861 L
392.843 582.471 L
392.059 585.081 L
391.277 587.691 L
390.497 590.301 L
389.719 592.911 L
388.943 595.521 L
388.168 598.131 L
387.396 600.741 L
386.626 603.351 L
385.857 605.961 L
385.091 608.571 L
384.326 611.181 L
383.562 613.791 L
382.8 616.401 L
382.04 619.011 L
381.281 621.621 L
380.524 624.231 L
379.768 626.841 L
379.014 629.451 L
378.26 632.061 L
377.509 634.671 L
376.758 637.281 L
376.009 639.891 L
375.261 642.501 L
374.514 645.111 L
373.768 647.721 L
373.023 650.331 L
372.28 652.941 L
371.537 655.551 L
370.796 658.161 L
370.055 660.771 L
369.316 663.381 L
368.577 665.991 L
367.84 668.601 L
367.103 671.211 L
366.367 673.821 L
365.632 676.431 L
364.898 679.041 L
S
GR
GS
[0.75 0 0 0.75 0 0] CT
0.8 GC
2 LJ
4 LW
N
364.898 679.041 M
364.164 681.651 L
363.497 684.026 L
S
GR
GS
[0.75 0 0 0.75 0 0] CT
[8 3 2 3] 0 setdash
2 LJ
N
455 423.261 M
452.056 425.871 L
450.083 428.481 L
448.36 431.091 L
446.79 433.701 L
445.332 436.311 L
443.965 438.921 L
442.679 441.531 L
441.468 444.141 L
440.332 446.751 L
439.274 449.361 L
438.297 451.971 L
437.408 454.581 L
436.614 457.191 L
435.918 459.801 L
435.319 462.411 L
434.806 465.021 L
434.361 467.631 L
433.964 470.241 L
433.599 472.851 L
433.256 475.461 L
432.933 478.071 L
432.627 480.681 L
432.336 483.291 L
432.058 485.901 L
431.792 488.511 L
431.535 491.121 L
431.287 493.731 L
431.047 496.341 L
430.814 498.951 L
430.588 501.561 L
430.369 504.171 L
430.158 506.781 L
429.954 509.391 L
429.76 512.001 L
429.575 514.611 L
429.401 517.221 L
429.237 519.831 L
429.083 522.441 L
428.938 525.051 L
428.802 527.661 L
428.674 530.271 L
428.552 532.881 L
428.434 535.491 L
428.319 538.101 L
428.206 540.711 L
428.094 543.321 L
427.983 545.931 L
427.872 548.541 L
427.76 551.151 L
427.647 553.761 L
427.535 556.371 L
427.422 558.981 L
427.309 561.591 L
427.196 564.201 L
427.084 566.811 L
426.973 569.421 L
426.862 572.031 L
426.751 574.641 L
426.641 577.251 L
426.532 579.861 L
426.423 582.471 L
426.314 585.081 L
426.205 587.691 L
426.095 590.301 L
425.985 592.911 L
425.873 595.521 L
425.76 598.131 L
425.644 600.741 L
425.526 603.351 L
425.406 605.961 L
425.281 608.571 L
425.152 611.181 L
425.019 613.791 L
424.88 616.401 L
424.735 619.011 L
424.583 621.621 L
424.424 624.231 L
424.257 626.841 L
424.082 629.451 L
423.898 632.061 L
423.704 634.671 L
423.502 637.281 L
423.289 639.891 L
423.066 642.501 L
422.834 645.111 L
422.592 647.721 L
422.339 650.331 L
422.077 652.941 L
421.805 655.551 L
421.524 658.161 L
421.233 660.771 L
420.934 663.381 L
420.625 665.991 L
420.308 668.601 L
419.982 671.211 L
419.649 673.821 L
419.307 676.431 L
418.958 679.041 L
418.601 681.651 L
418.269 684.026 L
S
GR
GS
[0.75 0 0 0.75 0 0] CT
2 LJ
N
455 423.261 M
452.016 425.871 L
450.008 428.481 L
448.244 431.091 L
446.626 433.701 L
445.109 436.311 L
443.669 438.921 L
442.291 441.531 L
440.963 444.141 L
439.679 446.751 L
438.433 449.361 L
437.219 451.971 L
436.035 454.581 L
434.876 457.191 L
433.741 459.801 L
432.627 462.411 L
431.532 465.021 L
430.456 467.631 L
429.396 470.241 L
428.351 472.851 L
427.32 475.461 L
426.302 478.071 L
425.297 480.681 L
424.303 483.291 L
423.32 485.901 L
422.347 488.511 L
421.383 491.121 L
420.429 493.731 L
419.483 496.341 L
418.545 498.951 L
417.616 501.561 L
416.693 504.171 L
415.777 506.781 L
414.868 509.391 L
413.966 512.001 L
413.07 514.611 L
412.179 517.221 L
411.294 519.831 L
410.415 522.441 L
409.54 525.051 L
408.671 527.661 L
407.806 530.271 L
406.946 532.881 L
406.091 535.491 L
405.239 538.101 L
404.392 540.711 L
403.548 543.321 L
402.708 545.931 L
401.872 548.541 L
401.04 551.151 L
S
GR
GS
[0.75 0 0 0.75 0 0] CT
2 LJ
N
401.04 551.151 M
400.21 553.761 L
399.384 556.371 L
398.562 558.981 L
397.742 561.591 L
396.926 564.201 L
396.112 566.811 L
395.301 569.421 L
394.493 572.031 L
393.688 574.641 L
392.885 577.251 L
392.085 579.861 L
391.287 582.471 L
390.492 585.081 L
389.699 587.691 L
388.908 590.301 L
388.119 592.911 L
387.333 595.521 L
386.549 598.131 L
385.767 600.741 L
384.987 603.351 L
384.209 605.961 L
383.432 608.571 L
382.658 611.181 L
381.885 613.791 L
381.115 616.401 L
380.345 619.011 L
379.578 621.621 L
378.812 624.231 L
378.048 626.841 L
377.285 629.451 L
376.524 632.061 L
375.764 634.671 L
375.006 637.281 L
374.249 639.891 L
373.493 642.501 L
372.738 645.111 L
371.985 647.721 L
371.233 650.331 L
370.482 652.941 L
369.732 655.551 L
368.983 658.161 L
368.235 660.771 L
367.488 663.381 L
366.742 665.991 L
365.997 668.601 L
365.253 671.211 L
364.51 673.821 L
363.768 676.431 L
363.026 679.041 L
S
GR
GS
[0.75 0 0 0.75 0 0] CT
2 LJ
N
363.026 679.041 M
362.285 681.651 L
361.612 684.026 L
S
GR
GS
[0.75 0 0 0.75 246.75023 313.53751] CT
/Helvetica-Bold 26 F
GS
[1 0 0 1 0 0] CT
-51 -6 moveto 
1 -1 scale
(Oxygen) t 
GR
GR
GS
[0.75 0 0 0.75 0 0] CT
1 GC
N
216 521 M
216 436 L
323 436 L
323 521 L
cp
f
GR
GS
[0.75 0 0 0.75 201.36793 338.79625] CT
/Helvetica 22 F
GS
[1 0 0 1 0 0] CT
0 8 moveto 
1 -1 scale
(base) t 
GR
GR
GS
[0.75 0 0 0.75 0 0] CT
0.8 GC
2 setlinecap
10.0 ML
4 LW
N
224.075 451.728 M
264.453 451.728 L
S
GR
GS
[0.75 0 0 0.75 201.36793 358.875] CT
/Helvetica 22 F
GS
[1 0 0 1 0 0] CT
0 8 moveto 
1 -1 scale
(OMZ) t 
GR
GR
GS
[0.75 0 0 0.75 0 0] CT
[8 3 2 3] 0 setdash
2 LJ
N
224.075 478.5 M
264.453 478.5 L
S
GR
GS
[0.75 0 0 0.75 201.36793 378.95375] CT
/Helvetica 22 F
GS
[1 0 0 1 0 0] CT
0 8 moveto 
1 -1 scale
(GLO) t 
GR
GR
GS
[0.75 0 0 0.75 0 0] CT
2 setlinecap
10.0 ML
N
224.075 505.272 M
264.453 505.272 L
S
GR
GS
[0.75 0 0 0.75 0 0] CT
0.149 GC
2 setlinecap
10.0 ML
N
216 521 M
216 436 L
323 436 L
323 521 L
216 521 L
S
GR
GS
[0.75 0 0 0.75 0 0] CT
1 GC
N
833 423 M
580 423 L
580 684 L
833 684 L
cp
f
GR
GS
[0.75 0 0 0.75 0 0] CT
0.149 GC
2 setlinecap
10.0 ML
N
656.161 684 M
656.161 682.695 L
S
GR
GS
[0.75 0 0 0.75 0 0] CT
0.149 GC
2 setlinecap
10.0 ML
N
700.712 684 M
700.712 682.695 L
S
GR
GS
[0.75 0 0 0.75 0 0] CT
0.149 GC
2 setlinecap
10.0 ML
N
732.321 684 M
732.321 682.695 L
S
GR
GS
[0.75 0 0 0.75 0 0] CT
0.149 GC
2 setlinecap
10.0 ML
N
756.839 684 M
756.839 682.695 L
S
GR
GS
[0.75 0 0 0.75 0 0] CT
0.149 GC
2 setlinecap
10.0 ML
N
776.872 684 M
776.872 682.695 L
S
GR
GS
[0.75 0 0 0.75 0 0] CT
0.149 GC
2 setlinecap
10.0 ML
N
793.81 684 M
793.81 682.695 L
S
GR
GS
[0.75 0 0 0.75 0 0] CT
0.149 GC
2 setlinecap
10.0 ML
N
808.482 684 M
808.482 682.695 L
S
GR
GS
[0.75 0 0 0.75 0 0] CT
0.149 GC
2 setlinecap
10.0 ML
N
821.423 684 M
821.423 682.695 L
S
GR
GS
[0.75 0 0 0.75 529.87509 547.34999] CT
0.149 GC
/Helvetica 26 F
GS
[1 0 0 1 0 0] CT
-103.5 25 moveto 
1 -1 scale
(Normalized Flux) t 
GR
GR
GS
[0.75 0 0 0.75 0 0] CT
0.149 GC
2 setlinecap
10.0 ML
N
580 684 M
833 684 L
S
GR
GS
[0.75 0 0 0.75 0 0] CT
0.149 GC
2 setlinecap
10.0 ML
N
580 684 M
580 681.39 L
S
GR
GS
[0.75 0 0 0.75 0 0] CT
0.149 GC
2 setlinecap
10.0 ML
N
833 684 M
833 681.39 L
S
GR
GS
[0.75 0 0 0.75 414 541.5] CT
0.149 GC
/Helvetica 24 F
GS
[1 0 0 1 0 0] CT
0 0 moveto 
1 -1 scale
(10) t 
GR
GR
GS
[0.75 0 0 0.75 437.25 532.5] CT
0.149 GC
/Helvetica 19 F
GS
[1 0 0 1 0 0] CT
0 0 moveto 
1 -1 scale
(-1) t 
GR
GR
GS
[0.75 0 0 0.75 608.25 541.5] CT
0.149 GC
/Helvetica 24 F
GS
[1 0 0 1 0 0] CT
0 0 moveto 
1 -1 scale
(10) t 
GR
GR
GS
[0.75 0 0 0.75 631.5 532.5] CT
0.149 GC
/Helvetica 19 F
GS
[1 0 0 1 0 0] CT
0 0 moveto 
1 -1 scale
(0) t 
GR
GR
GS
[0.75 0 0 0.75 0 0] CT
0.149 GC
2 setlinecap
10.0 ML
N
580 423 M
580 684 L
S
GR
GS
[0.75 0 0 0.75 0 0] CT
0.149 GC
2 setlinecap
10.0 ML
N
580 423 M
582.61 423 L
S
GR
GS
[0.75 0 0 0.75 0 0] CT
0.149 GC
2 setlinecap
10.0 ML
N
580 475.2 M
582.61 475.2 L
S
GR
GS
[0.75 0 0 0.75 0 0] CT
0.149 GC
2 setlinecap
10.0 ML
N
580 527.4 M
582.61 527.4 L
S
GR
GS
[0.75 0 0 0.75 0 0] CT
0.149 GC
2 setlinecap
10.0 ML
N
580 579.6 M
582.61 579.6 L
S
GR
GS
[0.75 0 0 0.75 0 0] CT
0.149 GC
2 setlinecap
10.0 ML
N
580 631.8 M
582.61 631.8 L
S
GR
GS
[0.75 0 0 0.75 0 0] CT
0.149 GC
2 setlinecap
10.0 ML
N
580 684 M
582.61 684 L
S
GR
GS
[0.75 0 0 0.75 429.39999 317.25] CT
0.149 GC
/Helvetica 24 F
GS
[1 0 0 1 0 0] CT
-16 8.5 moveto 
1 -1 scale
(0) t 
GR
GR
GS
[0.75 0 0 0.75 429.39999 356.39999] CT
0.149 GC
/Helvetica 24 F
GS
[1 0 0 1 0 0] CT
-46 8.5 moveto 
1 -1 scale
(200) t 
GR
GR
GS
[0.75 0 0 0.75 429.39999 395.54997] CT
0.149 GC
/Helvetica 24 F
GS
[1 0 0 1 0 0] CT
-46 8.5 moveto 
1 -1 scale
(400) t 
GR
GR
GS
[0.75 0 0 0.75 429.39999 434.69998] CT
0.149 GC
/Helvetica 24 F
GS
[1 0 0 1 0 0] CT
-46 8.5 moveto 
1 -1 scale
(600) t 
GR
GR
GS
[0.75 0 0 0.75 429.39999 473.84999] CT
0.149 GC
/Helvetica 24 F
GS
[1 0 0 1 0 0] CT
-46 8.5 moveto 
1 -1 scale
(800) t 
GR
GR
GS
[0.75 0 0 0.75 429.39999 513] CT
0.149 GC
/Helvetica 24 F
GS
[1 0 0 1 0 0] CT
-61 8.5 moveto 
1 -1 scale
(1000) t 
GR
GR
GS
[0.75 0 0 0.75 0 0] CT
0.8 GC
2 LJ
4 LW
N
833 423.261 M
830.127 425.871 L
828.192 428.481 L
826.492 431.091 L
824.931 433.701 L
823.467 436.311 L
822.075 438.921 L
820.742 441.531 L
819.457 444.141 L
818.212 446.751 L
817.002 449.361 L
815.822 451.971 L
814.67 454.581 L
813.541 457.191 L
812.434 459.801 L
811.346 462.411 L
810.277 465.021 L
809.224 467.631 L
808.186 470.241 L
807.163 472.851 L
806.152 475.461 L
805.154 478.071 L
804.167 480.681 L
803.191 483.291 L
802.225 485.901 L
801.268 488.511 L
800.321 491.121 L
799.382 493.731 L
798.451 496.341 L
797.527 498.951 L
796.611 501.561 L
795.702 504.171 L
794.8 506.781 L
793.904 509.391 L
793.014 512.001 L
792.13 514.611 L
791.251 517.221 L
790.378 519.831 L
789.509 522.441 L
788.646 525.051 L
787.787 527.661 L
786.933 530.271 L
786.083 532.881 L
785.238 535.491 L
784.396 538.101 L
783.559 540.711 L
782.725 543.321 L
781.895 545.931 L
781.068 548.541 L
780.245 551.151 L
S
GR
GS
[0.75 0 0 0.75 0 0] CT
0.8 GC
2 LJ
4 LW
N
780.245 551.151 M
779.425 553.761 L
778.609 556.371 L
777.795 558.981 L
776.984 561.591 L
776.177 564.201 L
775.372 566.811 L
774.57 569.421 L
773.77 572.031 L
772.973 574.641 L
772.179 577.251 L
771.386 579.861 L
770.597 582.471 L
769.809 585.081 L
769.024 587.691 L
768.241 590.301 L
767.46 592.911 L
766.68 595.521 L
765.903 598.131 L
765.128 600.741 L
764.355 603.351 L
763.583 605.961 L
762.813 608.571 L
762.045 611.181 L
761.279 613.791 L
760.514 616.401 L
759.75 619.011 L
758.989 621.621 L
758.228 624.231 L
757.469 626.841 L
756.712 629.451 L
755.956 632.061 L
755.201 634.671 L
754.448 637.281 L
753.695 639.891 L
752.944 642.501 L
752.194 645.111 L
751.446 647.721 L
750.698 650.331 L
749.952 652.941 L
749.206 655.551 L
748.462 658.161 L
747.718 660.771 L
746.976 663.381 L
746.234 665.991 L
745.494 668.601 L
744.754 671.211 L
744.015 673.821 L
743.277 676.431 L
742.54 679.041 L
S
GR
GS
[0.75 0 0 0.75 0 0] CT
0.8 GC
2 LJ
4 LW
N
742.54 679.041 M
741.804 681.651 L
741.134 684.026 L
S
GR
GS
[0.75 0 0 0.75 0 0] CT
2 LJ
N
833 423.261 M
832.328 425.871 L
831.671 428.481 L
831.023 431.091 L
830.381 433.701 L
829.744 436.311 L
829.112 438.921 L
828.483 441.531 L
827.858 444.141 L
827.236 446.751 L
826.617 449.361 L
826 451.971 L
825.385 454.581 L
824.773 457.191 L
824.163 459.801 L
823.554 462.411 L
822.948 465.021 L
822.342 467.631 L
821.739 470.241 L
821.137 472.851 L
820.536 475.461 L
819.936 478.071 L
819.338 480.681 L
818.741 483.291 L
818.144 485.901 L
817.549 488.511 L
816.955 491.121 L
816.362 493.731 L
815.769 496.341 L
815.177 498.951 L
814.586 501.561 L
813.996 504.171 L
813.407 506.781 L
812.818 509.391 L
812.23 512.001 L
811.642 514.611 L
811.055 517.221 L
810.468 519.831 L
809.882 522.441 L
809.297 525.051 L
808.712 527.661 L
808.127 530.271 L
807.543 532.881 L
806.959 535.491 L
806.375 538.101 L
805.792 540.711 L
805.209 543.321 L
804.626 545.931 L
804.044 548.541 L
803.462 551.151 L
S
GR
GS
[0.75 0 0 0.75 0 0] CT
2 LJ
N
803.462 551.151 M
802.88 553.761 L
802.298 556.371 L
801.716 558.981 L
801.135 561.591 L
800.554 564.201 L
799.973 566.811 L
799.392 569.421 L
798.811 572.031 L
798.231 574.641 L
797.65 577.251 L
797.069 579.861 L
796.489 582.471 L
795.909 585.081 L
795.328 587.691 L
794.748 590.301 L
794.168 592.911 L
793.587 595.521 L
793.007 598.131 L
792.427 600.741 L
791.846 603.351 L
791.266 605.961 L
790.685 608.571 L
790.105 611.181 L
789.524 613.791 L
788.944 616.401 L
788.363 619.011 L
787.782 621.621 L
787.201 624.231 L
786.62 626.841 L
786.039 629.451 L
785.457 632.061 L
784.876 634.671 L
784.294 637.281 L
783.712 639.891 L
783.13 642.501 L
782.548 645.111 L
781.966 647.721 L
781.383 650.331 L
780.8 652.941 L
780.217 655.551 L
779.634 658.161 L
779.051 660.771 L
778.467 663.381 L
777.883 665.991 L
777.299 668.601 L
776.714 671.211 L
776.13 673.821 L
775.545 676.431 L
774.959 679.041 L
S
GR
GS
[0.75 0 0 0.75 0 0] CT
2 LJ
N
774.959 679.041 M
774.374 681.651 L
773.841 684.026 L
S
GR
GS
[0.75 0 0 0.75 0 0] CT
[10 6] 0 setdash
2 LJ
N
833 423.261 M
830.127 425.871 L
828.192 428.481 L
826.492 431.091 L
824.931 433.701 L
823.467 436.311 L
822.075 438.921 L
820.742 441.531 L
819.457 444.141 L
818.212 446.751 L
817.002 449.361 L
815.822 451.971 L
814.67 454.581 L
813.541 457.191 L
812.434 459.801 L
811.346 462.411 L
810.277 465.021 L
809.224 467.631 L
808.186 470.241 L
807.163 472.851 L
806.152 475.461 L
805.154 478.071 L
804.167 480.681 L
803.191 483.291 L
802.225 485.901 L
801.268 488.511 L
800.321 491.121 L
799.382 493.731 L
798.451 496.341 L
797.527 498.951 L
796.611 501.561 L
795.702 504.171 L
794.8 506.781 L
793.904 509.391 L
793.014 512.001 L
792.13 514.611 L
791.251 517.221 L
790.378 519.831 L
789.509 522.441 L
788.646 525.051 L
787.787 527.661 L
786.933 530.271 L
786.083 532.881 L
785.238 535.491 L
784.396 538.101 L
783.559 540.711 L
782.725 543.321 L
781.895 545.931 L
781.068 548.541 L
780.245 551.151 L
779.425 553.761 L
778.609 556.371 L
777.795 558.981 L
776.984 561.591 L
776.177 564.201 L
775.372 566.811 L
774.57 569.421 L
773.77 572.031 L
772.973 574.641 L
772.179 577.251 L
771.386 579.861 L
770.597 582.471 L
769.809 585.081 L
769.024 587.691 L
768.241 590.301 L
767.46 592.911 L
766.68 595.521 L
765.903 598.131 L
765.128 600.741 L
764.355 603.351 L
763.583 605.961 L
762.813 608.571 L
762.045 611.181 L
761.279 613.791 L
760.514 616.401 L
759.75 619.011 L
758.989 621.621 L
758.228 624.231 L
757.469 626.841 L
756.712 629.451 L
755.956 632.061 L
755.201 634.671 L
754.448 637.281 L
753.695 639.891 L
752.944 642.501 L
752.194 645.111 L
751.446 647.721 L
750.698 650.331 L
749.952 652.941 L
749.206 655.551 L
748.462 658.161 L
747.718 660.771 L
746.976 663.381 L
746.234 665.991 L
745.494 668.601 L
744.754 671.211 L
744.015 673.821 L
743.277 676.431 L
742.54 679.041 L
741.804 681.651 L
741.134 684.026 L
S
GR
GS
[0.75 0 0 0.75 0 0] CT
[1 3] 0 setdash
2 LJ
N
833 423.261 M
771.686 425.871 L
759.638 428.481 L
751.322 431.091 L
744.757 433.701 L
739.235 436.311 L
734.418 438.921 L
730.11 441.531 L
726.193 444.141 L
722.584 446.751 L
719.226 449.361 L
716.077 451.971 L
713.105 454.581 L
710.285 457.191 L
707.597 459.801 L
705.025 462.411 L
702.556 465.021 L
700.179 467.631 L
697.884 470.241 L
695.665 472.851 L
693.513 475.461 L
691.424 478.071 L
689.391 480.681 L
687.412 483.291 L
685.481 485.901 L
683.595 488.511 L
681.751 491.121 L
679.947 493.731 L
678.179 496.341 L
676.446 498.951 L
674.745 501.561 L
673.074 504.171 L
671.433 506.781 L
669.818 509.391 L
668.23 512.001 L
666.666 514.611 L
665.125 517.221 L
663.606 519.831 L
662.108 522.441 L
660.63 525.051 L
659.172 527.661 L
657.732 530.271 L
656.309 532.881 L
654.903 535.491 L
653.513 538.101 L
652.138 540.711 L
650.779 543.321 L
649.433 545.931 L
648.101 548.541 L
646.783 551.151 L
645.477 553.761 L
644.183 556.371 L
642.902 558.981 L
641.631 561.591 L
640.372 564.201 L
639.123 566.811 L
637.884 569.421 L
636.656 572.031 L
635.437 574.641 L
634.227 577.251 L
633.027 579.861 L
631.835 582.471 L
630.651 585.081 L
629.476 587.691 L
628.309 590.301 L
627.15 592.911 L
625.998 595.521 L
624.853 598.131 L
623.716 600.741 L
622.585 603.351 L
621.461 605.961 L
620.344 608.571 L
619.233 611.181 L
618.128 613.791 L
617.03 616.401 L
615.937 619.011 L
614.85 621.621 L
613.768 624.231 L
612.692 626.841 L
611.621 629.451 L
610.555 632.061 L
609.495 634.671 L
608.439 637.281 L
607.388 639.891 L
606.342 642.501 L
605.3 645.111 L
604.263 647.721 L
603.23 650.331 L
602.202 652.941 L
601.177 655.551 L
600.157 658.161 L
599.14 660.771 L
598.128 663.381 L
597.119 665.991 L
596.114 668.601 L
595.113 671.211 L
594.115 673.821 L
593.12 676.431 L
592.129 679.041 L
591.141 681.651 L
590.245 684.026 L
S
GR
GS
[0.75 0 0 0.75 529.8755 313.53751] CT
/Helvetica-Bold 26 F
GS
[1 0 0 1 0 0] CT
-166.5 -6 moveto 
1 -1 scale
(Particle Size Distribution) t 
GR
GR
GS
[0.75 0 0 0.75 0 0] CT
1 GC
N
594 547 M
594 436 L
757 436 L
757 547 L
cp
f
GR
GS
[0.75 0 0 0.75 484.5 338.71481] CT
/Helvetica 22 F
GS
[1 0 0 1 0 0] CT
0 8 moveto 
1 -1 scale
(base) t 
GR
GR
GS
[0.75 0 0 0.75 0 0] CT
0.8 GC
2 setlinecap
10.0 ML
4 LW
N
602 451.62 M
642 451.62 L
S
GR
GS
[0.75 0 0 0.75 484.5 358.65495] CT
/Helvetica 22 F
GS
[1 0 0 1 0 0] CT
0 8 moveto 
1 -1 scale
(PSD = 2.5) t 
GR
GR
GS
[0.75 0 0 0.75 0 0] CT
2 setlinecap
10.0 ML
N
602 478.207 M
642 478.207 L
S
GR
GS
[0.75 0 0 0.75 484.5 378.59507] CT
/Helvetica 22 F
GS
[1 0 0 1 0 0] CT
0 8 moveto 
1 -1 scale
(PSD = 3.5) t 
GR
GR
GS
[0.75 0 0 0.75 0 0] CT
[10 6] 0 setdash
2 LJ
N
602 504.793 M
642 504.793 L
S
GR
GS
[0.75 0 0 0.75 484.5 398.53519] CT
/Helvetica 22 F
GS
[1 0 0 1 0 0] CT
0 8 moveto 
1 -1 scale
(PSD = 4.5) t 
GR
GR
GS
[0.75 0 0 0.75 0 0] CT
[1 3] 0 setdash
2 LJ
N
602 531.38 M
642 531.38 L
S
GR
GS
[0.75 0 0 0.75 0 0] CT
0.149 GC
2 setlinecap
10.0 ML
N
594 547 M
594 436 L
757 436 L
757 547 L
594 547 L
S
GR
GS
[0.75 0 0 0.75 0 0] CT
1 GC
N
1210 423 M
958 423 L
958 684 L
1210 684 L
cp
f
GR
GS
[0.75 0 0 0.75 0 0] CT
0.149 GC
2 setlinecap
10.0 ML
N
1033.86 684 M
1033.86 682.695 L
S
GR
GS
[0.75 0 0 0.75 0 0] CT
0.149 GC
2 setlinecap
10.0 ML
N
1078.235 684 M
1078.235 682.695 L
S
GR
GS
[0.75 0 0 0.75 0 0] CT
0.149 GC
2 setlinecap
10.0 ML
N
1109.719 684 M
1109.719 682.695 L
S
GR
GS
[0.75 0 0 0.75 0 0] CT
0.149 GC
2 setlinecap
10.0 ML
N
1134.141 684 M
1134.141 682.695 L
S
GR
GS
[0.75 0 0 0.75 0 0] CT
0.149 GC
2 setlinecap
10.0 ML
N
1154.094 684 M
1154.094 682.695 L
S
GR
GS
[0.75 0 0 0.75 0 0] CT
0.149 GC
2 setlinecap
10.0 ML
N
1170.965 684 M
1170.965 682.695 L
S
GR
GS
[0.75 0 0 0.75 0 0] CT
0.149 GC
2 setlinecap
10.0 ML
N
1185.579 684 M
1185.579 682.695 L
S
GR
GS
[0.75 0 0 0.75 0 0] CT
0.149 GC
2 setlinecap
10.0 ML
N
1198.469 684 M
1198.469 682.695 L
S
GR
GS
[0.75 0 0 0.75 813.00009 547.34999] CT
0.149 GC
/Helvetica 26 F
GS
[1 0 0 1 0 0] CT
-103.5 25 moveto 
1 -1 scale
(Normalized Flux) t 
GR
GR
GS
[0.75 0 0 0.75 0 0] CT
0.149 GC
2 setlinecap
10.0 ML
N
958 684 M
1210 684 L
S
GR
GS
[0.75 0 0 0.75 0 0] CT
0.149 GC
2 setlinecap
10.0 ML
N
958 684 M
958 681.39 L
S
GR
GS
[0.75 0 0 0.75 0 0] CT
0.149 GC
2 setlinecap
10.0 ML
N
1210 684 M
1210 681.39 L
S
GR
GS
[0.75 0 0 0.75 697.5 541.5] CT
0.149 GC
/Helvetica 24 F
GS
[1 0 0 1 0 0] CT
0 0 moveto 
1 -1 scale
(10) t 
GR
GR
GS
[0.75 0 0 0.75 720.75 532.5] CT
0.149 GC
/Helvetica 19 F
GS
[1 0 0 1 0 0] CT
0 0 moveto 
1 -1 scale
(-1) t 
GR
GR
GS
[0.75 0 0 0.75 891 541.5] CT
0.149 GC
/Helvetica 24 F
GS
[1 0 0 1 0 0] CT
0 0 moveto 
1 -1 scale
(10) t 
GR
GR
GS
[0.75 0 0 0.75 914.25 532.5] CT
0.149 GC
/Helvetica 19 F
GS
[1 0 0 1 0 0] CT
0 0 moveto 
1 -1 scale
(0) t 
GR
GR
GS
[0.75 0 0 0.75 0 0] CT
0.149 GC
2 setlinecap
10.0 ML
N
958 423 M
958 684 L
S
GR
GS
[0.75 0 0 0.75 0 0] CT
0.149 GC
2 setlinecap
10.0 ML
N
958 423 M
960.61 423 L
S
GR
GS
[0.75 0 0 0.75 0 0] CT
0.149 GC
2 setlinecap
10.0 ML
N
958 475.2 M
960.61 475.2 L
S
GR
GS
[0.75 0 0 0.75 0 0] CT
0.149 GC
2 setlinecap
10.0 ML
N
958 527.4 M
960.61 527.4 L
S
GR
GS
[0.75 0 0 0.75 0 0] CT
0.149 GC
2 setlinecap
10.0 ML
N
958 579.6 M
960.61 579.6 L
S
GR
GS
[0.75 0 0 0.75 0 0] CT
0.149 GC
2 setlinecap
10.0 ML
N
958 631.8 M
960.61 631.8 L
S
GR
GS
[0.75 0 0 0.75 0 0] CT
0.149 GC
2 setlinecap
10.0 ML
N
958 684 M
960.61 684 L
S
GR
GS
[0.75 0 0 0.75 712.89999 317.25] CT
0.149 GC
/Helvetica 24 F
GS
[1 0 0 1 0 0] CT
-16 8.5 moveto 
1 -1 scale
(0) t 
GR
GR
GS
[0.75 0 0 0.75 712.89999 356.39999] CT
0.149 GC
/Helvetica 24 F
GS
[1 0 0 1 0 0] CT
-46 8.5 moveto 
1 -1 scale
(200) t 
GR
GR
GS
[0.75 0 0 0.75 712.89999 395.54997] CT
0.149 GC
/Helvetica 24 F
GS
[1 0 0 1 0 0] CT
-46 8.5 moveto 
1 -1 scale
(400) t 
GR
GR
GS
[0.75 0 0 0.75 712.89999 434.69998] CT
0.149 GC
/Helvetica 24 F
GS
[1 0 0 1 0 0] CT
-46 8.5 moveto 
1 -1 scale
(600) t 
GR
GR
GS
[0.75 0 0 0.75 712.89999 473.84999] CT
0.149 GC
/Helvetica 24 F
GS
[1 0 0 1 0 0] CT
-46 8.5 moveto 
1 -1 scale
(800) t 
GR
GR
GS
[0.75 0 0 0.75 712.89999 513] CT
0.149 GC
/Helvetica 24 F
GS
[1 0 0 1 0 0] CT
-61 8.5 moveto 
1 -1 scale
(1000) t 
GR
GR
GS
[0.75 0 0 0.75 0 0] CT
0.8 GC
2 LJ
4 LW
N
1210 423.261 M
1207.139 425.871 L
1205.211 428.481 L
1203.518 431.091 L
1201.963 433.701 L
1200.504 436.311 L
1199.119 438.921 L
1197.791 441.531 L
1196.51 444.141 L
1195.271 446.751 L
1194.065 449.361 L
1192.89 451.971 L
1191.742 454.581 L
1190.618 457.191 L
1189.515 459.801 L
1188.432 462.411 L
1187.367 465.021 L
1186.318 467.631 L
1185.285 470.241 L
1184.265 472.851 L
1183.258 475.461 L
1182.264 478.071 L
1181.281 480.681 L
1180.309 483.291 L
1179.346 485.901 L
1178.394 488.511 L
1177.45 491.121 L
1176.515 493.731 L
1175.587 496.341 L
1174.668 498.951 L
1173.755 501.561 L
1172.85 504.171 L
1171.951 506.781 L
1171.058 509.391 L
1170.172 512.001 L
1169.291 514.611 L
1168.416 517.221 L
1167.546 519.831 L
1166.681 522.441 L
1165.821 525.051 L
1164.966 527.661 L
1164.115 530.271 L
1163.269 532.881 L
1162.427 535.491 L
1161.589 538.101 L
1160.754 540.711 L
1159.924 543.321 L
1159.097 545.931 L
1158.274 548.541 L
1157.454 551.151 L
S
GR
GS
[0.75 0 0 0.75 0 0] CT
0.8 GC
2 LJ
4 LW
N
1157.454 551.151 M
1156.637 553.761 L
1155.824 556.371 L
1155.013 558.981 L
1154.206 561.591 L
1153.401 564.201 L
1152.6 566.811 L
1151.801 569.421 L
1151.004 572.031 L
1150.21 574.641 L
1149.419 577.251 L
1148.63 579.861 L
1147.843 582.471 L
1147.059 585.081 L
1146.277 587.691 L
1145.497 590.301 L
1144.719 592.911 L
1143.943 595.521 L
1143.168 598.131 L
1142.396 600.741 L
1141.626 603.351 L
1140.857 605.961 L
1140.091 608.571 L
1139.326 611.181 L
1138.562 613.791 L
1137.8 616.401 L
1137.04 619.011 L
1136.281 621.621 L
1135.524 624.231 L
1134.768 626.841 L
1134.014 629.451 L
1133.26 632.061 L
1132.509 634.671 L
1131.758 637.281 L
1131.009 639.891 L
1130.261 642.501 L
1129.514 645.111 L
1128.768 647.721 L
1128.023 650.331 L
1127.28 652.941 L
1126.537 655.551 L
1125.796 658.161 L
1125.055 660.771 L
1124.316 663.381 L
1123.577 665.991 L
1122.84 668.601 L
1122.103 671.211 L
1121.367 673.821 L
1120.632 676.431 L
1119.898 679.041 L
S
GR
GS
[0.75 0 0 0.75 0 0] CT
0.8 GC
2 LJ
4 LW
N
1119.898 679.041 M
1119.164 681.651 L
1118.497 684.026 L
S
GR
GS
[0.75 0 0 0.75 0 0] CT
2 LJ
N
1210 423.261 M
1206.653 425.871 L
1204.463 428.481 L
1202.549 431.091 L
1200.797 433.701 L
1199.155 436.311 L
1197.596 438.921 L
1196.105 441.531 L
1194.668 444.141 L
1193.278 446.751 L
1191.928 449.361 L
1190.613 451.971 L
1189.329 454.581 L
1188.073 457.191 L
1186.842 459.801 L
1185.633 462.411 L
1184.445 465.021 L
1183.276 467.631 L
1182.125 470.241 L
1180.99 472.851 L
1179.871 475.461 L
1178.766 478.071 L
1177.673 480.681 L
1176.594 483.291 L
1175.526 485.901 L
1174.469 488.511 L
1173.423 491.121 L
1172.387 493.731 L
1171.36 496.341 L
1170.342 498.951 L
1169.333 501.561 L
1168.331 504.171 L
1167.338 506.781 L
1166.352 509.391 L
1165.373 512.001 L
1164.401 514.611 L
1163.436 517.221 L
1162.477 519.831 L
1161.524 522.441 L
1160.577 525.051 L
1159.636 527.661 L
1158.7 530.271 L
1157.769 532.881 L
1156.843 535.491 L
1155.922 538.101 L
1155.006 540.711 L
1154.095 543.321 L
1153.188 545.931 L
1152.285 548.541 L
1151.386 551.151 L
S
GR
GS
[0.75 0 0 0.75 0 0] CT
2 LJ
N
1151.386 551.151 M
1150.491 553.761 L
1149.601 556.371 L
1148.714 558.981 L
1147.83 561.591 L
1146.951 564.201 L
1146.074 566.811 L
1145.201 569.421 L
1144.332 572.031 L
1143.465 574.641 L
1142.602 577.251 L
1141.742 579.861 L
1140.884 582.471 L
1140.03 585.081 L
1139.178 587.691 L
1138.329 590.301 L
1137.483 592.911 L
1136.639 595.521 L
1135.798 598.131 L
1134.959 600.741 L
1134.123 603.351 L
1133.289 605.961 L
1132.457 608.571 L
1131.628 611.181 L
1130.801 613.791 L
1129.976 616.401 L
1129.153 619.011 L
1128.332 621.621 L
1127.513 624.231 L
1126.696 626.841 L
1125.881 629.451 L
1125.068 632.061 L
1124.256 634.671 L
1123.447 637.281 L
1122.639 639.891 L
1121.833 642.501 L
1121.029 645.111 L
1120.226 647.721 L
1119.425 650.331 L
1118.625 652.941 L
1117.827 655.551 L
1117.031 658.161 L
1116.236 660.771 L
1115.442 663.381 L
1114.65 665.991 L
1113.859 668.601 L
1113.07 671.211 L
1112.282 673.821 L
1111.495 676.431 L
1110.71 679.041 L
S
GR
GS
[0.75 0 0 0.75 0 0] CT
2 LJ
N
1110.71 679.041 M
1109.926 681.651 L
1109.214 684.026 L
S
GR
GS
[0.75 0 0 0.75 0 0] CT
[10 6] 0 setdash
2 LJ
N
1210 423.261 M
1204.542 425.871 L
1201.346 428.481 L
1198.542 431.091 L
1195.981 433.701 L
1193.592 436.311 L
1191.336 438.921 L
1189.185 441.531 L
1187.121 444.141 L
1185.131 446.751 L
1183.205 449.361 L
1181.334 451.971 L
1179.514 454.581 L
1177.738 457.191 L
1176.003 459.801 L
1174.304 462.411 L
1172.639 465.021 L
1171.005 467.631 L
1169.399 470.241 L
1167.82 472.851 L
1166.266 475.461 L
1164.736 478.071 L
1163.227 480.681 L
1161.739 483.291 L
1160.271 485.901 L
1158.821 488.511 L
1157.388 491.121 L
1155.973 493.731 L
1154.573 496.341 L
1153.188 498.951 L
1151.818 501.561 L
1150.462 504.171 L
1149.12 506.781 L
1147.79 509.391 L
1146.472 512.001 L
1145.167 514.611 L
1143.872 517.221 L
1142.589 519.831 L
1141.317 522.441 L
1140.055 525.051 L
1138.803 527.661 L
1137.56 530.271 L
1136.327 532.881 L
1135.103 535.491 L
1133.888 538.101 L
1132.682 540.711 L
1131.484 543.321 L
1130.294 545.931 L
1129.111 548.541 L
1127.937 551.151 L
1126.77 553.761 L
1125.61 556.371 L
1124.458 558.981 L
1123.313 561.591 L
1122.174 564.201 L
1121.042 566.811 L
1119.917 569.421 L
1118.797 572.031 L
1117.684 574.641 L
1116.578 577.251 L
1115.477 579.861 L
1114.382 582.471 L
1113.293 585.081 L
1112.209 587.691 L
1111.131 590.301 L
1110.058 592.911 L
1108.991 595.521 L
1107.928 598.131 L
1106.871 600.741 L
1105.819 603.351 L
1104.772 605.961 L
1103.73 608.571 L
1102.693 611.181 L
1101.66 613.791 L
1100.631 616.401 L
1099.608 619.011 L
1098.589 621.621 L
1097.574 624.231 L
1096.563 626.841 L
1095.557 629.451 L
1094.555 632.061 L
1093.557 634.671 L
1092.564 637.281 L
1091.574 639.891 L
1090.588 642.501 L
1089.606 645.111 L
1088.628 647.721 L
1087.654 650.331 L
1086.684 652.941 L
1085.717 655.551 L
1084.754 658.161 L
1083.795 660.771 L
1082.839 663.381 L
1081.886 665.991 L
1080.937 668.601 L
1079.992 671.211 L
1079.05 673.821 L
1078.111 676.431 L
1077.176 679.041 L
1076.244 681.651 L
1075.398 684.026 L
S
GR
GS
[0.75 0 0 0.75 0 0] CT
[1 3] 0 setdash
2 LJ
N
1210 423.261 M
1160.653 425.871 L
1128.107 428.481 L
1097.856 431.091 L
1068.119 433.701 L
1038.025 436.311 L
1006.964 438.921 L
974.389 441.531 L
957.975 442.767 L
S
GR
GS
[0.75 0 0 0.75 813.00073 313.53751] CT
/Helvetica-Bold 26 F
GS
[1 0 0 1 0 0] CT
-45 -6 moveto 
1 -1 scale
(Ballast) t 
GR
GR
GS
[0.75 0 0 0.75 0 0] CT
1 GC
N
1345 547 M
972 547 L
972 436 L
1345 436 L
cp
f
GR
GS
[0.75 0 0 0.75 768 338.71481] CT
/Helvetica 22 F
GS
[1 0 0 1 0 0] CT
0 8 moveto 
1 -1 scale
(base) t 
GR
GR
GS
[0.75 0 0 0.75 0 0] CT
0.8 GC
2 setlinecap
10.0 ML
4 LW
N
980 451.62 M
1020 451.62 L
S
GR
GS
[0.75 0 0 0.75 768 358.65495] CT
/Helvetica 22 F
GS
[1 0 0 1 0 0] CT
0 8 moveto 
1 -1 scale
(AA; CaCO3 = 0%; Si = 0%) t 
GR
GR
GS
[0.75 0 0 0.75 0 0] CT
2 setlinecap
10.0 ML
N
980 478.207 M
1020 478.207 L
S
GR
GS
[0.75 0 0 0.75 768 378.59507] CT
/Helvetica 22 F
GS
[1 0 0 1 0 0] CT
0 8 moveto 
1 -1 scale
(STP; CaCO3 = 8.7%; Si = 70%) t 
GR
GR
GS
[0.75 0 0 0.75 0 0] CT
[10 6] 0 setdash
2 LJ
N
980 504.793 M
1020 504.793 L
S
GR
GS
[0.75 0 0 0.75 768 398.53519] CT
/Helvetica 22 F
GS
[1 0 0 1 0 0] CT
0 8 moveto 
1 -1 scale
(Unbal; CaCO3 = 35%; Si = 25%) t 
GR
GR
GS
[0.75 0 0 0.75 0 0] CT
[1 3] 0 setdash
2 LJ
N
980 531.38 M
1020 531.38 L
S
GR
GS
[0.75 0 0 0.75 0 0] CT
0.149 GC
2 setlinecap
10.0 ML
N
972 547 M
972 436 L
1345 436 L
S
GR
GS
[0.75 0 0 0.75 0 0] CT
0.149 GC
2 setlinecap
10.0 ML
N
1345 547 M
972 547 L
S
GR
GS
[0.75 0 0 0.75 0 0] CT
1 GC
N
265 58 M
175 58 L
175 320 L
265 320 L
cp
f
GR
GS
[0.75 0 0 0.75 165.00003 268.34999] CT
0.149 GC
/Helvetica 26 F
GS
[1 0 0 1 0 0] CT
-81.5 25 moveto 
1 -1 scale
(Temperature) t 
GR
GR
GS
[0.75 0 0 0.75 0 0] CT
0.149 GC
2 setlinecap
10.0 ML
N
175 320 M
265 320 L
S
GR
GS
[0.75 0 0 0.75 0 0] CT
0.149 GC
2 setlinecap
10.0 ML
N
175 320 M
175 317.38 L
S
GR
GS
[0.75 0 0 0.75 0 0] CT
0.149 GC
2 setlinecap
10.0 ML
N
220 320 M
220 317.38 L
S
GR
GS
[0.75 0 0 0.75 0 0] CT
0.149 GC
2 setlinecap
10.0 ML
N
265 320 M
265 317.38 L
S
GR
GS
[0.75 0 0 0.75 131.25 245.60001] CT
0.149 GC
/Helvetica 24 F
GS
[1 0 0 1 0 0] CT
-8 23 moveto 
1 -1 scale
(0) t 
GR
GR
GS
[0.75 0 0 0.75 165 245.60001] CT
0.149 GC
/Helvetica 24 F
GS
[1 0 0 1 0 0] CT
-15.5 23 moveto 
1 -1 scale
(20) t 
GR
GR
GS
[0.75 0 0 0.75 198.75 245.60001] CT
0.149 GC
/Helvetica 24 F
GS
[1 0 0 1 0 0] CT
-15.5 23 moveto 
1 -1 scale
(40) t 
GR
GR
GS
[0 -0.75 0.75 0 76.90001 141.74991] CT
0.149 GC
/Helvetica 26 F
GS
[1 0 0 1 0 0] CT
-38.5 -6 moveto 
1 -1 scale
(Depth) t 
GR
GR
GS
[0.75 0 0 0.75 0 0] CT
0.149 GC
2 setlinecap
10.0 ML
N
175 58 M
175 320 L
S
GR
GS
[0.75 0 0 0.75 0 0] CT
0.149 GC
2 setlinecap
10.0 ML
N
175 58 M
177.62 58 L
S
GR
GS
[0.75 0 0 0.75 0 0] CT
0.149 GC
2 setlinecap
10.0 ML
N
175 110.4 M
177.62 110.4 L
S
GR
GS
[0.75 0 0 0.75 0 0] CT
0.149 GC
2 setlinecap
10.0 ML
N
175 162.8 M
177.62 162.8 L
S
GR
GS
[0.75 0 0 0.75 0 0] CT
0.149 GC
2 setlinecap
10.0 ML
N
175 215.2 M
177.62 215.2 L
S
GR
GS
[0.75 0 0 0.75 0 0] CT
0.149 GC
2 setlinecap
10.0 ML
N
175 267.6 M
177.62 267.6 L
S
GR
GS
[0.75 0 0 0.75 0 0] CT
0.149 GC
2 setlinecap
10.0 ML
N
175 320 M
177.62 320 L
S
GR
GS
[0.75 0 0 0.75 125.65001 43.5] CT
0.149 GC
/Helvetica 24 F
GS
[1 0 0 1 0 0] CT
-16 8.5 moveto 
1 -1 scale
(0) t 
GR
GR
GS
[0.75 0 0 0.75 125.65001 82.8] CT
0.149 GC
/Helvetica 24 F
GS
[1 0 0 1 0 0] CT
-46 8.5 moveto 
1 -1 scale
(200) t 
GR
GR
GS
[0.75 0 0 0.75 125.65001 122.1] CT
0.149 GC
/Helvetica 24 F
GS
[1 0 0 1 0 0] CT
-46 8.5 moveto 
1 -1 scale
(400) t 
GR
GR
GS
[0.75 0 0 0.75 125.65001 161.4] CT
0.149 GC
/Helvetica 24 F
GS
[1 0 0 1 0 0] CT
-46 8.5 moveto 
1 -1 scale
(600) t 
GR
GR
GS
[0.75 0 0 0.75 125.65001 200.7] CT
0.149 GC
/Helvetica 24 F
GS
[1 0 0 1 0 0] CT
-46 8.5 moveto 
1 -1 scale
(800) t 
GR
GR
GS
[0.75 0 0 0.75 125.65001 240] CT
0.149 GC
/Helvetica 24 F
GS
[1 0 0 1 0 0] CT
-61 8.5 moveto 
1 -1 scale
(1000) t 
GR
GR
GS
[0.75 0 0 0.75 0 0] CT
0.902 GC
2 LJ
4 LW
N
184 58.262 M
184 60.882 L
184 63.502 L
184 66.122 L
184 68.742 L
184 71.362 L
184 73.982 L
184 76.602 L
184 79.222 L
184 81.842 L
184 84.462 L
184 87.082 L
184 89.702 L
184 92.322 L
184 94.942 L
184 97.562 L
184 100.182 L
184 102.802 L
184 105.422 L
184 108.042 L
184 110.662 L
184 113.282 L
184 115.902 L
184 118.522 L
184 121.142 L
184 123.762 L
184 126.382 L
184 129.002 L
184 131.622 L
184 134.242 L
184 136.862 L
184 139.482 L
184 142.102 L
184 144.722 L
184 147.342 L
184 149.962 L
184 152.582 L
184 155.202 L
184 157.822 L
184 160.442 L
184 163.062 L
184 165.682 L
184 168.302 L
184 170.922 L
184 173.542 L
184 176.162 L
184 178.782 L
184 181.402 L
184 184.022 L
184 186.642 L
S
GR
GS
[0.75 0 0 0.75 0 0] CT
0.902 GC
2 LJ
4 LW
N
184 186.642 M
184 189.262 L
184 191.882 L
184 194.502 L
184 197.122 L
184 199.742 L
184 202.362 L
184 204.982 L
184 207.602 L
184 210.222 L
184 212.842 L
184 215.462 L
184 218.082 L
184 220.702 L
184 223.322 L
184 225.942 L
184 228.562 L
184 231.182 L
184 233.802 L
184 236.422 L
184 239.042 L
184 241.662 L
184 244.282 L
184 246.902 L
184 249.522 L
184 252.142 L
184 254.762 L
184 257.382 L
184 260.002 L
184 262.622 L
184 265.242 L
184 267.862 L
184 270.482 L
184 273.102 L
184 275.722 L
184 278.342 L
184 280.962 L
184 283.582 L
184 286.202 L
184 288.822 L
184 291.442 L
184 294.062 L
184 296.682 L
184 299.302 L
184 301.922 L
184 304.542 L
184 307.162 L
184 309.782 L
184 312.402 L
184 315.022 L
S
GR
GS
[0.75 0 0 0.75 0 0] CT
0.902 GC
2 LJ
4 LW
N
184 315.022 M
184 317.642 L
184 320.026 L
S
GR
GS
[0.75 0 0 0.75 0 0] CT
2 LJ
N
176.526 58.262 M
176.335 60.882 L
176.112 63.502 L
175.88 66.122 L
175.658 68.742 L
175.468 71.362 L
175.329 73.982 L
175.264 76.602 L
175.288 79.222 L
175.395 81.842 L
175.564 84.462 L
175.775 87.082 L
176.007 89.702 L
176.247 92.322 L
176.488 94.942 L
176.722 97.562 L
176.94 100.182 L
177.136 102.802 L
177.311 105.422 L
177.464 108.042 L
177.597 110.662 L
177.711 113.282 L
177.807 115.902 L
177.887 118.522 L
177.953 121.142 L
178.008 123.762 L
178.054 126.382 L
178.095 129.002 L
178.132 131.622 L
178.167 134.242 L
178.201 136.862 L
178.233 139.482 L
178.263 142.102 L
178.29 144.722 L
178.315 147.342 L
178.337 149.962 L
178.355 152.582 L
178.371 155.202 L
178.383 157.822 L
178.393 160.442 L
178.401 163.062 L
178.407 165.682 L
178.412 168.302 L
178.415 170.922 L
178.418 173.542 L
178.42 176.162 L
178.422 178.782 L
178.424 181.402 L
178.426 184.022 L
178.428 186.642 L
S
GR
GS
[0.75 0 0 0.75 0 0] CT
2 LJ
N
178.428 186.642 M
178.429 189.262 L
178.43 191.882 L
178.431 194.502 L
178.432 197.122 L
178.432 199.742 L
178.433 202.362 L
178.433 204.982 L
178.432 207.602 L
178.432 210.222 L
178.431 212.842 L
178.429 215.462 L
178.428 218.082 L
178.426 220.702 L
178.423 223.322 L
178.42 225.942 L
178.416 228.562 L
178.411 231.182 L
178.406 233.802 L
178.4 236.422 L
178.394 239.042 L
178.387 241.662 L
178.379 244.282 L
178.37 246.902 L
178.361 249.522 L
178.352 252.142 L
178.341 254.762 L
178.331 257.382 L
178.32 260.002 L
178.309 262.622 L
178.297 265.242 L
178.285 267.862 L
178.273 270.482 L
178.261 273.102 L
178.248 275.722 L
178.235 278.342 L
178.223 280.962 L
178.21 283.582 L
178.197 286.202 L
178.184 288.822 L
178.171 291.442 L
178.158 294.062 L
178.144 296.682 L
178.131 299.302 L
178.118 301.922 L
178.104 304.542 L
178.09 307.162 L
178.077 309.782 L
178.063 312.402 L
178.049 315.022 L
S
GR
GS
[0.75 0 0 0.75 0 0] CT
2 LJ
N
178.049 315.022 M
178.035 317.642 L
178.022 320.026 L
S
GR
GS
[0.75 0 0 0.75 0 0] CT
[10 6] 0 setdash
2 LJ
N
228.995 58.262 M
228.618 60.882 L
228.063 63.502 L
227.359 66.122 L
226.532 68.742 L
225.612 71.362 L
224.626 73.982 L
223.602 76.602 L
222.565 79.222 L
221.519 81.842 L
220.458 84.462 L
219.373 87.082 L
218.258 89.702 L
217.118 92.322 L
215.958 94.942 L
214.789 97.562 L
213.619 100.182 L
212.455 102.802 L
211.309 105.422 L
210.19 108.042 L
209.11 110.662 L
208.078 113.282 L
207.104 115.902 L
206.188 118.522 L
205.322 121.142 L
204.499 123.762 L
203.711 126.382 L
202.952 129.002 L
202.213 131.622 L
201.489 134.242 L
200.782 136.862 L
200.094 139.482 L
199.425 142.102 L
198.778 144.722 L
198.153 147.342 L
197.554 149.962 L
196.981 152.582 L
196.434 155.202 L
195.914 157.822 L
195.417 160.442 L
194.944 163.062 L
194.493 165.682 L
194.063 168.302 L
193.653 170.922 L
193.262 173.542 L
192.888 176.162 L
192.532 178.782 L
192.192 181.402 L
191.866 184.022 L
191.556 186.642 L
191.259 189.262 L
190.975 191.882 L
190.702 194.502 L
190.442 197.122 L
190.192 199.742 L
189.951 202.362 L
189.72 204.982 L
189.497 207.602 L
189.282 210.222 L
189.074 212.842 L
188.874 215.462 L
188.681 218.082 L
188.494 220.702 L
188.313 223.322 L
188.138 225.942 L
187.968 228.562 L
187.802 231.182 L
187.642 233.802 L
187.485 236.422 L
187.332 239.042 L
187.182 241.662 L
187.036 244.282 L
186.893 246.902 L
186.753 249.522 L
186.616 252.142 L
186.482 254.762 L
186.35 257.382 L
186.221 260.002 L
186.094 262.622 L
185.969 265.242 L
185.846 267.862 L
185.725 270.482 L
185.606 273.102 L
185.489 275.722 L
185.373 278.342 L
185.259 280.962 L
185.146 283.582 L
185.034 286.202 L
184.925 288.822 L
184.817 291.442 L
184.71 294.062 L
184.605 296.682 L
184.502 299.302 L
184.401 301.922 L
184.301 304.542 L
184.204 307.162 L
184.108 309.782 L
184.014 312.402 L
183.921 315.022 L
183.831 317.642 L
183.751 320.026 L
S
GR
GS
[0.75 0 0 0.75 0 0] CT
1 GC
N
188 155 M
188 70 L
295 70 L
295 155 L
cp
f
GR
GS
[0.75 0 0 0.75 180.36793 64.29626] CT
/Helvetica 22 F
GS
[1 0 0 1 0 0] CT
0 8 moveto 
1 -1 scale
(base) t 
GR
GR
GS
[0.75 0 0 0.75 0 0] CT
0.902 GC
2 setlinecap
10.0 ML
4 LW
N
196.075 85.728 M
236.453 85.728 L
S
GR
GS
[0.75 0 0 0.75 180.36793 84.375] CT
/Helvetica 22 F
GS
[1 0 0 1 0 0] CT
0 8 moveto 
1 -1 scale
(AA) t 
GR
GR
GS
[0.75 0 0 0.75 0 0] CT
2 setlinecap
10.0 ML
N
196.075 112.5 M
236.453 112.5 L
S
GR
GS
[0.75 0 0 0.75 180.36793 104.45374] CT
/Helvetica 22 F
GS
[1 0 0 1 0 0] CT
0 8 moveto 
1 -1 scale
(STP) t 
GR
GR
GS
[0.75 0 0 0.75 0 0] CT
[10 6] 0 setdash
2 LJ
N
196.075 139.272 M
236.453 139.272 L
S
GR
GS
[0.75 0 0 0.75 0 0] CT
0.149 GC
2 setlinecap
10.0 ML
N
188 155 M
188 70 L
295 70 L
295 155 L
188 155 L
S
GR
GS
[0.75 0 0 0.75 0 0] CT
1 GC
N
384 58 M
294 58 L
294 320 L
384 320 L
cp
f
GR
GS
[0.75 0 0 0.75 144.75 292.5] CT
0.149 GC
/Helvetica 25 F
GS
[1 0 0 1 0 0] CT
0 0 moveto 
1 -1 scale
(Potential Density kg/m) t 
GR
GR
GS
[0.75 0 0 0.75 354 283.5] CT
0.149 GC
/Helvetica 20 F
GS
[1 0 0 1 0 0] CT
0 0 moveto 
1 -1 scale
(3) t 
GR
GR
GS
[0.75 0 0 0.75 0 0] CT
0.149 GC
2 setlinecap
10.0 ML
N
294 320 M
384 320 L
S
GR
GS
[0.75 0 0 0.75 0 0] CT
0.149 GC
2 setlinecap
10.0 ML
N
294 320 M
294 317.38 L
S
GR
GS
[0.75 0 0 0.75 0 0] CT
0.149 GC
2 setlinecap
10.0 ML
N
339 320 M
339 317.38 L
S
GR
GS
[0.75 0 0 0.75 0 0] CT
0.149 GC
2 setlinecap
10.0 ML
N
384 320 M
384 317.38 L
S
GR
GS
[0.75 0 0 0.75 220.49986 245.60001] CT
0.149 GC
/Helvetica 24 F
GS
[1 0 0 1 0 0] CT
-27 23 moveto 
1 -1 scale
(1.02) t 
GR
GR
GS
[0.75 0 0 0.75 254.24984 245.60001] CT
0.149 GC
/Helvetica 24 F
GS
[1 0 0 1 0 0] CT
-34.5 23 moveto 
1 -1 scale
(1.025) t 
GR
GR
GS
[0.75 0 0 0.75 287.99982 245.60001] CT
0.149 GC
/Helvetica 24 F
GS
[1 0 0 1 0 0] CT
-27 23 moveto 
1 -1 scale
(1.03) t 
GR
GR
GS
[0 -0.75 0.75 0 166.14973 141.74991] CT
0.149 GC
/Helvetica 26 F
GS
[1 0 0 1 0 0] CT
-38.5 -6 moveto 
1 -1 scale
(Depth) t 
GR
GR
GS
[0.75 0 0 0.75 0 0] CT
0.149 GC
2 setlinecap
10.0 ML
N
294 58 M
294 320 L
S
GR
GS
[0.75 0 0 0.75 0 0] CT
0.149 GC
2 setlinecap
10.0 ML
N
294 58 M
296.62 58 L
S
GR
GS
[0.75 0 0 0.75 0 0] CT
0.149 GC
2 setlinecap
10.0 ML
N
294 110.4 M
296.62 110.4 L
S
GR
GS
[0.75 0 0 0.75 0 0] CT
0.149 GC
2 setlinecap
10.0 ML
N
294 162.8 M
296.62 162.8 L
S
GR
GS
[0.75 0 0 0.75 0 0] CT
0.149 GC
2 setlinecap
10.0 ML
N
294 215.2 M
296.62 215.2 L
S
GR
GS
[0.75 0 0 0.75 0 0] CT
0.149 GC
2 setlinecap
10.0 ML
N
294 267.6 M
296.62 267.6 L
S
GR
GS
[0.75 0 0 0.75 0 0] CT
0.149 GC
2 setlinecap
10.0 ML
N
294 320 M
296.62 320 L
S
GR
GS
[0.75 0 0 0.75 214.90022 43.5] CT
0.149 GC
/Helvetica 24 F
GS
[1 0 0 1 0 0] CT
-16 8.5 moveto 
1 -1 scale
(0) t 
GR
GR
GS
[0.75 0 0 0.75 214.90022 82.8] CT
0.149 GC
/Helvetica 24 F
GS
[1 0 0 1 0 0] CT
-46 8.5 moveto 
1 -1 scale
(200) t 
GR
GR
GS
[0.75 0 0 0.75 214.90022 122.1] CT
0.149 GC
/Helvetica 24 F
GS
[1 0 0 1 0 0] CT
-46 8.5 moveto 
1 -1 scale
(400) t 
GR
GR
GS
[0.75 0 0 0.75 214.90022 161.4] CT
0.149 GC
/Helvetica 24 F
GS
[1 0 0 1 0 0] CT
-46 8.5 moveto 
1 -1 scale
(600) t 
GR
GR
GS
[0.75 0 0 0.75 214.90022 200.7] CT
0.149 GC
/Helvetica 24 F
GS
[1 0 0 1 0 0] CT
-46 8.5 moveto 
1 -1 scale
(800) t 
GR
GR
GS
[0.75 0 0 0.75 214.90022 240] CT
0.149 GC
/Helvetica 24 F
GS
[1 0 0 1 0 0] CT
-61 8.5 moveto 
1 -1 scale
(1000) t 
GR
GR
GS
[0.75 0 0 0.75 0 0] CT
0.902 GC
2 LJ
4 LW
N
363.173 58.262 M
363.173 60.882 L
363.173 63.502 L
363.173 66.122 L
363.173 68.742 L
363.173 71.362 L
363.173 73.982 L
363.173 76.602 L
363.173 79.222 L
363.173 81.842 L
363.173 84.462 L
363.173 87.082 L
363.173 89.702 L
363.173 92.322 L
363.173 94.942 L
363.173 97.562 L
363.173 100.182 L
363.173 102.802 L
363.173 105.422 L
363.173 108.042 L
363.173 110.662 L
363.173 113.282 L
363.173 115.902 L
363.173 118.522 L
363.173 121.142 L
363.173 123.762 L
363.173 126.382 L
363.173 129.002 L
363.173 131.622 L
363.173 134.242 L
363.173 136.862 L
363.173 139.482 L
363.173 142.102 L
363.173 144.722 L
363.173 147.342 L
363.173 149.962 L
363.173 152.582 L
363.173 155.202 L
363.173 157.822 L
363.173 160.442 L
363.173 163.062 L
363.173 165.682 L
363.173 168.302 L
363.173 170.922 L
363.173 173.542 L
363.173 176.162 L
363.173 178.782 L
363.173 181.402 L
363.173 184.022 L
363.173 186.642 L
S
GR
GS
[0.75 0 0 0.75 0 0] CT
0.902 GC
2 LJ
4 LW
N
363.173 186.642 M
363.173 189.262 L
363.173 191.882 L
363.173 194.502 L
363.173 197.122 L
363.173 199.742 L
363.173 202.362 L
363.173 204.982 L
363.173 207.602 L
363.173 210.222 L
363.173 212.842 L
363.173 215.462 L
363.173 218.082 L
363.173 220.702 L
363.173 223.322 L
363.173 225.942 L
363.173 228.562 L
363.173 231.182 L
363.173 233.802 L
363.173 236.422 L
363.173 239.042 L
363.173 241.662 L
363.173 244.282 L
363.173 246.902 L
363.173 249.522 L
363.173 252.142 L
363.173 254.762 L
363.173 257.382 L
363.173 260.002 L
363.173 262.622 L
363.173 265.242 L
363.173 267.862 L
363.173 270.482 L
363.173 273.102 L
363.173 275.722 L
363.173 278.342 L
363.173 280.962 L
363.173 283.582 L
363.173 286.202 L
363.173 288.822 L
363.173 291.442 L
363.173 294.062 L
363.173 296.682 L
363.173 299.302 L
363.173 301.922 L
363.173 304.542 L
363.173 307.162 L
363.173 309.782 L
363.173 312.402 L
363.173 315.022 L
S
GR
GS
[0.75 0 0 0.75 0 0] CT
0.902 GC
2 LJ
4 LW
N
363.173 315.022 M
363.173 317.642 L
363.173 320.026 L
S
GR
GS
[0.75 0 0 0.75 0 0] CT
2 LJ
N
359.158 58.262 M
359.422 60.882 L
359.676 63.502 L
359.921 66.122 L
360.156 68.742 L
360.38 71.362 L
360.593 73.982 L
360.794 76.602 L
360.985 79.222 L
361.163 81.842 L
361.33 84.462 L
361.484 87.082 L
361.627 89.702 L
361.759 92.322 L
361.88 94.942 L
361.992 97.562 L
362.095 100.182 L
362.19 102.802 L
362.278 105.422 L
362.36 108.042 L
362.435 110.662 L
362.505 113.282 L
362.57 115.902 L
362.63 118.522 L
362.686 121.142 L
362.739 123.762 L
362.789 126.382 L
362.837 129.002 L
362.883 131.622 L
362.928 134.242 L
362.971 136.862 L
363.014 139.482 L
363.055 142.102 L
363.096 144.722 L
363.134 147.342 L
363.173 149.962 L
363.212 152.582 L
363.249 155.202 L
363.286 157.822 L
363.322 160.442 L
363.356 163.062 L
363.392 165.682 L
363.425 168.302 L
363.457 170.922 L
363.489 173.542 L
363.521 176.162 L
363.549 178.782 L
363.578 181.402 L
363.606 184.022 L
363.633 186.642 L
S
GR
GS
[0.75 0 0 0.75 0 0] CT
2 LJ
N
363.633 186.642 M
363.659 189.262 L
363.684 191.882 L
363.707 194.502 L
363.731 197.122 L
363.752 199.742 L
363.774 202.362 L
363.795 204.982 L
363.815 207.602 L
363.834 210.222 L
363.853 212.842 L
363.871 215.462 L
363.889 218.082 L
363.906 220.702 L
363.922 223.322 L
363.939 225.942 L
363.955 228.562 L
363.97 231.182 L
363.986 233.802 L
364.001 236.422 L
364.017 239.042 L
364.032 241.662 L
364.047 244.282 L
364.062 246.902 L
364.077 249.522 L
364.092 252.142 L
364.107 254.762 L
364.122 257.382 L
364.136 260.002 L
364.15 262.622 L
364.164 265.242 L
364.178 267.862 L
364.192 270.482 L
364.206 273.102 L
364.219 275.722 L
364.232 278.342 L
364.245 280.962 L
364.257 283.582 L
364.269 286.202 L
364.281 288.822 L
364.293 291.442 L
364.305 294.062 L
364.316 296.682 L
364.327 299.302 L
364.338 301.922 L
364.349 304.542 L
364.36 307.162 L
364.369 309.782 L
364.38 312.402 L
364.39 315.022 L
S
GR
GS
[0.75 0 0 0.75 0 0] CT
2 LJ
N
364.39 315.022 M
364.399 317.642 L
364.408 320.026 L
S
GR
GS
[0.75 0 0 0.75 0 0] CT
[10 6] 0 setdash
2 LJ
N
325.596 58.262 M
326.137 60.882 L
326.987 63.502 L
328.081 66.122 L
329.355 68.742 L
330.743 71.362 L
332.182 73.982 L
333.604 76.602 L
334.952 79.222 L
336.215 81.842 L
337.402 84.462 L
338.529 87.082 L
339.605 89.702 L
340.636 92.322 L
341.623 94.942 L
342.567 97.562 L
343.469 100.182 L
344.331 102.802 L
345.148 105.422 L
345.922 108.042 L
346.648 110.662 L
347.326 113.282 L
347.955 115.902 L
348.536 118.522 L
349.075 121.142 L
349.578 123.762 L
350.053 126.382 L
350.501 129.002 L
350.931 131.622 L
351.345 134.242 L
351.746 136.862 L
352.131 139.482 L
352.499 142.102 L
352.851 144.722 L
353.187 147.342 L
353.504 149.962 L
353.805 152.582 L
354.087 155.202 L
354.353 157.822 L
354.603 160.442 L
354.839 163.062 L
355.062 165.682 L
355.272 168.302 L
355.471 170.922 L
355.66 173.542 L
355.84 176.162 L
356.01 178.782 L
356.173 181.402 L
356.329 184.022 L
356.478 186.642 L
356.621 189.262 L
356.758 191.882 L
356.89 194.502 L
357.017 197.122 L
357.139 199.742 L
357.258 202.362 L
357.374 204.982 L
357.487 207.602 L
357.596 210.222 L
357.703 212.842 L
357.809 215.462 L
357.91 218.082 L
358.011 220.702 L
358.109 223.322 L
358.205 225.942 L
358.3 228.562 L
358.393 231.182 L
358.484 233.802 L
358.576 236.422 L
358.665 239.042 L
358.753 241.662 L
358.84 244.282 L
358.925 246.902 L
359.01 249.522 L
359.095 252.142 L
359.178 254.762 L
359.26 257.382 L
359.341 260.002 L
359.421 262.622 L
359.5 265.242 L
359.58 267.862 L
359.657 270.482 L
359.734 273.102 L
359.811 275.722 L
359.886 278.342 L
359.961 280.962 L
360.035 283.582 L
360.108 286.202 L
360.18 288.822 L
360.25 291.442 L
360.321 294.062 L
360.391 296.682 L
360.459 299.302 L
360.526 301.922 L
360.593 304.542 L
360.657 307.162 L
360.721 309.782 L
360.784 312.402 L
360.846 315.022 L
360.906 317.642 L
360.96 320.026 L
S
GR
GS
[0.75 0 0 0.75 0 0] CT
1 GC
N
308 155 M
308 70 L
414 70 L
414 155 L
cp
f
GR
GS
[0.75 0 0 0.75 270 64.29626] CT
/Helvetica 22 F
GS
[1 0 0 1 0 0] CT
0 8 moveto 
1 -1 scale
(base) t 
GR
GR
GS
[0.75 0 0 0.75 0 0] CT
0.902 GC
2 setlinecap
10.0 ML
4 LW
N
316 85.728 M
356 85.728 L
S
GR
GS
[0.75 0 0 0.75 270 84.375] CT
/Helvetica 22 F
GS
[1 0 0 1 0 0] CT
0 8 moveto 
1 -1 scale
(AA) t 
GR
GR
GS
[0.75 0 0 0.75 0 0] CT
2 setlinecap
10.0 ML
N
316 112.5 M
356 112.5 L
S
GR
GS
[0.75 0 0 0.75 270 104.45374] CT
/Helvetica 22 F
GS
[1 0 0 1 0 0] CT
0 8 moveto 
1 -1 scale
(STP) t 
GR
GR
GS
[0.75 0 0 0.75 0 0] CT
[10 6] 0 setdash
2 LJ
N
316 139.272 M
356 139.272 L
S
GR
GS
[0.75 0 0 0.75 0 0] CT
0.149 GC
2 setlinecap
10.0 ML
N
308 155 M
308 70 L
414 70 L
414 155 L
308 155 L
S
GR
GS
[0.75 0 0 0.75 0 0] CT
1 GC
N
503 58 M
413 58 L
413 320 L
503 320 L
cp
f
GR
GS
[0.75 0 0 0.75 343.50002 268.34999] CT
0.149 GC
/Helvetica 26 F
GS
[1 0 0 1 0 0] CT
-72 25 moveto 
1 -1 scale
(Oxygen uM) t 
GR
GR
GS
[0.75 0 0 0.75 0 0] CT
0.149 GC
2 setlinecap
10.0 ML
N
413 320 M
503 320 L
S
GR
GS
[0.75 0 0 0.75 0 0] CT
0.149 GC
2 setlinecap
10.0 ML
N
413 320 M
413 317.38 L
S
GR
GS
[0.75 0 0 0.75 0 0] CT
0.149 GC
2 setlinecap
10.0 ML
N
458 320 M
458 317.38 L
S
GR
GS
[0.75 0 0 0.75 0 0] CT
0.149 GC
2 setlinecap
10.0 ML
N
503 320 M
503 317.38 L
S
GR
GS
[0.75 0 0 0.75 309.75 245.60001] CT
0.149 GC
/Helvetica 24 F
GS
[1 0 0 1 0 0] CT
-8 23 moveto 
1 -1 scale
(0) t 
GR
GR
GS
[0.75 0 0 0.75 343.5 245.60001] CT
0.149 GC
/Helvetica 24 F
GS
[1 0 0 1 0 0] CT
-23 23 moveto 
1 -1 scale
(200) t 
GR
GR
GS
[0.75 0 0 0.75 377.25 245.60001] CT
0.149 GC
/Helvetica 24 F
GS
[1 0 0 1 0 0] CT
-23 23 moveto 
1 -1 scale
(400) t 
GR
GR
GS
[0 -0.75 0.75 0 255.39999 141.74991] CT
0.149 GC
/Helvetica 26 F
GS
[1 0 0 1 0 0] CT
-38.5 -6 moveto 
1 -1 scale
(Depth) t 
GR
GR
GS
[0.75 0 0 0.75 0 0] CT
0.149 GC
2 setlinecap
10.0 ML
N
413 58 M
413 320 L
S
GR
GS
[0.75 0 0 0.75 0 0] CT
0.149 GC
2 setlinecap
10.0 ML
N
413 58 M
415.62 58 L
S
GR
GS
[0.75 0 0 0.75 0 0] CT
0.149 GC
2 setlinecap
10.0 ML
N
413 110.4 M
415.62 110.4 L
S
GR
GS
[0.75 0 0 0.75 0 0] CT
0.149 GC
2 setlinecap
10.0 ML
N
413 162.8 M
415.62 162.8 L
S
GR
GS
[0.75 0 0 0.75 0 0] CT
0.149 GC
2 setlinecap
10.0 ML
N
413 215.2 M
415.62 215.2 L
S
GR
GS
[0.75 0 0 0.75 0 0] CT
0.149 GC
2 setlinecap
10.0 ML
N
413 267.6 M
415.62 267.6 L
S
GR
GS
[0.75 0 0 0.75 0 0] CT
0.149 GC
2 setlinecap
10.0 ML
N
413 320 M
415.62 320 L
S
GR
GS
[0.75 0 0 0.75 304.14999 43.5] CT
0.149 GC
/Helvetica 24 F
GS
[1 0 0 1 0 0] CT
-16 8.5 moveto 
1 -1 scale
(0) t 
GR
GR
GS
[0.75 0 0 0.75 304.14999 82.8] CT
0.149 GC
/Helvetica 24 F
GS
[1 0 0 1 0 0] CT
-46 8.5 moveto 
1 -1 scale
(200) t 
GR
GR
GS
[0.75 0 0 0.75 304.14999 122.1] CT
0.149 GC
/Helvetica 24 F
GS
[1 0 0 1 0 0] CT
-46 8.5 moveto 
1 -1 scale
(400) t 
GR
GR
GS
[0.75 0 0 0.75 304.14999 161.4] CT
0.149 GC
/Helvetica 24 F
GS
[1 0 0 1 0 0] CT
-46 8.5 moveto 
1 -1 scale
(600) t 
GR
GR
GS
[0.75 0 0 0.75 304.14999 200.7] CT
0.149 GC
/Helvetica 24 F
GS
[1 0 0 1 0 0] CT
-46 8.5 moveto 
1 -1 scale
(800) t 
GR
GR
GS
[0.75 0 0 0.75 304.14999 240] CT
0.149 GC
/Helvetica 24 F
GS
[1 0 0 1 0 0] CT
-61 8.5 moveto 
1 -1 scale
(1000) t 
GR
GR
GS
[0.75 0 0 0.75 0 0] CT
0.902 GC
2 LJ
4 LW
N
456.792 58.262 M
456.792 60.882 L
456.792 63.502 L
456.792 66.122 L
456.792 68.742 L
456.792 71.362 L
456.792 73.982 L
456.792 76.602 L
456.792 79.222 L
456.792 81.842 L
456.792 84.462 L
456.792 87.082 L
456.792 89.702 L
456.792 92.322 L
456.792 94.942 L
456.792 97.562 L
456.792 100.182 L
456.792 102.802 L
456.792 105.422 L
456.792 108.042 L
456.792 110.662 L
456.792 113.282 L
456.792 115.902 L
456.792 118.522 L
456.792 121.142 L
456.792 123.762 L
456.792 126.382 L
456.792 129.002 L
456.792 131.622 L
456.792 134.242 L
456.792 136.862 L
456.792 139.482 L
456.792 142.102 L
456.792 144.722 L
456.792 147.342 L
456.792 149.962 L
456.792 152.582 L
456.792 155.202 L
456.792 157.822 L
456.792 160.442 L
456.792 163.062 L
456.792 165.682 L
456.792 168.302 L
456.792 170.922 L
456.792 173.542 L
456.792 176.162 L
456.792 178.782 L
456.792 181.402 L
456.792 184.022 L
456.792 186.642 L
S
GR
GS
[0.75 0 0 0.75 0 0] CT
0.902 GC
2 LJ
4 LW
N
456.792 186.642 M
456.792 189.262 L
456.792 191.882 L
456.792 194.502 L
456.792 197.122 L
456.792 199.742 L
456.792 202.362 L
456.792 204.982 L
456.792 207.602 L
456.792 210.222 L
456.792 212.842 L
456.792 215.462 L
456.792 218.082 L
456.792 220.702 L
456.792 223.322 L
456.792 225.942 L
456.792 228.562 L
456.792 231.182 L
456.792 233.802 L
456.792 236.422 L
456.792 239.042 L
456.792 241.662 L
456.792 244.282 L
456.792 246.902 L
456.792 249.522 L
456.792 252.142 L
456.792 254.762 L
456.792 257.382 L
456.792 260.002 L
456.792 262.622 L
456.792 265.242 L
456.792 267.862 L
456.792 270.482 L
456.792 273.102 L
456.792 275.722 L
456.792 278.342 L
456.792 280.962 L
456.792 283.582 L
456.792 286.202 L
456.792 288.822 L
456.792 291.442 L
456.792 294.062 L
456.792 296.682 L
456.792 299.302 L
456.792 301.922 L
456.792 304.542 L
456.792 307.162 L
456.792 309.782 L
456.792 312.402 L
456.792 315.022 L
S
GR
GS
[0.75 0 0 0.75 0 0] CT
0.902 GC
2 LJ
4 LW
N
456.792 315.022 M
456.792 317.642 L
456.792 320.026 L
S
GR
GS
[0.75 0 0 0.75 0 0] CT
[8 3 2 3] 0 setdash
2 LJ
N
462.164 58.262 M
459.753 60.882 L
456.671 63.502 L
453.064 66.122 L
449.075 68.742 L
444.85 71.362 L
440.533 73.982 L
436.269 76.602 L
432.202 79.222 L
428.476 81.842 L
425.227 84.462 L
422.487 87.082 L
420.235 89.702 L
418.45 92.322 L
417.11 94.942 L
416.168 97.562 L
415.546 100.182 L
415.161 102.802 L
414.933 105.422 L
414.78 108.042 L
414.652 110.662 L
414.543 113.282 L
414.451 115.902 L
414.374 118.522 L
414.308 121.142 L
414.252 123.762 L
414.204 126.382 L
414.162 129.002 L
414.123 131.622 L
414.085 134.242 L
414.048 136.862 L
414.008 139.482 L
413.963 142.102 L
413.914 144.722 L
413.862 147.342 L
413.809 149.962 L
413.755 152.582 L
413.703 155.202 L
413.655 157.822 L
413.611 160.442 L
413.574 163.062 L
413.546 165.682 L
413.524 168.302 L
413.51 170.922 L
413.5 173.542 L
413.495 176.162 L
413.494 178.782 L
413.495 181.402 L
413.498 184.022 L
413.502 186.642 L
413.504 189.262 L
413.506 191.882 L
413.506 194.502 L
413.505 197.122 L
413.504 199.742 L
413.502 202.362 L
413.5 204.982 L
413.497 207.602 L
413.495 210.222 L
413.494 212.842 L
413.493 215.462 L
413.493 218.082 L
413.495 220.702 L
413.498 223.322 L
413.503 225.942 L
413.509 228.562 L
413.518 231.182 L
413.529 233.802 L
413.543 236.422 L
413.56 239.042 L
413.579 241.662 L
413.603 244.282 L
413.629 246.902 L
413.659 249.522 L
413.693 252.142 L
413.732 254.762 L
413.774 257.382 L
413.821 260.002 L
413.873 262.622 L
413.928 265.242 L
413.987 267.862 L
414.049 270.482 L
414.114 273.102 L
414.183 275.722 L
414.254 278.342 L
414.327 280.962 L
414.402 283.582 L
414.479 286.202 L
414.558 288.822 L
414.638 291.442 L
414.719 294.062 L
414.801 296.682 L
414.884 299.302 L
414.966 301.922 L
415.05 304.542 L
415.134 307.162 L
415.219 309.782 L
415.306 312.402 L
415.393 315.022 L
415.482 317.642 L
415.565 320.026 L
S
GR
GS
[0.75 0 0 0.75 0 0] CT
2 LJ
N
474.968 58.262 M
475.182 60.882 L
475.076 63.502 L
474.694 66.122 L
474.082 68.742 L
473.286 71.362 L
472.351 73.982 L
471.323 76.602 L
470.248 79.222 L
469.17 81.842 L
468.133 84.462 L
467.153 87.082 L
466.232 89.702 L
465.372 92.322 L
464.574 94.942 L
463.838 97.562 L
463.16 100.182 L
462.536 102.802 L
461.961 105.422 L
461.432 108.042 L
460.944 110.662 L
460.495 113.282 L
460.081 115.902 L
459.699 118.522 L
459.346 121.142 L
459.017 123.762 L
458.711 126.382 L
458.426 129.002 L
458.158 131.622 L
457.906 134.242 L
457.668 136.862 L
457.442 139.482 L
457.225 142.102 L
457.016 144.722 L
456.816 147.342 L
456.625 149.962 L
456.443 152.582 L
456.272 155.202 L
456.11 157.822 L
455.959 160.442 L
455.819 163.062 L
455.689 165.682 L
455.57 168.302 L
455.46 170.922 L
455.358 173.542 L
455.261 176.162 L
455.169 178.782 L
455.082 181.402 L
454.996 184.022 L
454.912 186.642 L
S
GR
GS
[0.75 0 0 0.75 0 0] CT
2 LJ
N
454.912 186.642 M
454.827 189.262 L
454.741 191.882 L
454.653 194.502 L
454.564 197.122 L
454.473 199.742 L
454.38 202.362 L
454.286 204.982 L
454.19 207.602 L
454.093 210.222 L
453.994 212.842 L
453.893 215.462 L
453.79 218.082 L
453.686 220.702 L
453.58 223.322 L
453.473 225.942 L
453.365 228.562 L
453.257 231.182 L
453.148 233.802 L
453.04 236.422 L
452.932 239.042 L
452.826 241.662 L
452.721 244.282 L
452.617 246.902 L
452.516 249.522 L
452.418 252.142 L
452.322 254.762 L
452.23 257.382 L
452.141 260.002 L
452.056 262.622 L
451.975 265.242 L
451.897 267.862 L
451.823 270.482 L
451.753 273.102 L
451.687 275.722 L
451.625 278.342 L
451.566 280.962 L
451.512 283.582 L
451.461 286.202 L
451.415 288.822 L
451.372 291.442 L
451.334 294.062 L
451.299 296.682 L
451.269 299.302 L
451.243 301.922 L
451.221 304.542 L
451.202 307.162 L
451.187 309.782 L
451.176 312.402 L
451.167 315.022 L
S
GR
GS
[0.75 0 0 0.75 0 0] CT
2 LJ
N
451.167 315.022 M
451.16 317.642 L
451.157 320.026 L
S
GR
GS
[0.75 0 0 0.75 0 0] CT
1 GC
N
427 155 M
427 70 L
533 70 L
533 155 L
cp
f
GR
GS
[0.75 0 0 0.75 359.25 64.29626] CT
/Helvetica 22 F
GS
[1 0 0 1 0 0] CT
0 8 moveto 
1 -1 scale
(base) t 
GR
GR
GS
[0.75 0 0 0.75 0 0] CT
0.902 GC
2 setlinecap
10.0 ML
4 LW
N
435 85.728 M
475 85.728 L
S
GR
GS
[0.75 0 0 0.75 359.25 84.375] CT
/Helvetica 22 F
GS
[1 0 0 1 0 0] CT
0 8 moveto 
1 -1 scale
(OMZ) t 
GR
GR
GS
[0.75 0 0 0.75 0 0] CT
[8 3 2 3] 0 setdash
2 LJ
N
435 112.5 M
475 112.5 L
S
GR
GS
[0.75 0 0 0.75 359.25 104.45374] CT
/Helvetica 22 F
GS
[1 0 0 1 0 0] CT
0 8 moveto 
1 -1 scale
(GLO) t 
GR
GR
GS
[0.75 0 0 0.75 0 0] CT
2 setlinecap
10.0 ML
N
435 139.272 M
475 139.272 L
S
GR
GS
[0.75 0 0 0.75 0 0] CT
0.149 GC
2 setlinecap
10.0 ML
N
427 155 M
427 70 L
533 70 L
533 155 L
427 155 L
S
GR
%%Trailer
%%BoundingBox: 53 5 1014 558
%%Pages: 1
%%EOF
