<?xml version="1.0"?>
<!DOCTYPE svg PUBLIC '-//W3C//DTD SVG 1.0//EN'
          'http://www.w3.org/TR/2001/REC-SVG-20010904/DTD/svg10.dtd'>
<svg xmlns:xlink="http://www.w3.org/1999/xlink" style="fill-opacity:1; color-rendering:auto; color-interpolation:auto; stroke:black; text-rendering:auto; stroke-linecap:square; stroke-miterlimit:10; stroke-opacity:1; shape-rendering:auto; fill:black; stroke-dasharray:none; font-weight:normal; stroke-width:1; font-family:'Dialog'; font-style:normal; stroke-linejoin:miter; font-size:12px; stroke-dashoffset:0; image-rendering:auto;" width="1536" height="768" xmlns="http://www.w3.org/2000/svg"
><!--Generated by the Batik Graphics2D SVG Generator--><defs id="genericDefs"
  /><g
  ><defs id="defs1"
    ><clipPath clipPathUnits="userSpaceOnUse" id="clipPath1"
      ><path d="M0 0 L1536 0 L1536 768 L0 768 L0 0 Z"
      /></clipPath
      ><font horiz-adv-x="75.0" id="font1"
      ><font-face ascent="95.01953" descent="21.33789" units-per-em="100" style="font-style:normal; font-family:SansSerif; font-weight:normal;"
        /><missing-glyph horiz-adv-x="75.0" d="M12.5 0 L12.5 62.5 L62.5 62.5 L62.5 0 L12.5 0 ZM15.625 3.125 L59.375 3.125 L59.375 59.375 L15.625 59.375 L15.625 3.125 Z"
        /><glyph unicode=")" horiz-adv-x="32.51953" d="M4.0938 -7.8125 L4.0938 -14.4531 Q14.6406 -7.2812 20.8203 5.0547 Q27 17.3906 27 31.3438 Q27 45.2656 20.8203 57.5938 Q14.6406 69.9219 4.0938 77.0938 L4.0938 70.4531 Q11.2656 62.6406 14.3203 53.6562 Q17.375 44.6719 17.375 31.3438 Q17.375 17.9688 14.3203 8.9844 Q11.2656 0 4.0938 -7.8125 Z"
        /><glyph unicode="(" horiz-adv-x="32.51953" d="M28.9062 -7.8125 L28.9062 -14.4531 Q18.3594 -7.2812 12.1797 5.0547 Q6 17.3906 6 31.3438 Q6 45.2656 12.1797 57.5938 Q18.3594 69.9219 28.9062 77.0938 L28.9062 70.4531 Q21.7344 62.6406 18.6797 53.6562 Q15.625 44.6719 15.625 31.3438 Q15.625 17.9688 18.6797 8.9844 Q21.7344 0 28.9062 -7.8125 Z"
        /><glyph unicode="c" horiz-adv-x="51.220703" d="M30.3281 -1.2188 Q19.5781 -1.2188 12.5 6.7422 Q5.4219 14.7031 5.4219 26.8125 Q5.4219 39.75 12.4297 46.9766 Q19.4375 54.2031 31.9844 54.2031 Q38.1875 54.2031 45.8438 52.4844 L45.8438 44.4375 Q37.7031 46.8281 32.5625 46.8281 Q25.2031 46.8281 20.7344 41.2891 Q16.2656 35.75 16.2656 26.5156 Q16.2656 17.5781 20.8516 12.0625 Q25.4375 6.5469 32.8594 6.5469 Q39.4531 6.5469 46.4375 9.9062 L46.4375 1.6094 Q37.1094 -1.2188 30.3281 -1.2188 Z"
        /><glyph unicode="s" horiz-adv-x="50.976562" d="M23.6875 -1.2188 Q17.0938 -1.2188 7.6719 1.8594 L7.6719 10.6875 Q17.0938 6 24.0781 6 Q28.2188 6 30.9531 8.25 Q33.6875 10.5 33.6875 13.875 Q33.6875 18.7969 26.0312 22.0156 L20.4062 24.4219 Q7.9531 29.5938 7.9531 39.3125 Q7.9531 46.2344 12.8672 50.2188 Q17.7812 54.2031 26.3125 54.2031 Q30.7656 54.2031 37.3125 52.9844 L39.3125 52.5938 L39.3125 44.5781 Q31.25 46.9688 26.5156 46.9688 Q17.2344 46.9688 17.2344 40.2344 Q17.2344 35.8906 24.2656 32.9062 L28.9062 30.9531 Q36.7656 27.6406 40.0391 23.9531 Q43.3125 20.2656 43.3125 14.75 Q43.3125 7.7656 37.7969 3.2734 Q32.2812 -1.2188 23.6875 -1.2188 Z"
        /><glyph unicode="h" horiz-adv-x="62.060547" d="M9.625 0 L9.625 77.0938 L19.2344 77.0938 L19.2344 43.0625 Q26.8594 54.2031 37.8906 54.2031 Q44.7812 54.2031 48.8828 49.8281 Q52.9844 45.4531 52.9844 38.0938 L52.9844 0 L43.3594 0 L43.3594 34.9688 Q43.3594 40.875 41.625 43.3906 Q39.8906 45.9062 35.8906 45.9062 Q27.0469 45.9062 19.2344 34.3281 L19.2344 0 L9.625 0 Z"
        /><glyph unicode="g" horiz-adv-x="62.353516" d="M9.8125 -17.625 L10.9375 -9.2812 Q19.2812 -13.2344 27.3906 -13.2344 Q43.6562 -13.2344 43.6562 4 L43.6562 12.3594 Q38.3281 1.2188 26.1719 1.2188 Q16.6562 1.2188 11.0391 8.1562 Q5.4219 15.0938 5.4219 26.8594 Q5.4219 38.9688 11.8203 46.5859 Q18.2188 54.2031 28.375 54.2031 Q37.25 54.2031 43.6562 46.9688 L43.6562 53.0312 L53.3281 53.0312 L53.3281 14.4531 Q53.3281 2 52.0312 -3.9844 Q50.7344 -9.9688 47.1719 -13.7656 Q40.875 -20.4531 27.5938 -20.4531 Q18.3125 -20.4531 9.8125 -17.625 ZM43.6562 18.3594 L43.6562 40.375 Q37.3125 46.9688 29.8281 46.9688 Q23.1875 46.9688 19.4297 41.6484 Q15.6719 36.3281 15.6719 27.0469 Q15.6719 9.625 27.9375 9.625 Q36.2812 9.625 43.6562 18.3594 Z"
        /><glyph unicode="o" horiz-adv-x="61.42578" d="M30.375 -1.2188 Q19 -1.2188 12.2109 6.3281 Q5.4219 13.875 5.4219 26.5156 Q5.4219 39.3125 12.2344 46.7578 Q19.0469 54.2031 30.7188 54.2031 Q42.3906 54.2031 49.1953 46.7578 Q56 39.3125 56 26.6094 Q56 13.625 49.1641 6.2031 Q42.3281 -1.2188 30.375 -1.2188 ZM30.5156 6 Q45.7969 6 45.7969 26.6094 Q45.7969 46.9688 30.7188 46.9688 Q15.6719 46.9688 15.6719 26.5156 Q15.6719 6 30.5156 6 Z"
        /><glyph unicode="t" horiz-adv-x="37.402344" d="M25.5312 -1.2188 Q18.2188 -1.2188 14.1172 2.9766 Q10.0156 7.1719 10.0156 14.6562 L10.0156 45.7969 L3.375 45.7969 L3.375 53.0312 L10.0156 53.0312 L10.0156 62.6406 L19.625 63.5781 L19.625 53.0312 L33.5 53.0312 L33.5 45.7969 L19.625 45.7969 L19.625 16.4062 Q19.625 6 28.6094 6 Q30.5156 6 33.25 6.6406 L33.25 0 Q28.8125 -1.2188 25.5312 -1.2188 Z"
        /><glyph unicode="z" horiz-adv-x="57.32422" d="M6 0 L6 7.2344 L38.8125 45.7969 L7.5156 45.7969 L7.5156 53.0312 L50.6875 53.0312 L50.6875 45.7969 L17.875 7.2344 L51.3125 7.2344 L51.3125 0 L6 0 Z"
        /><glyph unicode="l" horiz-adv-x="28.90625" d="M9.625 0 L9.625 77.0938 L19.2344 77.0938 L19.2344 0 L9.625 0 Z"
        /><glyph unicode="a" horiz-adv-x="55.22461" d="M36.9688 6.7344 Q28.3281 -1.2188 20.3125 -1.2188 Q13.7188 -1.2188 9.375 2.9062 Q5.0312 7.0312 5.0312 13.3281 Q5.0312 22.0156 12.3281 26.6797 Q19.625 31.3438 33.25 31.3438 L35.5469 31.3438 L35.5469 37.75 Q35.5469 46.9688 26.0781 46.9688 Q18.4531 46.9688 9.625 42.2812 L9.625 50.25 Q19.3438 54.2031 27.8281 54.2031 Q36.7188 54.2031 40.9453 50.1953 Q45.1719 46.1875 45.1719 37.75 L45.1719 13.7188 Q45.1719 5.4688 50.25 5.4688 Q50.875 5.4688 52.0938 5.6719 L52.7812 0.3438 Q49.5156 -1.2188 45.5625 -1.2188 Q38.8125 -1.2188 36.9688 6.7344 ZM35.5469 11.9688 L35.5469 25.6875 L32.3281 25.7812 Q24.4219 25.7812 19.5391 22.7812 Q14.6562 19.7812 14.6562 14.8906 Q14.6562 11.4219 17.0938 9.0312 Q19.5312 6.6406 23.0469 6.6406 Q29.0469 6.6406 35.5469 11.9688 Z"
        /><glyph unicode="r" horiz-adv-x="40.91797" d="M9.625 0 L9.625 53.0312 L19.2344 53.0312 L19.2344 43.0625 Q24.9531 54.2031 35.8438 54.2031 Q37.3125 54.2031 38.9219 53.9531 L38.9219 44.9688 Q36.4219 45.7969 34.5156 45.7969 Q25.3906 45.7969 19.2344 34.9688 L19.2344 0 L9.625 0 Z"
        /><glyph unicode="n" horiz-adv-x="62.060547" d="M9.625 0 L9.625 53.0312 L19.2344 53.0312 L19.2344 43.0625 Q26.8594 54.2031 37.8906 54.2031 Q44.7812 54.2031 48.8828 49.8281 Q52.9844 45.4531 52.9844 38.0938 L52.9844 0 L43.3594 0 L43.3594 34.9688 Q43.3594 40.875 41.625 43.3906 Q39.8906 45.9062 35.8906 45.9062 Q27.0469 45.9062 19.2344 34.3281 L19.2344 0 L9.625 0 Z"
        /><glyph unicode="i" horiz-adv-x="28.90625" d="M9.625 0 L9.625 53.0312 L19.2344 53.0312 L19.2344 0 L9.625 0 ZM9.625 62.6406 L9.625 72.2656 L19.2344 72.2656 L19.2344 62.6406 L9.625 62.6406 Z"
        /><glyph unicode="m" horiz-adv-x="93.359375" d="M9.625 0 L9.625 53.0312 L19.2344 53.0312 L19.2344 43.0625 Q26.2656 54.2031 37.3125 54.2031 Q47.9531 54.2031 51.8125 43.0625 Q58.6406 54.25 69.5781 54.25 Q76.6094 54.25 80.4688 50.125 Q84.3281 46 84.3281 38.5781 L84.3281 0 L74.6562 0 L74.6562 37.0625 Q74.6562 46.1406 67.4844 46.1406 Q60.0156 46.1406 51.8125 35.5469 L51.8125 0 L42.1406 0 L42.1406 37.0625 Q42.1406 46.1875 34.8125 46.1875 Q27.5469 46.1875 19.2344 35.5469 L19.2344 0 L9.625 0 Z"
        /><glyph unicode="e" horiz-adv-x="55.71289" d="M48.4844 1.7031 Q38.8125 -1.2188 31.9375 -1.2188 Q20.2188 -1.2188 12.8203 6.5703 Q5.4219 14.3594 5.4219 26.7656 Q5.4219 38.8125 11.9375 46.5312 Q18.4531 54.25 28.6094 54.25 Q38.2344 54.25 43.4844 47.4141 Q48.7344 40.5781 48.7344 27.9844 L48.6875 25 L15.2344 25 Q17.3281 6.1094 33.7344 6.1094 Q39.75 6.1094 48.4844 9.3281 L48.4844 1.7031 ZM15.6719 32.2344 L39.0625 32.2344 Q39.0625 47.0156 28.0312 47.0156 Q16.9375 47.0156 15.6719 32.2344 Z"
        /><glyph unicode="R" horiz-adv-x="63.23242" d="M9.3281 0 L9.3281 72.2656 L31.2031 72.2656 Q41.6094 72.2656 47.1484 67.6797 Q52.6875 63.0938 52.6875 54.3438 Q52.6875 39.8906 38.0938 33.8438 L62.2031 0 L49.6094 0 L29.0469 30.5625 L19.4844 30.5625 L19.4844 0 L9.3281 0 ZM19.4844 38.2344 L22.7969 38.2344 Q42.1406 38.2344 42.1406 53.4219 Q42.1406 64.5938 25.9219 64.5938 L19.4844 64.5938 L19.4844 38.2344 Z"
        /><glyph unicode=" " horiz-adv-x="31.640625" d=""
        /><glyph unicode="0" horiz-adv-x="63.23242" d="M31.3438 -1.8125 Q20.1719 -1.8125 13.2578 8.7109 Q6.3438 19.2344 6.3438 36.1875 Q6.3438 53.2656 13.3047 63.6719 Q20.2656 74.0781 31.6406 74.0781 Q43.0156 74.0781 49.9766 63.6719 Q56.9375 53.2656 56.9375 36.3281 Q56.9375 18.9531 49.9766 8.5703 Q43.0156 -1.8125 31.3438 -1.8125 ZM31.4531 5.4219 Q46.7344 5.4219 46.7344 36.4688 Q46.7344 66.8438 31.6406 66.8438 Q16.6094 66.8438 16.6094 36.1875 Q16.6094 5.4219 31.4531 5.4219 Z"
        /><glyph unicode="1" horiz-adv-x="63.23242" d="M15.0469 0 L15.0469 7.2344 L29.5 7.2344 L29.5 64.2656 L15.0469 60.6406 L15.0469 68.0625 L39.1562 74.0781 L39.1562 7.2344 L53.6094 7.2344 L53.6094 0 L15.0469 0 Z"
        /><glyph unicode="2" horiz-adv-x="63.23242" d="M8.2969 0 L8.2969 8.4531 Q12.5 18.2656 25.2969 29.8281 L30.8125 34.7656 Q41.4531 44.3906 41.4531 53.8594 Q41.4531 59.9062 37.8203 63.375 Q34.1875 66.8438 27.8281 66.8438 Q20.3125 66.8438 10.1094 61.0312 L10.1094 69.5312 Q19.7344 74.0781 29.2031 74.0781 Q39.3594 74.0781 45.5078 68.6094 Q51.6562 63.1406 51.6562 54.1094 Q51.6562 47.6094 48.5547 42.5781 Q45.4531 37.5469 37.0156 30.375 L33.2969 27.2031 Q21.7344 17.3906 19.9219 8.4531 L51.3125 8.4531 L51.3125 0 L8.2969 0 Z"
        /><glyph unicode="3" horiz-adv-x="63.23242" d="M10.1562 0.5312 L10.1562 9.5156 Q20.5156 5.4219 26.4688 5.4219 Q33.3438 5.4219 37.6719 9.4531 Q42 13.4844 42 19.875 Q42 35.1094 20.6562 35.1094 L16.8438 35.1094 L16.8438 41.6094 L20.2188 41.6562 Q40.2344 41.6562 40.2344 55.7656 Q40.2344 66.8438 27.0469 66.8438 Q19.8281 66.8438 11.1406 62.7969 L11.1406 71.1875 Q19.6719 74.0781 27.7344 74.0781 Q49.9062 74.0781 49.9062 57.3281 Q49.9062 44.5781 34.8125 39.1562 Q52.2969 35.1094 52.2969 20.0156 Q52.2969 9.8125 45.5547 4 Q38.8125 -1.8125 27.0469 -1.8125 Q20.3594 -1.8125 10.1562 0.5312 Z"
        /><glyph unicode="d" horiz-adv-x="62.939453" d="M43.6562 0 L43.6562 9.9688 Q37.7969 -1.2188 25.9844 -1.2188 Q16.4062 -1.2188 10.9141 5.7656 Q5.4219 12.75 5.4219 24.8594 Q5.4219 38.0938 11.6484 46.1484 Q17.875 54.2031 28.0312 54.2031 Q37.4531 54.2031 43.6562 46.9688 L43.6562 77.0938 L53.3281 77.0938 L53.3281 0 L43.6562 0 ZM43.6562 40.375 Q36.1875 46.9688 29.5 46.9688 Q15.6719 46.9688 15.6719 25.8281 Q15.6719 7.2344 27.9844 7.2344 Q35.9844 7.2344 43.6562 15.9688 L43.6562 40.375 Z"
        /><glyph unicode="u" horiz-adv-x="62.060547" d="M42.7812 0 L42.7812 9.9688 Q35.1094 -1.2188 24.1719 -1.2188 Q17.2344 -1.2188 13.1328 3.1484 Q9.0312 7.5156 9.0312 14.9375 L9.0312 53.0312 L18.6562 53.0312 L18.6562 18.0625 Q18.6562 12.1094 20.3906 9.5938 Q22.125 7.0781 26.1719 7.0781 Q34.9688 7.0781 42.7812 18.6562 L42.7812 53.0312 L52.3906 53.0312 L52.3906 0 L42.7812 0 Z"
        /><glyph unicode="L" horiz-adv-x="53.320312" d="M9.3281 0 L9.3281 72.2656 L19.5781 72.2656 L19.5781 7.6719 L52.0938 7.6719 L52.0938 0 L9.3281 0 Z"
        /><glyph unicode="8" horiz-adv-x="63.23242" d="M23 39.3594 Q12.4062 46.7344 12.4062 55.6719 Q12.4062 63.875 18.4141 69 Q24.4219 74.125 34.0781 74.125 Q43.0156 74.125 48.5625 69.7812 Q54.1094 65.4375 54.1094 58.5 Q54.1094 48 40.625 39.3594 Q56.9844 31.3438 56.9844 18.7031 Q56.9844 9.625 50.125 3.9062 Q43.2656 -1.8125 32.4219 -1.8125 Q21.7812 -1.8125 15.2109 3.5859 Q8.6406 8.9844 8.6406 17.7812 Q8.6406 30.7656 23 39.3594 ZM35.25 42.3906 Q45.3594 49.0312 45.3594 57.1719 Q45.3594 61.5312 41.9922 64.1875 Q38.625 66.8438 33.1094 66.8438 Q27.7812 66.8438 24.4609 64.2344 Q21.1406 61.625 21.1406 57.4688 Q21.1406 53.4219 24.1484 50.2188 Q27.1562 47.0156 35.25 42.3906 ZM28.2188 35.4531 Q22.4062 30.9531 20.3359 27.6094 Q18.2656 24.2656 18.2656 19.2812 Q18.2656 13.0938 22.2656 9.2578 Q26.2656 5.4219 32.8125 5.4219 Q39.1094 5.4219 43.0938 8.6953 Q47.0781 11.9688 47.0781 17.1875 Q47.0781 21.3906 44.6094 24.2969 Q42.1406 27.2031 35.0625 31.3906 L28.2188 35.4531 Z"
        /><glyph unicode="-" horiz-adv-x="57.86133" d="M7.2344 25.2969 L7.2344 32.5156 L50.5938 32.5156 L50.5938 25.2969 L7.2344 25.2969 Z"
        /><glyph unicode="6" horiz-adv-x="63.23242" d="M17.1875 37.4531 Q24.0781 46.3906 34.5156 46.3906 Q44 46.3906 50.0312 40.1172 Q56.0625 33.8438 56.0625 24.0312 Q56.0625 12.75 49.2969 5.4688 Q42.5312 -1.8125 32.125 -1.8125 Q20.1719 -1.8125 13.4297 7.8125 Q6.6875 17.4375 6.6875 34.5156 Q6.6875 53.3281 14.4297 63.7266 Q22.1719 74.125 36.2344 74.125 Q42.6719 74.125 52.3438 71.3906 L52.3438 62.9844 Q42.1406 66.8906 35.6406 66.8906 Q17.1875 66.8906 17.1875 37.4531 ZM46.3906 21.875 Q46.3906 30.0781 42.7031 34.7656 Q39.0156 39.4531 32.4688 39.4531 Q26.375 39.4531 21.9766 35.3516 Q17.5781 31.25 17.5781 25.4844 Q17.5781 16.4062 21.75 10.9141 Q25.9219 5.4219 32.8125 5.4219 Q39.0156 5.4219 42.7031 9.8906 Q46.3906 14.3594 46.3906 21.875 Z"
        /><glyph unicode="4" horiz-adv-x="63.23242" d="M37.6406 0 L37.6406 20.4531 L5.125 20.4531 L5.125 27.7344 L37.6406 72.2656 L46.6875 72.2656 L46.6875 28.3281 L56.3438 28.3281 L56.3438 20.4531 L46.6875 20.4531 L46.6875 0 L37.6406 0 ZM14.5469 28.3281 L38.2812 28.3281 L38.2812 60.4531 L14.5469 28.3281 Z"
        /><glyph unicode="p" horiz-adv-x="62.939453" d="M9.625 -19.2812 L9.625 53.0312 L19.2344 53.0312 L19.2344 43.0625 Q25.1406 54.2031 36.9688 54.2031 Q46.5312 54.2031 52.0234 47.2188 Q57.5156 40.2344 57.5156 28.125 Q57.5156 14.9375 51.2891 6.8594 Q45.0625 -1.2188 34.9062 -1.2188 Q25.4844 -1.2188 19.2344 6 L19.2344 -19.2812 L9.625 -19.2812 ZM19.2344 12.6406 Q26.6562 6 33.4062 6 Q47.2656 6 47.2656 27.1562 Q47.2656 45.7969 34.9688 45.7969 Q26.9062 45.7969 19.2344 37.0625 L19.2344 12.6406 Z"
        /><glyph unicode="T" horiz-adv-x="63.23242" d="M26.5156 0 L26.5156 64.5938 L0.875 64.5938 L0.875 72.2656 L62.4062 72.2656 L62.4062 64.5938 L36.7656 64.5938 L36.7656 0 L26.5156 0 Z"
        /><glyph unicode="y" horiz-adv-x="52.246094" d="M12.7031 -19.2812 L21.2969 0 L0.7812 53.0312 L11.1875 53.0312 L26.375 13.0938 L42.5781 53.0312 L51.6562 53.0312 L22.7031 -19.2812 L12.7031 -19.2812 Z"
        /><glyph unicode="x" horiz-adv-x="61.328125" d="M4.2969 0 L24.4688 27.3906 L4.8906 53.0312 L16.3125 53.0312 L31.7812 32.625 L45.7969 53.0312 L55.1719 53.0312 L36.8125 26.125 L56.7812 0 L45.3594 0 L29.3906 21 L13.9688 0 L4.2969 0 Z"
        /><glyph unicode="O" horiz-adv-x="77.68555" d="M38.4219 -1.8125 Q23.3906 -1.8125 14.2344 8.6172 Q5.0781 19.0469 5.0781 36.1875 Q5.0781 53.4219 14.2812 63.75 Q23.4844 74.0781 38.875 74.0781 Q54.2031 74.0781 63.4297 63.7734 Q72.6562 53.4688 72.6562 36.2812 Q72.6562 18.75 63.4297 8.4688 Q54.2031 -1.8125 38.4219 -1.8125 ZM38.5781 5.8594 Q49.6562 5.8594 55.7109 13.8438 Q61.7656 21.8281 61.7656 36.375 Q61.7656 50.4844 55.6875 58.4453 Q49.6094 66.4062 38.875 66.4062 Q28.0781 66.4062 22.0234 58.4219 Q15.9688 50.4375 15.9688 36.2344 Q15.9688 22.0781 21.9766 13.9688 Q27.9844 5.8594 38.5781 5.8594 Z"
        /><glyph unicode="V" horiz-adv-x="65.38086" d="M29.0469 0 L1.7656 72.2656 L12.0156 72.2656 L34.375 13.0938 L55.9531 72.2656 L64.9375 72.2656 L38.7188 0 L29.0469 0 Z"
        /><glyph unicode="D" horiz-adv-x="74.90234" d="M9.3281 0 L9.3281 72.2656 L33.3438 72.2656 Q44.0938 72.2656 50.7109 69.875 Q57.3281 67.4844 62.1562 61.7656 Q69.8281 52.6875 69.8281 37.8438 Q69.8281 19.8281 60.3047 9.9141 Q50.7812 0 33.5 0 L9.3281 0 ZM19.5781 7.6719 L32.7188 7.6719 Q46.7812 7.6719 52.6406 15.2344 Q58.9375 23.2969 58.9375 36.8594 Q58.9375 49.6094 52.7344 56.8906 Q48.9688 61.3281 43.75 62.9609 Q38.5312 64.5938 28.0312 64.5938 L19.5781 64.5938 L19.5781 7.6719 Z"
        /><glyph unicode="S" horiz-adv-x="53.85742" d="M23.4844 -1.8125 Q16.2188 -1.8125 4.8906 1.375 L4.8906 11.5312 Q17.0938 5.8594 24.9531 5.8594 Q31 5.8594 34.6875 9.0312 Q38.375 12.2031 38.375 17.3906 Q38.375 21.625 35.9609 24.6094 Q33.5469 27.5938 27.0469 31.25 L22.0781 34.125 Q12.8438 39.4062 9.0625 44.0703 Q5.2812 48.7344 5.2812 54.9375 Q5.2812 63.2812 11.3359 68.6797 Q17.3906 74.0781 26.7656 74.0781 Q35.1094 74.0781 44.3906 71.2969 L44.3906 61.9219 Q32.9531 66.4062 27.3438 66.4062 Q22.0156 66.4062 18.5547 63.5781 Q15.0938 60.75 15.0938 56.4531 Q15.0938 52.8281 17.6328 50.0469 Q20.1719 47.2656 26.9062 43.4062 L32.0781 40.4844 Q41.4531 35.1562 45.1641 30.4219 Q48.875 25.6875 48.875 19.0469 Q48.875 9.625 41.9219 3.9062 Q34.9688 -1.8125 23.4844 -1.8125 Z"
        /><glyph unicode="B" horiz-adv-x="57.51953" d="M9.3281 0 L9.3281 72.2656 L28.0781 72.2656 Q38.9219 72.2656 44.7031 68.1641 Q50.4844 64.0625 50.4844 56.3438 Q50.4844 43.2188 35.6406 37.6406 Q53.375 32.2344 53.375 18.0625 Q53.375 9.2812 47.5156 4.6406 Q41.6562 0 30.6094 0 L9.3281 0 ZM19.4844 7.6719 L21.5781 7.6719 Q32.8594 7.6719 36.1875 9.0781 Q42.5312 11.7656 42.5312 19.0469 Q42.5312 25.4844 36.7656 29.7578 Q31 34.0312 22.3594 34.0312 L19.4844 34.0312 L19.4844 7.6719 ZM19.4844 40.5312 L22.75 40.5312 Q30.9531 40.5312 35.4688 44.0469 Q39.9844 47.5625 39.9844 53.9531 Q39.9844 64.5938 23.4844 64.5938 L19.4844 64.5938 L19.4844 40.5312 Z"
        /><glyph unicode="C" horiz-adv-x="69.18945" d="M40.2812 -1.8125 Q23.4375 -1.8125 14.2578 8.0781 Q5.0781 17.9688 5.0781 36.0781 Q5.0781 54.1562 14.4297 64.1172 Q23.7812 74.0781 40.7656 74.0781 Q50.4844 74.0781 63.5312 70.9062 L63.5312 61.2812 Q48.6875 66.4062 40.625 66.4062 Q28.8594 66.4062 22.4141 58.4453 Q15.9688 50.4844 15.9688 35.9844 Q15.9688 22.1719 22.8516 14.1875 Q29.7344 6.2031 41.6562 6.2031 Q51.9062 6.2031 63.625 12.5 L63.625 3.7188 Q52.9375 -1.8125 40.2812 -1.8125 Z"
      /></font
      ><font horiz-adv-x="75.0" id="font2"
      ><font-face ascent="95.26367" descent="21.09375" units-per-em="100" style="font-style:normal; font-family:SansSerif; font-weight:bold;"
        /><missing-glyph horiz-adv-x="75.0" d="M12.5 0 L12.5 62.5 L62.5 62.5 L62.5 0 L12.5 0 ZM15.625 3.125 L59.375 3.125 L59.375 59.375 L15.625 59.375 L15.625 3.125 Z"
        /><glyph unicode="s" horiz-adv-x="56.54297" d="M7.625 1.7031 L7.625 12.3125 Q18.3594 7.8125 25.9844 7.8125 Q34.8594 7.8125 34.8594 13.875 Q34.8594 17.7812 27.5469 20.7031 L22.6562 22.6562 Q14.7031 25.875 11.2812 29.5859 Q7.8594 33.2969 7.8594 38.7656 Q7.8594 46.3906 13.6719 50.6094 Q19.4844 54.8281 29.9375 54.8281 Q36.4688 54.8281 45.5156 52.9375 L45.5156 42.7812 Q36.8125 45.7969 31.1094 45.7969 Q22.125 45.7969 22.125 40.2344 Q22.125 36.5781 28.7656 34.0312 L32.9531 32.4219 Q42.3906 28.8594 46.0703 25.1953 Q49.75 21.5312 49.75 15.7656 Q49.75 8.2031 43.4766 3.4922 Q37.2031 -1.2188 27.1562 -1.2188 Q17.4844 -1.2188 7.625 1.7031 Z"
        /><glyph unicode="c" horiz-adv-x="53.222656" d="M48.5781 1.1719 Q39.5938 -1.2188 31.9375 -1.2188 Q19.0938 -1.2188 11.6484 6.3281 Q4.2031 13.875 4.2031 26.8594 Q4.2031 39.9844 11.8672 47.4062 Q19.5312 54.8281 33.0625 54.8281 Q39.5938 54.8281 48.1406 52.7344 L48.1406 42.2812 Q39.2656 45.1719 33.9375 45.1719 Q27.4375 45.1719 23.4844 40.1875 Q19.5312 35.2031 19.5312 26.9531 Q19.5312 18.5 23.8047 13.4219 Q28.0781 8.3438 35.2031 8.3438 Q41.7031 8.3438 48.5781 11.1875 L48.5781 1.1719 Z"
        /><glyph unicode="f" horiz-adv-x="41.45508" d="M10.5469 0 L10.5469 44.5781 L3.1719 44.5781 L3.1719 53.6094 L10.5469 53.6094 L10.5469 57.4688 Q10.5469 78.3281 30.3281 78.3281 Q36.7188 78.3281 43.5 76.4688 L43.5 66.7031 Q37.3594 69.2812 32.4688 69.2812 Q25 69.2812 25 58.0156 L25 53.6094 L38.5781 53.6094 L38.5781 44.5781 L25 44.5781 L25 0 L10.5469 0 Z"
        /><glyph unicode="E" horiz-adv-x="60.058594" d="M9.0312 0 L9.0312 72.2656 L54.2031 72.2656 L54.2031 62.3594 L24.0781 62.3594 L24.0781 42.1875 L48.7812 42.1875 L48.7812 32.5156 L24.0781 32.5156 L24.0781 10.25 L56.5 10.25 L56.5 0 L9.0312 0 Z"
        /><glyph unicode=" " horiz-adv-x="32.958984" d=""
        /><glyph unicode="o" horiz-adv-x="63.867188" d="M31.5469 -1.2188 Q19 -1.2188 11.6016 6.375 Q4.2031 13.9688 4.2031 26.8125 Q4.2031 39.7969 11.6484 47.3125 Q19.0938 54.8281 31.8906 54.8281 Q44.7344 54.8281 52.1797 47.3125 Q59.625 39.7969 59.625 26.9062 Q59.625 13.7188 52.1484 6.25 Q44.6719 -1.2188 31.5469 -1.2188 ZM31.7812 7.8125 Q44.2344 7.8125 44.2344 26.9062 Q44.2344 35.6406 40.9375 40.7188 Q37.6406 45.7969 31.8906 45.7969 Q26.1719 45.7969 22.875 40.7188 Q19.5781 35.6406 19.5781 26.8125 Q19.5781 18.0625 22.8516 12.9375 Q26.125 7.8125 31.7812 7.8125 Z"
        /><glyph unicode="t" horiz-adv-x="40.527344" d="M36.6719 0.2969 Q31.5 -1.2188 28.5156 -1.2188 Q9.7188 -1.2188 9.7188 16.3594 L9.7188 44.5781 L3.7188 44.5781 L3.7188 53.6094 L9.7188 53.6094 L9.7188 62.6406 L24.1719 64.3125 L24.1719 53.6094 L35.6406 53.6094 L35.6406 44.5781 L24.1719 44.5781 L24.1719 18.2656 Q24.1719 8.4062 32.2344 8.4062 Q34.0781 8.4062 36.6719 9.0781 L36.6719 0.2969 Z"
        /><glyph unicode="z" horiz-adv-x="59.08203" d="M6 0 L6 9.625 L35.9844 44.5781 L7.375 44.5781 L7.375 53.6094 L53.0781 53.6094 L53.0781 44.5781 L23.0938 9.625 L53.6562 9.625 L53.6562 0 L6 0 Z"
        /><glyph unicode="l" horiz-adv-x="32.51953" d="M9.0312 0 L9.0312 77.0938 L23.4844 77.0938 L23.4844 0 L9.0312 0 Z"
        /><glyph unicode="a" horiz-adv-x="58.789062" d="M35.2969 5.7656 Q28.0781 -1.2188 19.8281 -1.2188 Q12.7969 -1.2188 8.3984 3.0781 Q4 7.375 4 14.2031 Q4 23.0938 11.1094 27.9062 Q18.2188 32.7188 31.4531 32.7188 L35.2969 32.7188 L35.2969 37.5938 Q35.2969 45.9531 25.7812 45.9531 Q17.3281 45.9531 8.6875 41.1562 L8.6875 51.125 Q18.5 54.8281 28.125 54.8281 Q49.1719 54.8281 49.1719 38.0938 L49.1719 14.3594 Q49.1719 8.0625 53.2188 8.0625 Q53.9531 8.0625 55.125 8.25 L55.4688 0.1406 Q50.875 -1.2188 47.3594 -1.2188 Q38.4844 -1.2188 35.9375 5.7656 L35.2969 5.7656 ZM35.2969 13.5312 L35.2969 24.4219 L31.8906 24.4219 Q17.875 24.4219 17.875 15.625 Q17.875 12.6406 19.8984 10.6172 Q21.9219 8.5938 24.9062 8.5938 Q29.9844 8.5938 35.2969 13.5312 Z"
        /><glyph unicode="r" horiz-adv-x="45.458984" d="M9.0312 0 L9.0312 53.6094 L23.4844 53.6094 L23.4844 43.5 Q29.1094 54.8281 40.5781 54.8281 Q41.9375 54.8281 43.2656 54.5469 L43.2656 41.6562 Q40.1875 42.7812 37.5469 42.7812 Q28.9062 42.7812 23.4844 34.0312 L23.4844 0 L9.0312 0 Z"
        /><glyph unicode="n" horiz-adv-x="65.67383" d="M9.0312 0 L9.0312 53.6094 L23.4844 53.6094 L23.4844 43.5 Q30.5625 54.8281 41.75 54.8281 Q48.9219 54.8281 53.0781 50.2891 Q57.2344 45.75 57.2344 37.8906 L57.2344 0 L42.7812 0 L42.7812 34.3281 Q42.7812 43.4531 36.7188 43.4531 Q29.8281 43.4531 23.4844 33.7344 L23.4844 0 L9.0312 0 Z"
        /><glyph unicode="i" horiz-adv-x="32.51953" d="M9.0312 0 L9.0312 53.6094 L23.4844 53.6094 L23.4844 0 L9.0312 0 ZM9.0312 62.6406 L9.0312 74.7031 L23.4844 74.7031 L23.4844 62.6406 L9.0312 62.6406 Z"
        /><glyph unicode="m" horiz-adv-x="96.97266" d="M9.0312 0 L9.0312 53.6094 L22.9062 53.6094 L22.9062 43.5 Q29.25 54.8281 40.9688 54.8281 Q47.0156 54.8281 50.9219 51.8516 Q54.8281 48.875 55.7188 43.5 Q63.2344 54.8281 73.875 54.8281 Q88.5781 54.8281 88.5781 38.625 L88.5781 0 L74.7031 0 L74.7031 33.8906 Q74.7031 43.4062 68.3594 43.4062 Q61.8594 43.4062 55.7188 34.0312 L55.7188 0 L41.8438 0 L41.8438 33.8906 Q41.8438 43.4531 35.4531 43.4531 Q29.0469 43.4531 22.9062 34.0312 L22.9062 0 L9.0312 0 Z"
        /><glyph unicode="e" horiz-adv-x="58.59375" d="M52.6875 1.8125 Q42.3906 -1.2188 33.1562 -1.2188 Q19.7344 -1.2188 11.9688 6.3984 Q4.2031 14.0156 4.2031 27.2031 Q4.2031 39.6562 11.3047 47.2422 Q18.4062 54.8281 30.0781 54.8281 Q41.8438 54.8281 47.2656 47.4062 Q52.6875 39.9844 52.6875 23.9219 L19.4375 23.9219 Q20.9062 8.5938 36.2812 8.5938 Q43.5625 8.5938 52.6875 11.9688 L52.6875 1.8125 ZM19.2344 32.0781 L38.4844 32.0781 Q38.4844 45.7969 29.6406 45.7969 Q20.6562 45.7969 19.2344 32.0781 Z"
        /><glyph unicode="R" horiz-adv-x="68.99414" d="M9.0312 0 L9.0312 72.2656 L36.0781 72.2656 Q58.1094 72.2656 58.1094 54.3438 Q58.1094 47.6562 54.375 42.1641 Q50.6406 36.6719 44.0938 33.7344 L67.7188 0 L49.4219 0 L31.5 29.5469 L23.1875 29.5469 L23.1875 0 L9.0312 0 ZM23.1875 39.4531 L26.6562 39.4531 Q43.0156 39.4531 43.0156 52.6875 Q43.0156 62.3594 28.4219 62.3594 L23.1875 62.3594 L23.1875 39.4531 Z"
        /><glyph unicode="d" horiz-adv-x="66.259766" d="M42.7812 0 L42.7812 10.1094 Q37.2031 -1.2188 25.25 -1.2188 Q15.5781 -1.2188 10.0625 5.8594 Q4.5469 12.9375 4.5469 25.3438 Q4.5469 38.8125 10.7734 46.8203 Q17 54.8281 27.4844 54.8281 Q35.8906 54.8281 42.7812 48.1875 L42.7812 77.0938 L57.2812 77.0938 L57.2812 0 L42.7812 0 ZM42.7812 39.5938 Q37.5469 45.4531 31.5938 45.4531 Q26.2656 45.4531 23.0938 40.3281 Q19.9219 35.2031 19.9219 26.5625 Q19.9219 10.1094 30.4688 10.1094 Q36.9219 10.1094 42.7812 18.3594 L42.7812 39.5938 Z"
        /><glyph unicode="p" horiz-adv-x="66.259766" d="M9.0312 -19.2812 L9.0312 53.6094 L23.4844 53.6094 L23.4844 43.5 Q29.0469 54.8281 41.0156 54.8281 Q50.6875 54.8281 56.2266 47.75 Q61.7656 40.6719 61.7656 28.2656 Q61.7656 14.7969 55.5156 6.7891 Q49.2656 -1.2188 38.7656 -1.2188 Q30.3281 -1.2188 23.4844 5.4219 L23.4844 -19.2812 L9.0312 -19.2812 ZM23.4844 14.0156 Q28.7656 8.1562 34.7188 8.1562 Q40.0469 8.1562 43.2188 13.3047 Q46.3906 18.4531 46.3906 27.0469 Q46.3906 43.5 35.7969 43.5 Q29.3906 43.5 23.4844 35.25 L23.4844 14.0156 Z"
        /><glyph unicode="g" horiz-adv-x="65.9668" d="M9.4219 -16.6562 L10.5938 -6.1562 Q19.5312 -10.25 27.6406 -10.25 Q35.6406 -10.25 39.2109 -6.8359 Q42.7812 -3.4219 42.7812 4.25 L42.7812 11.5781 Q37.5 0 25.3438 0 Q15.7656 0 10.1562 7.1562 Q4.5469 14.3125 4.5469 26.5156 Q4.5469 39.3594 10.8438 47.0938 Q17.1406 54.8281 27.5938 54.8281 Q35.7969 54.8281 42.7812 48.1875 L44.2812 53.6094 L57.2812 53.6094 L57.2812 12.7031 Q57.2812 0.4375 55.7891 -4.9844 Q54.2969 -10.4062 50 -14.2031 Q42.7812 -20.4531 29.6406 -20.4531 Q20.3125 -20.4531 9.4219 -16.6562 ZM42.7812 19.9688 L42.7812 39.75 Q37.5469 45.6562 31.8438 45.6562 Q26.375 45.6562 23.1484 40.6719 Q19.9219 35.6875 19.9219 27.2969 Q19.9219 11.5781 30.0312 11.5781 Q37.0156 11.5781 42.7812 19.9688 Z"
        /><glyph unicode="k" horiz-adv-x="63.28125" d="M9.0312 0 L9.0312 77.0938 L23.4844 77.0938 L23.4844 28.6094 L24.4219 28.6094 L43.5 53.6094 L55.5156 53.6094 L37.8906 30.6719 L61.0312 0 L43.4531 0 L24.4219 26.8125 L23.4844 26.8125 L23.4844 0 L9.0312 0 Z"
        /><glyph unicode="S" horiz-adv-x="57.128906" d="M4.9844 0.6406 L4.9844 13.0312 Q16.6562 8.1562 24.9531 8.1562 Q30.7656 8.1562 34.1094 10.7422 Q37.4531 13.3281 37.4531 17.7812 Q37.4531 21.2969 35.3516 23.7109 Q33.25 26.125 27.3906 29.4375 L22.5625 32.125 Q12.8438 37.5938 8.8359 42.6016 Q4.8281 47.6094 4.8281 54.2969 Q4.8281 63.2344 11.3984 68.6562 Q17.9688 74.0781 28.7656 74.0781 Q37.4062 74.0781 48.25 71.5781 L48.25 60.0156 Q37.1562 64.1562 30.7188 64.1562 Q25.7344 64.1562 22.7344 61.9375 Q19.7344 59.7188 19.7344 56.1094 Q19.7344 53.125 21.8281 50.8828 Q23.9219 48.6406 29.7344 45.3594 L34.9062 42.4844 Q45.3594 36.625 49.3125 31.6953 Q53.2656 26.7656 53.2656 19.6719 Q53.2656 9.625 45.7969 3.9062 Q38.3281 -1.8125 25.2031 -1.8125 Q16.5 -1.8125 4.9844 0.6406 Z"
        /><glyph unicode="B" horiz-adv-x="62.98828" d="M9.0312 0 L9.0312 72.2656 L33.5938 72.2656 Q44.4844 72.2656 50.1719 68.1641 Q55.8594 64.0625 55.8594 56.2031 Q55.8594 43.1719 38.5312 37.75 Q58.7969 32.8125 58.7969 17.875 Q58.7969 9.2344 52.8594 4.6172 Q46.9219 0 35.8438 0 L9.0312 0 ZM23.1875 42.1875 L26.7656 42.1875 Q33.1094 42.1875 36.8438 45.3125 Q40.5781 48.4375 40.5781 53.8125 Q40.5781 58.7969 37.5781 60.5781 Q34.5781 62.3594 26.2188 62.3594 L23.1875 62.3594 L23.1875 42.1875 ZM23.1875 10.25 L26.4219 10.25 Q35.8906 10.25 39.4766 12.2812 Q43.0625 14.3125 43.0625 19.6719 Q43.0625 25.2031 38.2578 28.8594 Q33.4531 32.5156 26.125 32.5156 L23.1875 32.5156 L23.1875 10.25 Z"
        /><glyph unicode="," horiz-adv-x="24.707031" d="M10.5469 0 L4.5469 0 L4.5469 15.6719 L20.2188 15.6719 L20.2188 3.5156 Q20.2188 -15.6719 4.5469 -15.6719 L4.5469 -10.25 Q10.5469 -10.25 10.5469 -1.5625 L10.5469 0 Z"
      /></font
    ></defs
    ><g style="fill:white; stroke:white;"
    ><rect x="0" y="0" width="1536" style="clip-path:url(#clipPath1); stroke:none;" height="768"
    /></g
    ><g style="fill:white; text-rendering:optimizeSpeed; color-rendering:optimizeSpeed; image-rendering:optimizeSpeed; shape-rendering:crispEdges; color-interpolation:sRGB; stroke:white;"
    ><rect x="0" width="1536" height="768" y="0" style="stroke:none;"
      /><path style="stroke:none;" d="M200 684 L528 684 L528 58 L200 58 Z"
    /></g
    ><g style="fill:rgb(38,38,38); text-rendering:geometricPrecision; color-interpolation:linearRGB; color-rendering:optimizeQuality; image-rendering:optimizeQuality; stroke:rgb(38,38,38);"
    ><line y2="680.87" style="fill:none;" x1="222.4682" x2="222.4682" y1="684"
      /><line y2="680.87" style="fill:none;" x1="239.8958" x2="239.8958" y1="684"
      /><line y2="680.87" style="fill:none;" x1="254.1353" x2="254.1353" y1="684"
      /><line y2="680.87" style="fill:none;" x1="266.1746" x2="266.1746" y1="684"
      /><line y2="680.87" style="fill:none;" x1="276.6035" x2="276.6035" y1="684"
      /><line y2="680.87" style="fill:none;" x1="285.8024" x2="285.8024" y1="684"
      /><line y2="680.87" style="fill:none;" x1="348.1664" x2="348.1664" y1="684"
      /><line y2="680.87" style="fill:none;" x1="379.8336" x2="379.8336" y1="684"
      /><line y2="680.87" style="fill:none;" x1="402.3017" x2="402.3017" y1="684"
      /><line y2="680.87" style="fill:none;" x1="419.7294" x2="419.7294" y1="684"
      /><line y2="680.87" style="fill:none;" x1="433.9688" x2="433.9688" y1="684"
      /><line y2="680.87" style="fill:none;" x1="446.0081" x2="446.0081" y1="684"
      /><line y2="680.87" style="fill:none;" x1="456.437" x2="456.437" y1="684"
      /><line y2="680.87" style="fill:none;" x1="465.636" x2="465.636" y1="684"
    /></g
    ><g transform="translate(364.0002,729.8)" style="font-size:26px; fill:rgb(38,38,38); text-rendering:geometricPrecision; color-rendering:optimizeQuality; image-rendering:optimizeQuality; font-family:'SansSerif'; color-interpolation:linearRGB; stroke:rgb(38,38,38);"
    ><text x="-215" xml:space="preserve" y="25" style="stroke:none;"
      > Remineralization length scale (m)</text
    ></g
    ><g style="fill:rgb(38,38,38); text-rendering:geometricPrecision; color-interpolation:linearRGB; color-rendering:optimizeQuality; image-rendering:optimizeQuality; stroke:rgb(38,38,38);"
    ><line y2="684" style="fill:none;" x1="200" x2="528" y1="684"
      /><line y2="677.74" style="fill:none;" x1="294.0311" x2="294.0311" y1="684"
      /><line y2="677.74" style="fill:none;" x1="473.8647" x2="473.8647" y1="684"
    /></g
    ><g transform="translate(272,722)" style="font-size:24px; fill:rgb(38,38,38); text-rendering:geometricPrecision; color-rendering:optimizeQuality; image-rendering:optimizeQuality; font-family:'SansSerif'; color-interpolation:linearRGB; stroke:rgb(38,38,38);"
    ><text x="0" xml:space="preserve" y="0" style="stroke:none;"
      >10</text
    ></g
    ><g transform="translate(303,710)" style="font-size:19px; fill:rgb(38,38,38); text-rendering:geometricPrecision; color-rendering:optimizeQuality; image-rendering:optimizeQuality; font-family:'SansSerif'; color-interpolation:linearRGB; stroke:rgb(38,38,38);"
    ><text x="0" xml:space="preserve" y="0" style="stroke:none;"
      >2</text
    ></g
    ><g transform="translate(452,722)" style="font-size:24px; fill:rgb(38,38,38); text-rendering:geometricPrecision; color-rendering:optimizeQuality; image-rendering:optimizeQuality; font-family:'SansSerif'; color-interpolation:linearRGB; stroke:rgb(38,38,38);"
    ><text x="0" xml:space="preserve" y="0" style="stroke:none;"
      >10</text
    ></g
    ><g transform="translate(483,710)" style="font-size:19px; fill:rgb(38,38,38); text-rendering:geometricPrecision; color-rendering:optimizeQuality; image-rendering:optimizeQuality; font-family:'SansSerif'; color-interpolation:linearRGB; stroke:rgb(38,38,38);"
    ><text x="0" xml:space="preserve" y="0" style="stroke:none;"
      >3</text
    ></g
    ><g transform="translate(142.5333,370.9997) rotate(-90)" style="font-size:26px; fill:rgb(38,38,38); text-rendering:geometricPrecision; color-rendering:optimizeQuality; image-rendering:optimizeQuality; font-family:'SansSerif'; color-interpolation:linearRGB; stroke:rgb(38,38,38);"
    ><text x="-51.5" xml:space="preserve" y="-6" style="stroke:none;"
      >Latitude</text
    ></g
    ><g style="fill:rgb(38,38,38); text-rendering:geometricPrecision; color-interpolation:linearRGB; color-rendering:optimizeQuality; image-rendering:optimizeQuality; stroke:rgb(38,38,38);"
    ><line y2="58" style="fill:none;" x1="200" x2="200" y1="684"
      /><line y2="684" style="fill:none;" x1="200" x2="206.26" y1="684"
      /><line y2="614.4445" style="fill:none;" x1="200" x2="206.26" y1="614.4445"
      /><line y2="544.8889" style="fill:none;" x1="200" x2="206.26" y1="544.8889"
      /><line y2="475.3333" style="fill:none;" x1="200" x2="206.26" y1="475.3333"
      /><line y2="405.7778" style="fill:none;" x1="200" x2="206.26" y1="405.7778"
      /><line y2="336.2222" style="fill:none;" x1="200" x2="206.26" y1="336.2222"
      /><line y2="266.6667" style="fill:none;" x1="200" x2="206.26" y1="266.6667"
      /><line y2="197.1111" style="fill:none;" x1="200" x2="206.26" y1="197.1111"
      /><line y2="127.5555" style="fill:none;" x1="200" x2="206.26" y1="127.5555"
      /><line y2="58" style="fill:none;" x1="200" x2="206.26" y1="58"
    /></g
    ><g transform="translate(192.5333,684)" style="font-size:24px; fill:rgb(38,38,38); text-rendering:geometricPrecision; color-rendering:optimizeQuality; image-rendering:optimizeQuality; font-family:'SansSerif'; color-interpolation:linearRGB; stroke:rgb(38,38,38);"
    ><text x="-45" xml:space="preserve" y="8.5" style="stroke:none;"
      >-80</text
    ></g
    ><g transform="translate(192.5333,614.4445)" style="font-size:24px; fill:rgb(38,38,38); text-rendering:geometricPrecision; color-rendering:optimizeQuality; image-rendering:optimizeQuality; font-family:'SansSerif'; color-interpolation:linearRGB; stroke:rgb(38,38,38);"
    ><text x="-45" xml:space="preserve" y="8.5" style="stroke:none;"
      >-60</text
    ></g
    ><g transform="translate(192.5333,544.8889)" style="font-size:24px; fill:rgb(38,38,38); text-rendering:geometricPrecision; color-rendering:optimizeQuality; image-rendering:optimizeQuality; font-family:'SansSerif'; color-interpolation:linearRGB; stroke:rgb(38,38,38);"
    ><text x="-45" xml:space="preserve" y="8.5" style="stroke:none;"
      >-40</text
    ></g
    ><g transform="translate(192.5333,475.3333)" style="font-size:24px; fill:rgb(38,38,38); text-rendering:geometricPrecision; color-rendering:optimizeQuality; image-rendering:optimizeQuality; font-family:'SansSerif'; color-interpolation:linearRGB; stroke:rgb(38,38,38);"
    ><text x="-45" xml:space="preserve" y="8.5" style="stroke:none;"
      >-20</text
    ></g
    ><g transform="translate(192.5333,405.7778)" style="font-size:24px; fill:rgb(38,38,38); text-rendering:geometricPrecision; color-rendering:optimizeQuality; image-rendering:optimizeQuality; font-family:'SansSerif'; color-interpolation:linearRGB; stroke:rgb(38,38,38);"
    ><text x="-16" xml:space="preserve" y="8.5" style="stroke:none;"
      >0</text
    ></g
    ><g transform="translate(192.5333,336.2222)" style="font-size:24px; fill:rgb(38,38,38); text-rendering:geometricPrecision; color-rendering:optimizeQuality; image-rendering:optimizeQuality; font-family:'SansSerif'; color-interpolation:linearRGB; stroke:rgb(38,38,38);"
    ><text x="-31" xml:space="preserve" y="8.5" style="stroke:none;"
      >20</text
    ></g
    ><g transform="translate(192.5333,266.6667)" style="font-size:24px; fill:rgb(38,38,38); text-rendering:geometricPrecision; color-rendering:optimizeQuality; image-rendering:optimizeQuality; font-family:'SansSerif'; color-interpolation:linearRGB; stroke:rgb(38,38,38);"
    ><text x="-31" xml:space="preserve" y="8.5" style="stroke:none;"
      >40</text
    ></g
    ><g transform="translate(192.5333,197.1111)" style="font-size:24px; fill:rgb(38,38,38); text-rendering:geometricPrecision; color-rendering:optimizeQuality; image-rendering:optimizeQuality; font-family:'SansSerif'; color-interpolation:linearRGB; stroke:rgb(38,38,38);"
    ><text x="-31" xml:space="preserve" y="8.5" style="stroke:none;"
      >60</text
    ></g
    ><g transform="translate(192.5333,127.5555)" style="font-size:24px; fill:rgb(38,38,38); text-rendering:geometricPrecision; color-rendering:optimizeQuality; image-rendering:optimizeQuality; font-family:'SansSerif'; color-interpolation:linearRGB; stroke:rgb(38,38,38);"
    ><text x="-31" xml:space="preserve" y="8.5" style="stroke:none;"
      >80</text
    ></g
    ><g transform="translate(192.5333,58)" style="font-size:24px; fill:rgb(38,38,38); text-rendering:geometricPrecision; color-rendering:optimizeQuality; image-rendering:optimizeQuality; font-family:'SansSerif'; color-interpolation:linearRGB; stroke:rgb(38,38,38);"
    ><text x="-46" xml:space="preserve" y="8.5" style="stroke:none;"
      >100</text
    ></g
    ><g style="stroke-linecap:butt; fill:red; text-rendering:geometricPrecision; color-rendering:optimizeQuality; image-rendering:optimizeQuality; stroke-linejoin:bevel; color-interpolation:linearRGB; stroke:red; stroke-width:2;"
    ><path d="M464.3607 674.0635 L452.2056 667.1844 L442.6889 660.3052 L433.7293 653.4261 L425.5552 646.547 L422.7902 639.6679 L419.0634 632.7888 L407.8486 625.9097 L401.1841 619.0305 L396.8592 612.1514 L394.0928 605.2723 L395.0565 598.3932 L395.2862 591.514 L394.7343 584.6349 L392.9433 577.7558 L389.4451 570.8766 L385.9153 563.9976 L385.1486 557.1184 L381.6889 550.2393 L372.2045 543.3602 L355.8596 536.4811 L340.9202 529.6019 L316.8481 522.7228 L286.671 515.8437 L261.8537 508.9646 L249.3149 502.0854 L240.819 495.2063 L233.4695 488.3272 L234.1519 481.4481 L246.7053 474.569 L264.5672 467.6898 L277.6455 460.8107 L291.2271 453.9316 L306.7974 447.0525 L324.9982 440.1734 L334.8656 433.2943 L341.9751 426.4151 L345.8076 419.536 L354.3488 412.6569 L362.4557 405.7778 L352.4668 398.8987 L348.9904 392.0195 L349.1128 385.1404 L349.2931 378.2613 L350.7039 371.3822 L351.5891 364.503 L335.8895 357.6239 L318.7701 350.7448 L298.6421 343.8657 L287.1601 336.9865" style="fill:none; fill-rule:evenodd;"
      /><path d="M287.1601 336.9865 L277.9451 330.1074 L265.1881 323.2283 L249.8993 316.3492 L248.4399 309.4701 L259.2923 302.5909 L292.0265 295.7118 L324.0905 288.8327 L340.338 281.9536 L362.7173 275.0745 L381.0559 268.1953 L393.8545 261.3162 L398.1706 254.4371 L403.3536 247.558 L409.1487 240.6789 L416.9418 233.7997 L424.7321 226.9206 L426.6015 220.0415 L426.6173 213.1624 L425.8986 206.2833 L422.6377 199.4041 L421.167 192.525 L419.8105 185.6459 L414.7551 178.7668 L417.9064 171.8877 L410.196 165.0085 L409.6638 158.1294 L414.4222 151.2503 L418.8332 144.3712 L424.0388 137.4921 L429.7425 130.6129 L428.9403 123.7338 L426.9725 116.8547 L428.7671 109.9756 L431.4222 103.0965" style="fill:none; fill-rule:evenodd;"
    /></g
    ><g style="stroke-linecap:butt; text-rendering:geometricPrecision; color-rendering:optimizeQuality; image-rendering:optimizeQuality; stroke-linejoin:bevel; stroke-dasharray:8,8; color-interpolation:linearRGB; stroke-width:2; stroke-miterlimit:1;"
    ><path d="M416.9036 674.0635 L413.0116 667.1844 L410.8227 660.3052 L407.5432 653.4261 L406.7136 646.547 L406.7668 639.6679 L406.3298 632.7888 L404.2874 625.9097 L402.7628 619.0305 L400.9553 612.1514 L398.573 605.2723 L395.7579 598.3932 L392.7577 591.514 L389.3153 584.6349 L385.5036 577.7558 L381.728 570.8766 L377.4724 563.9976 L372.2745 557.1184 L366.6776 550.2393 L360.9131 543.3602 L355.7605 536.4811 L352.0726 529.6019 L348.9479 522.7228 L346.1562 515.8437 L343.5096 508.9646 L340.6297 502.0854 L337.6889 495.2063 L334.9781 488.3272 L333.0349 481.4481 L332.8414 474.569 L334.6673 467.6898 L337.7717 460.8107 L342.3245 453.9316 L347.0394 447.0525 L350.7455 440.1734 L352.8165 433.2943 L353.8523 426.4151 L353.4073 419.536 L352.8843 412.6569 L352.7683 405.7778 L354.2126 398.8987 L356.3044 392.0195 L358.0945 385.1404 L358.3673 378.2613 L356.9958 371.3822 L354.0538 364.503 L349.8366 357.6239 L344.4819 350.7448 L339.5638 343.8657 L336.9418 336.9865 L334.39 330.1074 L333.7334 323.2283 L333.8501 316.3492 L334.042 309.4701 L334.2952 302.5909 L336.2041 295.7118 L340.1183 288.8327 L344.5082 281.9536 L353.355 275.0745 L360.618 268.1953 L368.2586 261.3162 L373.0779 254.4371 L376.5929 247.558 L379.6136 240.6789 L383.244 233.7997 L385.7711 226.9206 L385.7023 220.0415 L386.1057 213.1624 L385.365 206.2833 L384.762 199.4041 L382.9515 192.525 L384.8165 185.6459 L392.9494 178.7668 L394.8517 171.8877 L395.974 165.0085 L403.2906 158.1294 L406.9044 151.2503 L408.3859 144.3712 L408.1989 137.4921 L407.1466 130.6129 L406.4007 123.7338 L406.6337 116.8547 L406.6856 109.9756 L406.4516 103.0965" style="fill:none; fill-rule:evenodd;"
      /><path d="M384.3879 674.0635 L384.5755 667.1844 L384.7723 660.3052 L385.1177 653.4261 L385.2107 646.547 L385.1905 639.6679 L385.1552 632.7888 L385.2725 625.9097 L385.2779 619.0305 L385.1939 612.1514 L385.0601 605.2723 L384.9278 598.3932 L384.8232 591.514 L384.6968 584.6349 L384.5848 577.7558 L384.5513 570.8766 L384.5836 563.9976 L384.6728 557.1184 L384.7812 550.2393 L384.8806 543.3602 L384.9841 536.4811 L385.1627 529.6019 L385.3033 522.7228 L385.4205 515.8437 L385.5594 508.9646 L385.7806 502.0854 L386.0238 495.2063 L386.3467 488.3272 L386.8557 481.4481 L387.5164 474.569 L388.6843 467.6898 L389.8581 460.8107 L390.8383 453.9316 L391.6248 447.0525 L392.8369 440.1734 L393.9827 433.2943 L394.9404 426.4151 L394.0701 419.536 L392.6424 412.6569 L391.8368 405.7778 L392.2123 398.8987 L393.2506 392.0195 L395.5781 385.1404 L398.3 378.2613 L401.1394 371.3822 L402.4708 364.503 L402.1421 357.6239 L399.7441 350.7448 L396.5066 343.8657 L393.254 336.9865 L390.5149 330.1074 L389.2118 323.2283 L386.8477 316.3492 L386.0203 309.4701 L385.6631 302.5909 L385.6812 295.7118 L385.6566 288.8327 L385.5763 281.9536 L385.5212 275.0745 L385.5256 268.1953 L385.6794 261.3162 L386.0445 254.4371 L386.6761 247.558 L387.9365 240.6789 L389.5144 233.7997 L390.2513 226.9206 L390.1496 220.0415 L388.7358 213.1624 L387.1763 206.2833 L385.9791 199.4041 L384.7203 192.525 L384.3225 185.6459 L384.2307 178.7668 L384.1682 171.8877 L384.1473 165.0085 L384.2591 158.1294 L384.2899 151.2503 L384.3135 144.3712 L384.303 137.4921 L384.214 130.6129 L384.1903 123.7338 L384.2247 116.8547 L384.2421 109.9756 L384.2461 103.0965" style="fill:none; stroke-dasharray:2,2; fill-rule:evenodd;"
    /></g
    ><g transform="translate(364.0004,53.05)" style="font-size:26px; text-rendering:geometricPrecision; color-rendering:optimizeQuality; image-rendering:optimizeQuality; font-family:'SansSerif'; color-interpolation:linearRGB; font-weight:bold;"
    ><text x="-163.5" xml:space="preserve" y="-6" style="stroke:none;"
      >Remineralization Effects</text
    ></g
    ><g style="fill:white; text-rendering:optimizeSpeed; color-rendering:optimizeSpeed; image-rendering:optimizeSpeed; shape-rendering:crispEdges; color-interpolation:sRGB; stroke:white;"
    ><path style="stroke:none;" d="M205 152 L205 68 L399 68 L399 152 Z"
    /></g
    ><g transform="translate(257,83.5433)" style="font-size:22px; text-rendering:geometricPrecision; color-rendering:optimizeQuality; image-rendering:optimizeQuality; font-family:'SansSerif'; color-interpolation:linearRGB;"
    ><text x="0" xml:space="preserve" y="8" style="stroke:none;"
      >all</text
    ></g
    ><g style="fill:red; text-rendering:geometricPrecision; color-rendering:optimizeQuality; image-rendering:optimizeQuality; color-interpolation:linearRGB; stroke:red; stroke-width:2;"
    ><line y2="83.5433" style="fill:none;" x1="213" x2="253" y1="83.5433"
    /></g
    ><g transform="translate(257,110)" style="font-size:22px; text-rendering:geometricPrecision; color-rendering:optimizeQuality; image-rendering:optimizeQuality; font-family:'SansSerif'; color-interpolation:linearRGB;"
    ><text x="0" xml:space="preserve" y="8" style="stroke:none;"
      >Temperature</text
    ></g
    ><g style="stroke-linecap:butt; text-rendering:geometricPrecision; color-rendering:optimizeQuality; image-rendering:optimizeQuality; stroke-linejoin:bevel; stroke-dasharray:8,8; color-interpolation:linearRGB; stroke-width:2; stroke-miterlimit:1;"
    ><line y2="110" style="fill:none;" x1="213" x2="253" y1="110"
    /></g
    ><g transform="translate(257,136.4567)" style="font-size:22px; text-rendering:geometricPrecision; color-rendering:optimizeQuality; image-rendering:optimizeQuality; font-family:'SansSerif'; color-interpolation:linearRGB;"
    ><text x="0" xml:space="preserve" y="8" style="stroke:none;"
      >Oxygen</text
    ></g
    ><g style="stroke-linecap:butt; text-rendering:geometricPrecision; color-rendering:optimizeQuality; image-rendering:optimizeQuality; stroke-linejoin:bevel; stroke-dasharray:2,2; color-interpolation:linearRGB; stroke-width:2; stroke-miterlimit:1;"
    ><line y2="136.4567" style="fill:none;" x1="213" x2="253" y1="136.4567"
    /></g
    ><g style="fill:rgb(38,38,38); text-rendering:geometricPrecision; color-interpolation:linearRGB; color-rendering:optimizeQuality; image-rendering:optimizeQuality; stroke:rgb(38,38,38);"
    ><path d="M205 152 L205 68 L399 68 L399 152 L205 152" style="fill:none; fill-rule:evenodd;"
    /></g
    ><g style="fill:white; text-rendering:optimizeSpeed; color-rendering:optimizeSpeed; image-rendering:optimizeSpeed; shape-rendering:crispEdges; color-interpolation:sRGB; stroke:white;"
    ><path style="stroke:none;" d="M631 684 L959 684 L959 58 L631 58 Z"
    /></g
    ><g style="fill:rgb(38,38,38); text-rendering:geometricPrecision; color-interpolation:linearRGB; color-rendering:optimizeQuality; image-rendering:optimizeQuality; stroke:rgb(38,38,38);"
    ><line y2="680.87" style="fill:none;" x1="653.4682" x2="653.4682" y1="684"
      /><line y2="680.87" style="fill:none;" x1="670.8959" x2="670.8959" y1="684"
      /><line y2="680.87" style="fill:none;" x1="685.1353" x2="685.1353" y1="684"
      /><line y2="680.87" style="fill:none;" x1="697.1746" x2="697.1746" y1="684"
      /><line y2="680.87" style="fill:none;" x1="707.6035" x2="707.6035" y1="684"
      /><line y2="680.87" style="fill:none;" x1="716.8024" x2="716.8024" y1="684"
      /><line y2="680.87" style="fill:none;" x1="779.1664" x2="779.1664" y1="684"
      /><line y2="680.87" style="fill:none;" x1="810.8336" x2="810.8336" y1="684"
      /><line y2="680.87" style="fill:none;" x1="833.3018" x2="833.3018" y1="684"
      /><line y2="680.87" style="fill:none;" x1="850.7294" x2="850.7294" y1="684"
      /><line y2="680.87" style="fill:none;" x1="864.9689" x2="864.9689" y1="684"
      /><line y2="680.87" style="fill:none;" x1="877.0081" x2="877.0081" y1="684"
      /><line y2="680.87" style="fill:none;" x1="887.437" x2="887.437" y1="684"
      /><line y2="680.87" style="fill:none;" x1="896.636" x2="896.636" y1="684"
    /></g
    ><g transform="translate(795.0002,729.8)" style="font-size:26px; fill:rgb(38,38,38); text-rendering:geometricPrecision; color-rendering:optimizeQuality; image-rendering:optimizeQuality; font-family:'SansSerif'; color-interpolation:linearRGB; stroke:rgb(38,38,38);"
    ><text x="-215" xml:space="preserve" y="25" style="stroke:none;"
      > Remineralization length scale (m)</text
    ></g
    ><g style="fill:rgb(38,38,38); text-rendering:geometricPrecision; color-interpolation:linearRGB; color-rendering:optimizeQuality; image-rendering:optimizeQuality; stroke:rgb(38,38,38);"
    ><line y2="684" style="fill:none;" x1="631" x2="959" y1="684"
      /><line y2="677.74" style="fill:none;" x1="725.0311" x2="725.0311" y1="684"
      /><line y2="677.74" style="fill:none;" x1="904.8647" x2="904.8647" y1="684"
    /></g
    ><g transform="translate(703,722)" style="font-size:24px; fill:rgb(38,38,38); text-rendering:geometricPrecision; color-rendering:optimizeQuality; image-rendering:optimizeQuality; font-family:'SansSerif'; color-interpolation:linearRGB; stroke:rgb(38,38,38);"
    ><text x="0" xml:space="preserve" y="0" style="stroke:none;"
      >10</text
    ></g
    ><g transform="translate(734,710)" style="font-size:19px; fill:rgb(38,38,38); text-rendering:geometricPrecision; color-rendering:optimizeQuality; image-rendering:optimizeQuality; font-family:'SansSerif'; color-interpolation:linearRGB; stroke:rgb(38,38,38);"
    ><text x="0" xml:space="preserve" y="0" style="stroke:none;"
      >2</text
    ></g
    ><g transform="translate(883,722)" style="font-size:24px; fill:rgb(38,38,38); text-rendering:geometricPrecision; color-rendering:optimizeQuality; image-rendering:optimizeQuality; font-family:'SansSerif'; color-interpolation:linearRGB; stroke:rgb(38,38,38);"
    ><text x="0" xml:space="preserve" y="0" style="stroke:none;"
      >10</text
    ></g
    ><g transform="translate(914,710)" style="font-size:19px; fill:rgb(38,38,38); text-rendering:geometricPrecision; color-rendering:optimizeQuality; image-rendering:optimizeQuality; font-family:'SansSerif'; color-interpolation:linearRGB; stroke:rgb(38,38,38);"
    ><text x="0" xml:space="preserve" y="0" style="stroke:none;"
      >3</text
    ></g
    ><g style="fill:rgb(38,38,38); text-rendering:geometricPrecision; color-interpolation:linearRGB; color-rendering:optimizeQuality; image-rendering:optimizeQuality; stroke:rgb(38,38,38);"
    ><line y2="58" style="fill:none;" x1="631" x2="631" y1="684"
      /><line y2="684" style="fill:none;" x1="631" x2="637.26" y1="684"
      /><line y2="614.4445" style="fill:none;" x1="631" x2="637.26" y1="614.4445"
      /><line y2="544.8889" style="fill:none;" x1="631" x2="637.26" y1="544.8889"
      /><line y2="475.3333" style="fill:none;" x1="631" x2="637.26" y1="475.3333"
      /><line y2="405.7778" style="fill:none;" x1="631" x2="637.26" y1="405.7778"
      /><line y2="336.2222" style="fill:none;" x1="631" x2="637.26" y1="336.2222"
      /><line y2="266.6667" style="fill:none;" x1="631" x2="637.26" y1="266.6667"
      /><line y2="197.1111" style="fill:none;" x1="631" x2="637.26" y1="197.1111"
      /><line y2="127.5555" style="fill:none;" x1="631" x2="637.26" y1="127.5555"
      /><line y2="58" style="fill:none;" x1="631" x2="637.26" y1="58"
    /></g
    ><g transform="translate(623.5333,684)" style="font-size:24px; fill:rgb(38,38,38); text-rendering:geometricPrecision; color-rendering:optimizeQuality; image-rendering:optimizeQuality; font-family:'SansSerif'; color-interpolation:linearRGB; stroke:rgb(38,38,38);"
    ><text x="-45" xml:space="preserve" y="8.5" style="stroke:none;"
      >-80</text
    ></g
    ><g transform="translate(623.5333,614.4445)" style="font-size:24px; fill:rgb(38,38,38); text-rendering:geometricPrecision; color-rendering:optimizeQuality; image-rendering:optimizeQuality; font-family:'SansSerif'; color-interpolation:linearRGB; stroke:rgb(38,38,38);"
    ><text x="-45" xml:space="preserve" y="8.5" style="stroke:none;"
      >-60</text
    ></g
    ><g transform="translate(623.5333,544.8889)" style="font-size:24px; fill:rgb(38,38,38); text-rendering:geometricPrecision; color-rendering:optimizeQuality; image-rendering:optimizeQuality; font-family:'SansSerif'; color-interpolation:linearRGB; stroke:rgb(38,38,38);"
    ><text x="-45" xml:space="preserve" y="8.5" style="stroke:none;"
      >-40</text
    ></g
    ><g transform="translate(623.5333,475.3333)" style="font-size:24px; fill:rgb(38,38,38); text-rendering:geometricPrecision; color-rendering:optimizeQuality; image-rendering:optimizeQuality; font-family:'SansSerif'; color-interpolation:linearRGB; stroke:rgb(38,38,38);"
    ><text x="-45" xml:space="preserve" y="8.5" style="stroke:none;"
      >-20</text
    ></g
    ><g transform="translate(623.5333,405.7778)" style="font-size:24px; fill:rgb(38,38,38); text-rendering:geometricPrecision; color-rendering:optimizeQuality; image-rendering:optimizeQuality; font-family:'SansSerif'; color-interpolation:linearRGB; stroke:rgb(38,38,38);"
    ><text x="-16" xml:space="preserve" y="8.5" style="stroke:none;"
      >0</text
    ></g
    ><g transform="translate(623.5333,336.2222)" style="font-size:24px; fill:rgb(38,38,38); text-rendering:geometricPrecision; color-rendering:optimizeQuality; image-rendering:optimizeQuality; font-family:'SansSerif'; color-interpolation:linearRGB; stroke:rgb(38,38,38);"
    ><text x="-31" xml:space="preserve" y="8.5" style="stroke:none;"
      >20</text
    ></g
    ><g transform="translate(623.5333,266.6667)" style="font-size:24px; fill:rgb(38,38,38); text-rendering:geometricPrecision; color-rendering:optimizeQuality; image-rendering:optimizeQuality; font-family:'SansSerif'; color-interpolation:linearRGB; stroke:rgb(38,38,38);"
    ><text x="-31" xml:space="preserve" y="8.5" style="stroke:none;"
      >40</text
    ></g
    ><g transform="translate(623.5333,197.1111)" style="font-size:24px; fill:rgb(38,38,38); text-rendering:geometricPrecision; color-rendering:optimizeQuality; image-rendering:optimizeQuality; font-family:'SansSerif'; color-interpolation:linearRGB; stroke:rgb(38,38,38);"
    ><text x="-31" xml:space="preserve" y="8.5" style="stroke:none;"
      >60</text
    ></g
    ><g transform="translate(623.5333,127.5555)" style="font-size:24px; fill:rgb(38,38,38); text-rendering:geometricPrecision; color-rendering:optimizeQuality; image-rendering:optimizeQuality; font-family:'SansSerif'; color-interpolation:linearRGB; stroke:rgb(38,38,38);"
    ><text x="-31" xml:space="preserve" y="8.5" style="stroke:none;"
      >80</text
    ></g
    ><g transform="translate(623.5333,58)" style="font-size:24px; fill:rgb(38,38,38); text-rendering:geometricPrecision; color-rendering:optimizeQuality; image-rendering:optimizeQuality; font-family:'SansSerif'; color-interpolation:linearRGB; stroke:rgb(38,38,38);"
    ><text x="-46" xml:space="preserve" y="8.5" style="stroke:none;"
      >100</text
    ></g
    ><g style="stroke-linecap:butt; fill:red; text-rendering:geometricPrecision; color-rendering:optimizeQuality; image-rendering:optimizeQuality; stroke-linejoin:bevel; color-interpolation:linearRGB; stroke:red; stroke-width:2;"
    ><path d="M895.3607 674.0635 L883.2056 667.1844 L873.6888 660.3052 L864.7293 653.4261 L856.5552 646.547 L853.7902 639.6679 L850.0634 632.7888 L838.8486 625.9097 L832.184 619.0305 L827.8593 612.1514 L825.0928 605.2723 L826.0565 598.3932 L826.2862 591.514 L825.7343 584.6349 L823.9433 577.7558 L820.4451 570.8766 L816.9152 563.9976 L816.1486 557.1184 L812.6889 550.2393 L803.2045 543.3602 L786.8596 536.4811 L771.9202 529.6019 L747.8481 522.7228 L717.671 515.8437 L692.8537 508.9646 L680.3149 502.0854 L671.819 495.2063 L664.4695 488.3272 L665.1519 481.4481 L677.7053 474.569 L695.5673 467.6898 L708.6456 460.8107 L722.2271 453.9316 L737.7974 447.0525 L755.9982 440.1734 L765.8657 433.2943 L772.9751 426.4151 L776.8076 419.536 L785.3488 412.6569 L793.4557 405.7778 L783.4667 398.8987 L779.9904 392.0195 L780.1128 385.1404 L780.2931 378.2613 L781.7039 371.3822 L782.5891 364.503 L766.8895 357.6239 L749.7701 350.7448 L729.642 343.8657 L718.16 336.9865" style="fill:none; fill-rule:evenodd;"
      /><path d="M718.16 336.9865 L708.9451 330.1074 L696.1881 323.2283 L680.8993 316.3492 L679.4399 309.4701 L690.2922 302.5909 L723.0265 295.7118 L755.0905 288.8327 L771.338 281.9536 L793.7173 275.0745 L812.0559 268.1953 L824.8545 261.3162 L829.1706 254.4371 L834.3536 247.558 L840.1487 240.6789 L847.9418 233.7997 L855.7321 226.9206 L857.6015 220.0415 L857.6173 213.1624 L856.8986 206.2833 L853.6378 199.4041 L852.167 192.525 L850.8104 185.6459 L845.7551 178.7668 L848.9064 171.8877 L841.1959 165.0085 L840.6638 158.1294 L845.4222 151.2503 L849.8332 144.3712 L855.0388 137.4921 L860.7424 130.6129 L859.9404 123.7338 L857.9725 116.8547 L859.7672 109.9756 L862.4222 103.0965" style="fill:none; fill-rule:evenodd;"
    /></g
    ><g style="stroke-linecap:butt; text-rendering:geometricPrecision; color-rendering:optimizeQuality; image-rendering:optimizeQuality; stroke-linejoin:bevel; stroke-dasharray:8,8; color-interpolation:linearRGB; stroke-width:2; stroke-miterlimit:1;"
    ><path d="M806.2249 674.0635 L808.1498 667.1844 L809.2449 660.3052 L810.8563 653.4261 L811.2634 646.547 L811.2365 639.6679 L811.478 632.7888 L812.5042 625.9097 L813.2296 619.0305 L814.0663 612.1514 L815.1342 605.2723 L816.3698 598.3932 L817.6451 591.514 L819.0878 584.6349 L820.7066 577.7558 L822.327 570.8766 L824.1622 563.9976 L826.2292 557.1184 L828.3128 550.2393 L830.3368 543.3602 L832.0632 536.4811 L833.2719 529.6019 L834.267 522.7228 L835.1246 515.8437 L835.8842 508.9646 L836.6446 502.0854 L837.3737 495.2063 L837.9594 488.3272 L838.2831 481.4481 L838.1207 474.569 L837.4055 467.6898 L836.353 460.8107 L834.9767 453.9316 L833.6375 447.0525 L832.6402 440.1734 L832.113 433.2943 L831.9809 426.4151 L832.2707 419.536 L832.5414 412.6569 L832.5911 405.7778 L832.1323 398.8987 L831.4799 392.0195 L830.9813 385.1404 L830.9853 378.2613 L831.3767 371.3822 L832.1318 364.503 L833.2047 357.6239 L834.6508 350.7448 L836.0435 343.8657 L836.9301 336.9865 L837.8166 330.1074 L838.1927 323.2283 L838.3315 316.3492 L838.4249 309.4701 L838.4745 302.5909 L838.0007 295.7118 L836.9256 288.8327 L835.5194 281.9536 L832.1461 275.0745 L829.6167 268.1953 L826.9243 261.3162 L825.1821 254.4371 L823.7573 247.558 L822.5444 240.6789 L821.2915 233.7997 L820.4476 226.9206 L820.6337 220.0415 L820.4808 213.1624 L820.8043 206.2833 L821.1036 199.4041 L821.9064 192.525 L821.2363 185.6459 L817.6121 178.7668 L816.5386 171.8877 L816.098 165.0085 L812.7749 158.1294 L811.1179 151.2503 L810.4247 144.3712 L810.5309 137.4921 L811.0511 130.6129 L811.4421 123.7338 L811.3237 116.8547 L811.3032 109.9756 L811.4288 103.0965" style="fill:none; fill-rule:evenodd;"
      /><path d="M816.2062 674.0635 L816.2032 667.1844 L816.2079 660.3052 L816.1974 653.4261 L816.1964 646.547 L816.1967 639.6679 L816.201 632.7888 L816.2177 625.9097 L816.2413 619.0305 L816.2708 612.1514 L816.3039 605.2723 L816.3362 598.3932 L816.364 591.514 L816.3944 584.6349 L816.426 577.7558 L816.4528 570.8766 L816.4738 563.9976 L816.4935 557.1184 L816.5147 550.2393 L816.5404 543.3602 L816.5672 536.4811 L816.5872 529.6019 L816.6076 522.7228 L816.6273 515.8437 L816.6443 508.9646 L816.6623 502.0854 L816.6817 495.2063 L816.7004 488.3272 L816.7135 481.4481 L816.7129 474.569 L816.6984 467.6898 L816.6762 460.8107 L816.6445 453.9316 L816.6113 447.0525 L816.5837 440.1734 L816.5664 433.2943 L816.5577 426.4151 L816.5608 419.536 L816.5672 412.6569 L816.569 405.7778 L816.5613 398.8987 L816.5466 392.0195 L816.5366 385.1404 L816.5392 378.2613 L816.5486 371.3822 L816.5635 364.503 L816.5929 357.6239 L816.6328 350.7448 L816.671 343.8657 L816.6991 336.9865 L816.7177 330.1074 L816.7264 323.2283 L816.7369 316.3492 L816.7367 309.4701 L816.7386 302.5909 L816.6594 295.7118 L816.5211 288.8327 L816.4732 281.9536 L816.5342 275.0745 L816.5072 268.1953 L816.4921 261.3162 L816.4827 254.4371 L816.4681 247.558 L816.4536 240.6789 L816.4396 233.7997 L816.4266 226.9206 L816.4075 220.0415 L816.3937 213.1624 L816.3761 206.2833 L816.3532 199.4041 L816.3026 192.525 L816.2267 185.6459 L816.1768 178.7668 L816.1597 171.8877 L816.149 165.0085 L816.1347 158.1294 L816.1294 151.2503 L816.1309 144.3712 L816.1329 137.4921 L816.1377 130.6129 L816.1348 123.7338 L816.1364 116.8547 L816.1345 109.9756 L816.1324 103.0965" style="fill:none; stroke-dasharray:2,2; fill-rule:evenodd;"
      /><path d="M846.685 674.0635 L839.1796 667.1844 L836.2495 660.3052 L831.8441 653.4261 L825.5126 646.547 L822.7831 639.6679 L819.0782 632.7888 L812.1473 625.9097 L808.9716 619.0305 L806.8895 612.1514 L805.3775 605.2723 L807.2612 598.3932 L810.0791 591.514 L811.9751 584.6349 L812.017 577.7558 L810.548 570.8766 L810.2339 563.9976 L812.3151 557.1184 L812.5356 550.2393 L808.4003 543.3602 L800.3624 536.4811 L790.7135 529.6019 L773.7053 522.7228 L750.3144 515.8437 L731.426 508.9646 L722.6986 502.0854 L718.4139 495.2063 L714.3467 488.3272 L716.8511 481.4481 L726.6536 474.569 L741.5403 467.6898 L749.8092 460.8107 L756.7718 453.9316 L766.0623 447.0525 L777.9911 440.1734 L784.0121 433.2943 L788.3389 426.4151 L791.7162 419.536 L798.1694 412.6569 L804.0248 405.7778 L796.3287 398.8987 L792.6215 392.0195 L789.4329 385.1404 L786.0687 378.2613 L783.8853 371.3822 L782.5045 364.503 L772.4438 357.6239 L764.6885 350.7448 L755.0841 343.8657 L748.889 336.9865 L745.1534 330.1074 L739.5411 323.2283 L731.9233 316.3492 L732.8404 309.4701 L742.6425 302.5909 L768.6593 295.7118 L791.5759 288.8327 L801.5225 281.9536 L812.5604 275.0745 L820.7095 268.1953 L825.6672 261.3162 L828.1349 254.4371 L830.1653 247.558 L832.3638 240.6789 L833.8459 233.7997 L836.5884 226.9206 L837.5891 220.0415 L838.0258 213.1624 L838.4591 206.2833 L839.9285 199.4041 L839.6388 192.525 L841.3056 185.6459 L841.4 178.7668 L841.003 171.8877 L839.4461 165.0085 L843.2498 158.1294 L842.5257 151.2503 L843.2989 144.3712 L844.4792 137.4921 L845.8302 130.6129 L845.9967 123.7338 L845.5096 116.8547 L845.2777 109.9756 L845.305 103.0965" style="fill:none; stroke-dasharray:8,2,4,2; fill-rule:evenodd; stroke:blue;"
    /></g
    ><g transform="translate(795.0007,53.05)" style="font-size:26px; text-rendering:geometricPrecision; color-rendering:optimizeQuality; image-rendering:optimizeQuality; font-family:'SansSerif'; color-interpolation:linearRGB; font-weight:bold;"
    ><text x="-144" xml:space="preserve" y="-6" style="stroke:none;"
      >Sinking Speed Effects</text
    ></g
    ><g style="fill:white; text-rendering:optimizeSpeed; color-rendering:optimizeSpeed; image-rendering:optimizeSpeed; shape-rendering:crispEdges; color-interpolation:sRGB; stroke:white;"
    ><path style="stroke:none;" d="M638 192 L638 80 L789 80 L789 192 Z"
    /></g
    ><g transform="translate(690,95.7605)" style="font-size:22px; text-rendering:geometricPrecision; color-rendering:optimizeQuality; image-rendering:optimizeQuality; font-family:'SansSerif'; color-interpolation:linearRGB;"
    ><text x="0" xml:space="preserve" y="8" style="stroke:none;"
      >all</text
    ></g
    ><g style="fill:red; text-rendering:geometricPrecision; color-rendering:optimizeQuality; image-rendering:optimizeQuality; color-interpolation:linearRGB; stroke:red; stroke-width:2;"
    ><line y2="95.7605" style="fill:none;" x1="646" x2="686" y1="95.7605"
    /></g
    ><g transform="translate(690,122.5868)" style="font-size:22px; text-rendering:geometricPrecision; color-rendering:optimizeQuality; image-rendering:optimizeQuality; font-family:'SansSerif'; color-interpolation:linearRGB;"
    ><text x="0" xml:space="preserve" y="8" style="stroke:none;"
      >Viscosity</text
    ></g
    ><g style="stroke-linecap:butt; text-rendering:geometricPrecision; color-rendering:optimizeQuality; image-rendering:optimizeQuality; stroke-linejoin:bevel; stroke-dasharray:8,8; color-interpolation:linearRGB; stroke-width:2; stroke-miterlimit:1;"
    ><line y2="122.5868" style="fill:none;" x1="646" x2="686" y1="122.5868"
    /></g
    ><g transform="translate(690,149.4132)" style="font-size:22px; text-rendering:geometricPrecision; color-rendering:optimizeQuality; image-rendering:optimizeQuality; font-family:'SansSerif'; color-interpolation:linearRGB;"
    ><text x="0" xml:space="preserve" y="8" style="stroke:none;"
      >Density</text
    ></g
    ><g style="stroke-linecap:butt; text-rendering:geometricPrecision; color-rendering:optimizeQuality; image-rendering:optimizeQuality; stroke-linejoin:bevel; stroke-dasharray:2,2; color-interpolation:linearRGB; stroke-width:2; stroke-miterlimit:1;"
    ><line y2="149.4132" style="fill:none;" x1="646" x2="686" y1="149.4132"
    /></g
    ><g transform="translate(690,176.2395)" style="font-size:22px; text-rendering:geometricPrecision; color-rendering:optimizeQuality; image-rendering:optimizeQuality; font-family:'SansSerif'; color-interpolation:linearRGB;"
    ><text x="0" xml:space="preserve" y="8" style="stroke:none;"
      >Size</text
    ></g
    ><g style="stroke-linecap:butt; fill:blue; text-rendering:geometricPrecision; color-rendering:optimizeQuality; image-rendering:optimizeQuality; stroke-linejoin:bevel; stroke-dasharray:8,2,4,2; color-interpolation:linearRGB; stroke:blue; stroke-width:2; stroke-miterlimit:1;"
    ><line y2="176.2395" style="fill:none;" x1="646" x2="686" y1="176.2395"
    /></g
    ><g style="fill:rgb(38,38,38); text-rendering:geometricPrecision; color-interpolation:linearRGB; color-rendering:optimizeQuality; image-rendering:optimizeQuality; stroke:rgb(38,38,38);"
    ><path d="M638 192 L638 80 L789 80 L789 192 L638 192" style="fill:none; fill-rule:evenodd;"
    /></g
    ><g style="fill:white; text-rendering:optimizeSpeed; color-rendering:optimizeSpeed; image-rendering:optimizeSpeed; shape-rendering:crispEdges; color-interpolation:sRGB; stroke:white;"
    ><path style="stroke:none;" d="M1063 684 L1391 684 L1391 58 L1063 58 Z"
    /></g
    ><g style="fill:rgb(38,38,38); text-rendering:geometricPrecision; color-interpolation:linearRGB; color-rendering:optimizeQuality; image-rendering:optimizeQuality; stroke:rgb(38,38,38);"
    ><line y2="680.87" style="fill:none;" x1="1085.4681" x2="1085.4681" y1="684"
      /><line y2="680.87" style="fill:none;" x1="1102.8959" x2="1102.8959" y1="684"
      /><line y2="680.87" style="fill:none;" x1="1117.1353" x2="1117.1353" y1="684"
      /><line y2="680.87" style="fill:none;" x1="1129.1746" x2="1129.1746" y1="684"
      /><line y2="680.87" style="fill:none;" x1="1139.6035" x2="1139.6035" y1="684"
      /><line y2="680.87" style="fill:none;" x1="1148.8024" x2="1148.8024" y1="684"
      /><line y2="680.87" style="fill:none;" x1="1211.1664" x2="1211.1664" y1="684"
      /><line y2="680.87" style="fill:none;" x1="1242.8335" x2="1242.8335" y1="684"
      /><line y2="680.87" style="fill:none;" x1="1265.3018" x2="1265.3018" y1="684"
      /><line y2="680.87" style="fill:none;" x1="1282.7294" x2="1282.7294" y1="684"
      /><line y2="680.87" style="fill:none;" x1="1296.9689" x2="1296.9689" y1="684"
      /><line y2="680.87" style="fill:none;" x1="1309.0082" x2="1309.0082" y1="684"
      /><line y2="680.87" style="fill:none;" x1="1319.437" x2="1319.437" y1="684"
      /><line y2="680.87" style="fill:none;" x1="1328.636" x2="1328.636" y1="684"
    /></g
    ><g transform="translate(1227.0001,729.8)" style="font-size:26px; fill:rgb(38,38,38); text-rendering:geometricPrecision; color-rendering:optimizeQuality; image-rendering:optimizeQuality; font-family:'SansSerif'; color-interpolation:linearRGB; stroke:rgb(38,38,38);"
    ><text x="-210.5" xml:space="preserve" y="25" style="stroke:none;"
      >Remineralization length scale (m)</text
    ></g
    ><g style="fill:rgb(38,38,38); text-rendering:geometricPrecision; color-interpolation:linearRGB; color-rendering:optimizeQuality; image-rendering:optimizeQuality; stroke:rgb(38,38,38);"
    ><line y2="684" style="fill:none;" x1="1063" x2="1391" y1="684"
      /><line y2="677.74" style="fill:none;" x1="1157.0311" x2="1157.0311" y1="684"
      /><line y2="677.74" style="fill:none;" x1="1336.8647" x2="1336.8647" y1="684"
    /></g
    ><g transform="translate(1135,722)" style="font-size:24px; fill:rgb(38,38,38); text-rendering:geometricPrecision; color-rendering:optimizeQuality; image-rendering:optimizeQuality; font-family:'SansSerif'; color-interpolation:linearRGB; stroke:rgb(38,38,38);"
    ><text x="0" xml:space="preserve" y="0" style="stroke:none;"
      >10</text
    ></g
    ><g transform="translate(1166,710)" style="font-size:19px; fill:rgb(38,38,38); text-rendering:geometricPrecision; color-rendering:optimizeQuality; image-rendering:optimizeQuality; font-family:'SansSerif'; color-interpolation:linearRGB; stroke:rgb(38,38,38);"
    ><text x="0" xml:space="preserve" y="0" style="stroke:none;"
      >2</text
    ></g
    ><g transform="translate(1315,722)" style="font-size:24px; fill:rgb(38,38,38); text-rendering:geometricPrecision; color-rendering:optimizeQuality; image-rendering:optimizeQuality; font-family:'SansSerif'; color-interpolation:linearRGB; stroke:rgb(38,38,38);"
    ><text x="0" xml:space="preserve" y="0" style="stroke:none;"
      >10</text
    ></g
    ><g transform="translate(1346,710)" style="font-size:19px; fill:rgb(38,38,38); text-rendering:geometricPrecision; color-rendering:optimizeQuality; image-rendering:optimizeQuality; font-family:'SansSerif'; color-interpolation:linearRGB; stroke:rgb(38,38,38);"
    ><text x="0" xml:space="preserve" y="0" style="stroke:none;"
      >3</text
    ></g
    ><g style="fill:rgb(38,38,38); text-rendering:geometricPrecision; color-interpolation:linearRGB; color-rendering:optimizeQuality; image-rendering:optimizeQuality; stroke:rgb(38,38,38);"
    ><line y2="58" style="fill:none;" x1="1063" x2="1063" y1="684"
      /><line y2="684" style="fill:none;" x1="1063" x2="1069.26" y1="684"
      /><line y2="614.4445" style="fill:none;" x1="1063" x2="1069.26" y1="614.4445"
      /><line y2="544.8889" style="fill:none;" x1="1063" x2="1069.26" y1="544.8889"
      /><line y2="475.3333" style="fill:none;" x1="1063" x2="1069.26" y1="475.3333"
      /><line y2="405.7778" style="fill:none;" x1="1063" x2="1069.26" y1="405.7778"
      /><line y2="336.2222" style="fill:none;" x1="1063" x2="1069.26" y1="336.2222"
      /><line y2="266.6667" style="fill:none;" x1="1063" x2="1069.26" y1="266.6667"
      /><line y2="197.1111" style="fill:none;" x1="1063" x2="1069.26" y1="197.1111"
      /><line y2="127.5555" style="fill:none;" x1="1063" x2="1069.26" y1="127.5555"
      /><line y2="58" style="fill:none;" x1="1063" x2="1069.26" y1="58"
    /></g
    ><g transform="translate(1055.5333,684)" style="font-size:24px; fill:rgb(38,38,38); text-rendering:geometricPrecision; color-rendering:optimizeQuality; image-rendering:optimizeQuality; font-family:'SansSerif'; color-interpolation:linearRGB; stroke:rgb(38,38,38);"
    ><text x="-45" xml:space="preserve" y="8.5" style="stroke:none;"
      >-80</text
    ></g
    ><g transform="translate(1055.5333,614.4445)" style="font-size:24px; fill:rgb(38,38,38); text-rendering:geometricPrecision; color-rendering:optimizeQuality; image-rendering:optimizeQuality; font-family:'SansSerif'; color-interpolation:linearRGB; stroke:rgb(38,38,38);"
    ><text x="-45" xml:space="preserve" y="8.5" style="stroke:none;"
      >-60</text
    ></g
    ><g transform="translate(1055.5333,544.8889)" style="font-size:24px; fill:rgb(38,38,38); text-rendering:geometricPrecision; color-rendering:optimizeQuality; image-rendering:optimizeQuality; font-family:'SansSerif'; color-interpolation:linearRGB; stroke:rgb(38,38,38);"
    ><text x="-45" xml:space="preserve" y="8.5" style="stroke:none;"
      >-40</text
    ></g
    ><g transform="translate(1055.5333,475.3333)" style="font-size:24px; fill:rgb(38,38,38); text-rendering:geometricPrecision; color-rendering:optimizeQuality; image-rendering:optimizeQuality; font-family:'SansSerif'; color-interpolation:linearRGB; stroke:rgb(38,38,38);"
    ><text x="-45" xml:space="preserve" y="8.5" style="stroke:none;"
      >-20</text
    ></g
    ><g transform="translate(1055.5333,405.7778)" style="font-size:24px; fill:rgb(38,38,38); text-rendering:geometricPrecision; color-rendering:optimizeQuality; image-rendering:optimizeQuality; font-family:'SansSerif'; color-interpolation:linearRGB; stroke:rgb(38,38,38);"
    ><text x="-16" xml:space="preserve" y="8.5" style="stroke:none;"
      >0</text
    ></g
    ><g transform="translate(1055.5333,336.2222)" style="font-size:24px; fill:rgb(38,38,38); text-rendering:geometricPrecision; color-rendering:optimizeQuality; image-rendering:optimizeQuality; font-family:'SansSerif'; color-interpolation:linearRGB; stroke:rgb(38,38,38);"
    ><text x="-31" xml:space="preserve" y="8.5" style="stroke:none;"
      >20</text
    ></g
    ><g transform="translate(1055.5333,266.6667)" style="font-size:24px; fill:rgb(38,38,38); text-rendering:geometricPrecision; color-rendering:optimizeQuality; image-rendering:optimizeQuality; font-family:'SansSerif'; color-interpolation:linearRGB; stroke:rgb(38,38,38);"
    ><text x="-31" xml:space="preserve" y="8.5" style="stroke:none;"
      >40</text
    ></g
    ><g transform="translate(1055.5333,197.1111)" style="font-size:24px; fill:rgb(38,38,38); text-rendering:geometricPrecision; color-rendering:optimizeQuality; image-rendering:optimizeQuality; font-family:'SansSerif'; color-interpolation:linearRGB; stroke:rgb(38,38,38);"
    ><text x="-31" xml:space="preserve" y="8.5" style="stroke:none;"
      >60</text
    ></g
    ><g transform="translate(1055.5333,127.5555)" style="font-size:24px; fill:rgb(38,38,38); text-rendering:geometricPrecision; color-rendering:optimizeQuality; image-rendering:optimizeQuality; font-family:'SansSerif'; color-interpolation:linearRGB; stroke:rgb(38,38,38);"
    ><text x="-31" xml:space="preserve" y="8.5" style="stroke:none;"
      >80</text
    ></g
    ><g transform="translate(1055.5333,58)" style="font-size:24px; fill:rgb(38,38,38); text-rendering:geometricPrecision; color-rendering:optimizeQuality; image-rendering:optimizeQuality; font-family:'SansSerif'; color-interpolation:linearRGB; stroke:rgb(38,38,38);"
    ><text x="-46" xml:space="preserve" y="8.5" style="stroke:none;"
      >100</text
    ></g
    ><g style="stroke-linecap:butt; fill:red; text-rendering:geometricPrecision; color-rendering:optimizeQuality; image-rendering:optimizeQuality; stroke-linejoin:bevel; color-interpolation:linearRGB; stroke:red; stroke-width:2;"
    ><path d="M1327.3607 674.0635 L1315.2056 667.1844 L1305.6888 660.3052 L1296.7294 653.4261 L1288.5552 646.547 L1285.7903 639.6679 L1282.0634 632.7888 L1270.8486 625.9097 L1264.1841 619.0305 L1259.8593 612.1514 L1257.0929 605.2723 L1258.0565 598.3932 L1258.2861 591.514 L1257.7343 584.6349 L1255.9432 577.7558 L1252.4451 570.8766 L1248.9153 563.9976 L1248.1486 557.1184 L1244.689 550.2393 L1235.2045 543.3602 L1218.8596 536.4811 L1203.9202 529.6019 L1179.8481 522.7228 L1149.671 515.8437 L1124.8538 508.9646 L1112.3149 502.0854 L1103.819 495.2063 L1096.4695 488.3272 L1097.1519 481.4481 L1109.7053 474.569 L1127.5673 467.6898 L1140.6455 460.8107 L1154.2272 453.9316 L1169.7974 447.0525 L1187.9982 440.1734 L1197.8656 433.2943 L1204.9751 426.4151 L1208.8076 419.536 L1217.3489 412.6569 L1225.4557 405.7778 L1215.4668 398.8987 L1211.9905 392.0195 L1212.1128 385.1404 L1212.2931 378.2613 L1213.7039 371.3822 L1214.5891 364.503 L1198.8895 357.6239 L1181.7701 350.7448 L1161.6421 343.8657 L1150.16 336.9865" style="fill:none; fill-rule:evenodd;"
      /><path d="M1150.16 336.9865 L1140.9451 330.1074 L1128.1881 323.2283 L1112.8993 316.3492 L1111.4399 309.4701 L1122.2922 302.5909 L1155.0265 295.7118 L1187.0905 288.8327 L1203.338 281.9536 L1225.7173 275.0745 L1244.0559 268.1953 L1256.8545 261.3162 L1261.1707 254.4371 L1266.3536 247.558 L1272.1487 240.6789 L1279.9418 233.7997 L1287.7322 226.9206 L1289.6016 220.0415 L1289.6173 213.1624 L1288.8986 206.2833 L1285.6377 199.4041 L1284.167 192.525 L1282.8104 185.6459 L1277.7551 178.7668 L1280.9064 171.8877 L1273.1959 165.0085 L1272.6638 158.1294 L1277.4222 151.2503 L1281.8331 144.3712 L1287.0388 137.4921 L1292.7424 130.6129 L1291.9403 123.7338 L1289.9725 116.8547 L1291.7671 109.9756 L1294.4222 103.0965" style="fill:none; fill-rule:evenodd;"
    /></g
    ><g style="stroke-linecap:butt; fill:blue; text-rendering:geometricPrecision; color-rendering:optimizeQuality; image-rendering:optimizeQuality; stroke-linejoin:bevel; stroke-dasharray:8,8; color-interpolation:linearRGB; stroke:blue; stroke-width:2; stroke-miterlimit:1;"
    ><path d="M1239.1779 674.0635 L1238.8204 667.1844 L1239.5345 660.3052 L1239.9346 653.4261 L1240.4243 646.547 L1240.7498 639.6679 L1240.8212 632.7888 L1241.5415 625.9097 L1242.3018 619.0305 L1242.8131 612.1514 L1243.0881 605.2723 L1243.2797 598.3932 L1243.6687 591.514 L1244.1631 584.6349 L1244.7606 577.7558 L1245.3689 570.8766 L1246.1254 563.9976 L1247.0194 557.1184 L1248.0985 550.2393 L1249.3428 543.3602 L1250.4277 536.4811 L1251.0043 529.6019 L1251.8101 522.7228 L1252.6293 515.8437 L1253.1346 508.9646 L1253.3938 502.0854 L1253.6971 495.2063 L1254.0819 488.3272 L1254.3601 481.4481 L1254.3867 474.569 L1254.212 467.6898 L1254.2734 460.8107 L1254.1294 453.9316 L1253.9971 447.0525 L1253.8969 440.1734 L1253.7791 433.2943 L1253.6268 426.4151 L1253.39 419.536 L1253.0458 412.6569 L1252.8904 405.7778 L1253.1654 398.8987 L1253.5054 392.0195 L1253.9243 385.1404 L1254.3334 378.2613 L1254.5112 371.3822 L1254.3761 364.503 L1254.3319 357.6239 L1254.4189 350.7448 L1254.5266 343.8657 L1254.4421 336.9865 L1254.4374 330.1074 L1254.2671 323.2283 L1254.058 316.3492 L1253.7863 309.4701 L1253.2102 302.5909 L1252.7417 295.7118 L1252.2463 288.8327 L1251.5956 281.9536 L1250.1793 275.0745 L1248.2484 268.1953 L1245.6105 261.3162 L1243.6846 254.4371 L1242.7306 247.558 L1242.2294 240.6789 L1241.5836 233.7997 L1241.3114 226.9206 L1241.667 220.0415 L1241.7395 213.1624 L1241.9817 206.2833 L1242.0813 199.4041 L1242.5208 192.525 L1243.1183 185.6459 L1242.2766 178.7668 L1243.0627 171.8877 L1242.0409 165.0085 L1241.173 158.1294 L1240.4076 151.2503 L1240.0504 144.3712 L1239.6165 137.4921 L1238.4403 130.6129 L1238.2015 123.7338 L1238.0139 116.8547 L1237.9043 109.9756 L1238.0483 103.0965" style="fill:none; fill-rule:evenodd;"
      /><path d="M1277.1932 674.0635 L1276.7457 667.1844 L1272.1447 660.3052 L1269.5911 653.4261 L1268.4683 646.547 L1267.938 639.6679 L1268.1147 632.7888 L1264.8617 625.9097 L1261.8755 619.0305 L1260.5648 612.1514 L1260.7091 605.2723 L1261.407 598.3932 L1261.1833 591.514 L1261.0065 584.6349 L1260.873 577.7558 L1260.2808 570.8766 L1259.0284 563.9976 L1257.8654 557.1184 L1255.8384 550.2393 L1251.9989 543.3602 L1245.6367 536.4811 L1242.0045 529.6019 L1236.7866 522.7228 L1231.1086 515.8437 L1226.5133 508.9646 L1224.0118 502.0854 L1221.8267 495.2063 L1220.9362 488.3272 L1221.0933 481.4481 L1223.1052 474.569 L1225.4025 467.6898 L1226.4825 460.8107 L1227.8409 453.9316 L1229.2601 447.0525 L1230.4756 440.1734 L1231.5389 433.2943 L1232.4506 426.4151 L1234.153 419.536 L1238.1454 412.6569 L1240.8101 405.7778 L1237.7357 398.8987 L1233.9619 392.0195 L1231.0375 385.1404 L1229.1667 378.2613 L1228.8109 371.3822 L1230.563 364.503 L1229.5319 357.6239 L1227.0205 350.7448 L1224.4811 343.8657 L1222.7556 336.9865 L1220.7036 330.1074 L1219.7418 323.2283 L1219.9574 316.3492 L1222.0052 309.4701 L1225.012 302.5909 L1228.1893 295.7118 L1231.6774 288.8327 L1235.5314 281.9536 L1243.9708 275.0745 L1251.1323 268.1953 L1256.1317 261.3162 L1256.4296 254.4371 L1257.7362 247.558 L1259.1255 240.6789 L1261.838 233.7997 L1264.2603 226.9206 L1265.0173 220.0415 L1265.5444 213.1624 L1266.0312 206.2833 L1263.4519 199.4041 L1263.9211 192.525 L1260.7306 185.6459 L1254.6458 178.7668 L1255.4044 171.8877 L1250.9796 165.0085 L1246.5214 158.1294 L1249.2965 151.2503 L1251.4905 144.3712 L1254.495 137.4921 L1258.5848 130.6129 L1258.5614 123.7338 L1257.7379 116.8547 L1259.0701 109.9756 L1260.7338 103.0965" style="fill:none; stroke-dasharray:8,2,4,2; fill-rule:evenodd; stroke:black;"
    /></g
    ><g transform="translate(1227.0012,53.05)" style="font-size:26px; text-rendering:geometricPrecision; color-rendering:optimizeQuality; image-rendering:optimizeQuality; font-family:'SansSerif'; color-interpolation:linearRGB; font-weight:bold;"
    ><text x="-196.5" xml:space="preserve" y="-6" style="stroke:none;"
      >Sinking Speed Effects, Ballast</text
    ></g
    ><g style="fill:white; text-rendering:optimizeSpeed; color-rendering:optimizeSpeed; image-rendering:optimizeSpeed; shape-rendering:crispEdges; color-interpolation:sRGB; stroke:white;"
    ><path style="stroke:none;" d="M1106 152 L1106 68 L1348 68 L1348 152 Z"
    /></g
    ><g transform="translate(1158.2158,83.5433)" style="font-size:22px; text-rendering:geometricPrecision; color-rendering:optimizeQuality; image-rendering:optimizeQuality; font-family:'SansSerif'; color-interpolation:linearRGB;"
    ><text x="0" xml:space="preserve" y="8" style="stroke:none;"
      >all</text
    ></g
    ><g style="fill:red; text-rendering:geometricPrecision; color-rendering:optimizeQuality; image-rendering:optimizeQuality; color-interpolation:linearRGB; stroke:red; stroke-width:2;"
    ><line y2="83.5433" style="fill:none;" x1="1114.0332" x2="1154.1992" y1="83.5433"
    /></g
    ><g transform="translate(1158.2158,110)" style="font-size:22px; text-rendering:geometricPrecision; color-rendering:optimizeQuality; image-rendering:optimizeQuality; font-family:'SansSerif'; color-interpolation:linearRGB;"
    ><text x="0" xml:space="preserve" y="8" style="stroke:none;"
      >CaCO3 Ballasting</text
    ></g
    ><g style="stroke-linecap:butt; fill:blue; text-rendering:geometricPrecision; color-rendering:optimizeQuality; image-rendering:optimizeQuality; stroke-linejoin:bevel; stroke-dasharray:8,8; color-interpolation:linearRGB; stroke:blue; stroke-width:2; stroke-miterlimit:1;"
    ><line y2="110" style="fill:none;" x1="1114.0332" x2="1154.1992" y1="110"
    /></g
    ><g transform="translate(1158.2158,136.4567)" style="font-size:22px; text-rendering:geometricPrecision; color-rendering:optimizeQuality; image-rendering:optimizeQuality; font-family:'SansSerif'; color-interpolation:linearRGB;"
    ><text x="0" xml:space="preserve" y="8" style="stroke:none;"
      >Silicate Ballasting</text
    ></g
    ><g style="stroke-linecap:butt; text-rendering:geometricPrecision; color-rendering:optimizeQuality; image-rendering:optimizeQuality; stroke-linejoin:bevel; stroke-dasharray:8,2,4,2; color-interpolation:linearRGB; stroke-width:2; stroke-miterlimit:1;"
    ><line y2="136.4567" style="fill:none;" x1="1114.0332" x2="1154.1992" y1="136.4567"
    /></g
    ><g style="fill:rgb(38,38,38); text-rendering:geometricPrecision; color-interpolation:linearRGB; color-rendering:optimizeQuality; image-rendering:optimizeQuality; stroke:rgb(38,38,38);"
    ><path d="M1106 152 L1106 68 L1348 68 L1348 152 L1106 152" style="fill:none; fill-rule:evenodd;"
    /></g
  ></g
></svg
>
